Time,temperature-002,cloudiness-002,temperature-005,cloudiness-005,temperature-015,cloudiness-015,temperature-027,cloudiness-027,temperature-070,cloudiness-070,temperature-110,cloudiness-110,temperature-120,cloudiness-120,temperature-130,cloudiness-130,temperature-145,cloudiness-145,temperature-149,cloudiness-149,temperature-156,cloudiness-156,temperature-168,cloudiness-168,temperature-180,cloudiness-180,temperature-190,cloudiness-190,temperature-222,cloudiness-222,temperature-240,cloudiness-240,temperature-255,cloudiness-255,temperature-260,cloudiness-260,temperature-280,cloudiness-280,temperature-299,cloudiness-299,temperature-434,cloudiness-434,temperature-460,cloudiness-460,temperature-481,cloudiness-481,temperature-497,cloudiness-497,temperature-510,cloudiness-510,temperature-579,cloudiness-579,temperature-588,cloudiness-588,temperature-621,cloudiness-621,temperature-630,cloudiness-630,temperature-643,cloudiness-643,temperature-645,cloudiness-645,temperature-650,cloudiness-650,temperature-675,cloudiness-675,temperature-690,cloudiness-690,temperature-747,cloudiness-747
2016-08-24 03:00:00,23.2,0,19.8,0,17.9,0,17.9,0,15.9,0,15.1,7,15.1,3,16.0,0,21.1,0,20.0,0,20.7,0,14.9,0,14.5,0,14.1,0,16.4,0,18.7,0,18.2,0,16.7,0,17.4,0,13.0,0,21.0,0,19.4,0,19.4,0,17.7,0,21.2,8,14.5,0,15.2,0,18.8,4,18.0,0,16.6,0,16.3,0,18.2,0,15.6,0,23.1,0,17.0,0
2016-08-24 04:00:00,22.7,0,19.0,0,18.1,0,17.9,0,15.5,0,14.5,8,15.2,3,15.2,0,19.3,0,19.2,0,19.9,0,15.3,0,14.3,0,14.4,0,15.3,0,18.3,0,17.6,0,17.9,0,16.0,0,12.9,0,20.8,0,19.3,0,20.0,0,17.5,0,21.1,7,14.1,0,15.3,0,18.4,3,17.6,0,17.4,0,16.6,0,19.4,0,14.7,0,22.9,0,17.1,1
2016-08-24 05:00:00,22.5,0,19.1,0,18.4,0,17.0,0,15.1,0,15.0,7,15.3,3,15.3,0,18.5,0,17.7,0,19.4,0,14.6,0,13.5,0,14.2,0,15.3,0,17.2,0,16.9,0,18.7,0,16.2,0,13.2,0,20.2,0,18.4,0,17.8,0,17.8,0,20.8,7,13.0,0,14.9,0,18.3,3,17.6,0,17.5,0,16.5,0,18.8,0,14.8,0,22.7,0,16.6,1
2016-08-24 06:00:00,23.0,0,20.3,0,19.9,0,18.0,0,17.4,0,15.0,7,15.7,3,15.2,0,20.4,0,20.2,0,19.9,0,17.7,0,16.7,0,17.0,0,16.1,0,19.0,0,18.3,0,20.1,0,18.2,0,16.2,0,20.6,0,19.9,0,19.5,0,18.6,0,20.9,7,16.3,0,15.9,0,18.2,3,17.7,0,17.0,0,19.2,0,20.3,0,17.3,0,23.6,0,18.4,1
2016-08-24 07:00:00,24.2,0,22.4,0,21.9,0,22.8,0,19.7,0,15.5,8,16.6,5,17.8,0,23.0,0,21.8,0,22.3,0,21.3,0,19.9,0,19.8,0,19.5,0,22.6,0,20.8,0,21.9,0,20.1,0,19.0,0,22.4,0,21.6,0,21.9,0,20.0,0,21.5,7,20.0,0,19.5,0,18.0,3,19.5,0,20.8,0,23.3,0,23.9,0,21.9,0,25.6,0,21.0,3
2016-08-24 08:00:00,26.3,0,24.3,0,24.2,0,25.2,0,23.4,0,16.0,7,17.6,4,20.3,0,24.6,0,24.0,0,25.4,0,23.5,0,22.1,0,21.1,0,23.2,1,24.8,0,24.0,0,24.5,0,22.1,0,22.2,0,24.2,0,23.9,0,24.5,0,21.8,0,23.1,0,23.5,0,23.4,0,19.8,1,22.6,0,24.0,0,27.0,0,24.9,0,26.0,0,27.6,0,22.7,1
2016-08-24 09:00:00,27.9,0,25.7,0,26.2,0,27.0,1,25.9,0,17.1,7,19.1,5,22.4,1,26.6,0,26.5,0,27.7,0,25.7,0,23.8,0,22.8,0,25.7,1,27.3,0,26.9,0,27.1,0,24.3,0,24.2,0,26.2,0,26.8,0,26.6,0,24.2,0,25.9,0,26.0,0,26.1,0,22.8,1,25.2,0,26.6,0,29.2,0,26.7,0,28.9,0,28.5,0,24.3,1
2016-08-24 10:00:00,28.9,1,26.9,1,28.1,1,28.3,1,27.8,1,18.2,7,20.6,5,24.1,1,28.6,1,29.0,1,29.6,1,27.9,1,25.4,0,24.6,1,27.4,1,29.8,1,29.3,1,29.5,1,26.3,0,25.7,1,28.2,1,29.7,0,28.3,0,26.8,1,29.1,0,28.0,0,28.1,0,26.0,1,27.5,1,28.5,0,30.6,0,28.6,0,31.0,0,28.7,0,25.6,1
2016-08-24 11:00:00,29.6,1,28.0,1,29.7,1,29.1,1,29.5,1,18.9,7,21.6,5,25.6,2,30.4,1,31.2,1,31.4,1,29.9,1,27.1,1,26.4,1,28.7,1,32.0,1,31.1,1,31.3,1,28.1,1,27.1,1,29.9,1,31.9,1,29.8,1,28.7,1,31.8,0,29.9,1,29.9,1,28.4,1,29.5,1,29.5,1,31.8,1,30.2,1,32.4,1,28.6,1,26.7,1
2016-08-24 12:00:00,29.8,1,29.0,1,31.2,1,29.6,1,31.2,1,19.0,7,22.0,5,26.8,2,31.8,1,32.9,1,32.9,1,31.7,1,28.7,1,28.2,1,29.8,1,33.7,1,32.5,1,32.5,1,29.6,1,28.7,1,31.3,1,33.3,1,31.2,1,30.2,1,33.5,0,31.8,1,31.5,1,29.8,1,31.2,1,30.0,1,32.8,1,31.3,1,33.3,1,28.3,1,27.6,1
2016-08-24 13:00:00,29.3,1,29.3,1,32.5,1,29.4,2,32.9,1,19.1,7,21.9,5,27.6,2,32.9,1,34.0,1,34.2,1,33.2,1,30.3,1,29.6,1,30.7,1,35.0,1,33.7,1,33.2,1,30.8,1,30.1,1,32.3,1,34.0,1,32.1,1,31.3,2,34.5,1,33.5,1,32.8,1,30.7,1,32.7,1,30.3,1,33.5,1,31.9,1,34.0,1,28.2,1,28.4,1
2016-08-24 14:00:00,29.0,1,28.8,1,33.2,1,28.5,3,33.7,1,19.0,7,21.4,5,28.1,2,33.6,1,34.5,1,34.9,1,33.8,1,30.9,1,30.4,1,31.1,1,35.7,1,34.6,1,33.8,1,31.7,1,30.8,1,33.3,1,34.3,1,32.7,1,31.7,2,35.3,1,34.0,1,33.3,1,31.6,1,33.7,1,30.3,1,33.5,1,31.9,1,33.9,1,28.3,1,28.5,1
2016-08-24 15:00:00,28.5,2,27.9,1,33.4,1,27.0,4,33.9,1,18.9,7,20.9,6,27.9,3,33.9,1,34.8,1,35.1,1,34.1,1,31.2,1,30.6,1,31.2,1,35.8,2,35.2,1,34.4,1,31.9,1,31.0,1,33.9,1,34.5,1,32.9,1,31.2,2,35.8,1,34.0,1,33.1,1,32.3,1,33.9,1,29.9,1,32.9,1,31.4,1,33.3,1,28.2,1,28.2,1
2016-08-24 16:00:00,27.8,2,26.6,2,33.1,1,25.6,4,33.2,1,18.7,7,20.6,6,27.4,2,33.8,1,34.5,1,35.1,1,34.1,1,30.9,1,30.1,1,31.1,1,35.6,2,35.2,1,34.4,1,31.4,1,30.4,1,33.7,1,34.3,1,32.6,1,29.5,2,35.9,1,33.4,1,32.5,1,32.5,1,33.4,1,29.3,1,32.1,1,30.4,1,32.4,1,28.1,1,27.6,1
2016-08-24 17:00:00,26.7,2,25.1,2,32.2,1,24.3,5,31.9,1,18.3,7,20.2,6,26.5,2,33.3,1,33.6,1,34.6,1,33.3,1,29.9,1,28.9,1,30.7,1,34.9,1,34.6,1,33.6,1,30.3,1,29.1,1,32.9,1,33.5,1,31.7,1,26.9,2,35.4,1,32.2,1,31.2,1,31.9,1,32.3,1,28.3,1,30.8,1,29.3,1,31.3,1,27.7,1,26.6,1
2016-08-24 18:00:00,25.6,3,23.5,2,30.5,1,22.9,5,29.9,1,17.7,7,19.7,7,25.3,3,32.0,1,32.2,1,33.3,1,31.4,1,28.3,1,27.3,1,29.4,1,33.5,1,33.2,1,31.7,1,28.7,1,27.2,1,31.6,1,32.0,1,30.5,1,24.5,1,34.4,1,30.1,1,29.1,1,30.4,1,30.7,1,27.0,1,29.0,1,27.8,1,29.7,1,27.4,1,25.6,1
2016-08-24 19:00:00,24.5,2,22.0,2,28.4,1,21.3,4,27.3,1,17.0,7,18.5,7,23.6,3,29.9,1,30.2,1,31.5,1,28.4,1,26.1,1,25.4,1,27.3,1,31.2,1,31.0,1,28.5,1,26.7,1,24.7,1,30.1,1,29.8,1,28.8,1,22.4,1,32.4,1,27.8,1,26.6,1,28.0,1,28.9,1,25.7,1,26.9,1,26.3,1,27.7,1,27.0,1,24.5,1
2016-08-24 20:00:00,23.4,2,20.4,1,26.0,1,20.1,3,24.7,1,16.2,7,17.3,7,22.0,4,27.7,1,28.1,1,29.4,1,24.9,1,23.8,1,23.5,1,24.9,1,28.7,1,28.5,1,24.9,1,24.5,1,22.4,1,28.5,1,27.3,1,27.0,1,20.8,1,29.9,1,25.4,1,24.0,1,25.3,1,27.1,1,24.6,1,24.8,1,24.8,1,25.7,1,26.5,1,23.6,1
2016-08-24 21:00:00,22.5,1,19.3,1,23.9,1,18.8,2,22.6,1,15.6,7,16.3,7,20.4,5,25.7,1,26.2,1,27.4,1,21.9,1,21.8,1,21.8,1,22.9,1,26.1,1,26.0,1,22.0,1,22.7,1,20.3,1,26.8,1,24.9,1,25.5,1,19.6,1,27.5,1,23.0,1,21.7,1,22.7,1,25.4,1,23.3,1,23.0,1,23.7,1,23.6,1,26.0,1,22.8,1
2016-08-24 22:00:00,21.9,2,18.7,1,22.6,1,17.9,2,21.3,1,15.1,7,15.7,7,19.3,5,24.3,1,24.8,1,26.1,1,20.1,1,20.5,1,20.5,1,21.7,1,24.3,1,24.2,1,20.2,1,21.4,1,18.8,1,25.4,1,23.1,1,24.2,1,18.5,1,25.5,1,21.4,1,19.8,1,21.2,1,24.2,1,22.1,1,21.5,1,23.1,1,22.2,1,25.5,1,22.2,1
2016-08-24 23:00:00,21.6,2,18.5,1,21.7,1,17.3,3,20.5,1,15.0,7,15.6,7,18.5,5,23.3,1,23.8,1,25.4,1,19.4,1,19.5,1,19.5,1,21.0,2,23.0,1,22.9,1,19.4,1,20.5,1,18.0,1,24.3,1,21.8,1,23.3,1,17.6,1,24.0,1,20.2,1,18.2,1,20.5,1,23.3,1,21.2,1,20.5,1,22.6,1,21.2,1,25.1,1,21.8,1
2016-08-25 00:00:00,21.3,3,18.4,1,21.1,1,17.0,4,20.0,1,15.1,6,15.8,7,17.9,5,22.6,1,23.0,1,24.8,1,18.9,1,18.8,1,18.6,1,20.6,2,22.1,1,21.9,1,19.0,1,19.7,1,17.4,1,23.4,1,21.1,1,22.7,1,16.6,1,23.0,1,19.4,1,17.3,1,20.0,1,22.6,1,20.5,1,20.0,1,22.4,1,20.4,1,24.7,1,21.6,1
2016-08-25 01:00:00,21.0,3,18.4,1,20.5,1,16.7,4,19.4,1,15.2,6,15.9,7,17.3,5,21.9,1,22.2,1,24.2,1,18.4,1,18.0,1,17.8,1,20.0,2,21.5,1,21.1,1,18.5,1,19.0,1,17.0,1,22.8,1,20.7,1,22.5,1,16.1,1,22.2,1,18.9,1,16.8,1,19.4,1,22.0,1,20.0,1,19.9,1,22.1,1,19.7,1,24.4,1,21.4,1
2016-08-25 02:00:00,20.4,3,18.2,1,19.8,1,16.4,4,18.9,1,15.2,6,15.9,6,16.7,5,21.1,1,21.4,1,23.5,1,17.9,1,17.2,1,17.0,1,19.3,3,20.9,1,20.3,1,17.8,1,18.3,1,16.5,1,22.3,1,20.5,1,22.2,1,15.6,1,21.6,2,18.3,1,16.5,1,18.7,1,21.3,1,19.7,1,19.9,1,21.9,1,19.1,1,24.1,1,21.1,1
2016-08-25 03:00:00,19.8,3,18.0,1,19.3,1,16.1,4,18.4,1,15.0,6,15.6,6,16.3,5,20.4,1,20.6,1,22.6,1,17.5,1,16.7,1,16.5,1,18.5,3,20.3,1,19.5,1,17.3,1,17.8,1,16.2,1,21.8,1,20.2,1,21.8,1,15.2,1,21.0,2,17.9,1,16.2,1,18.0,1,20.7,1,19.3,1,19.7,1,21.6,1,18.5,1,23.8,1,20.8,1
2016-08-25 04:00:00,19.3,3,17.7,1,18.9,1,15.9,3,18.1,1,14.7,7,15.3,4,15.9,5,19.8,1,19.9,1,21.6,1,17.3,1,16.6,1,16.3,1,17.8,3,19.6,1,18.7,1,17.0,1,17.7,1,16.0,1,21.3,1,19.7,1,21.3,1,14.8,1,20.3,2,17.5,1,16.0,1,17.4,1,20.1,1,18.8,1,19.3,1,21.4,1,18.1,1,23.6,1,20.5,1
2016-08-25 05:00:00,19.2,3,17.7,1,19.0,1,16.0,3,18.4,1,14.5,7,15.2,3,16.0,5,19.6,1,19.8,1,21.0,1,17.7,1,17.0,1,16.7,1,17.6,3,19.3,1,18.4,1,17.4,1,18.1,1,16.3,1,21.0,1,19.6,1,21.1,1,14.8,1,20.1,2,17.5,1,16.2,1,17.4,2,20.0,1,18.7,1,19.2,1,21.6,1,18.4,1,23.7,1,20.5,1
2016-08-25 06:00:00,19.3,4,18.0,1,19.8,1,17.0,2,19.5,1,14.8,7,15.7,3,16.8,4,20.4,1,20.6,1,21.5,1,19.1,1,18.1,1,17.9,1,18.5,3,20.1,1,19.2,1,18.9,1,19.2,1,17.5,1,21.4,1,20.3,1,21.6,1,15.7,1,20.8,2,18.7,1,17.4,1,18.4,2,20.6,1,19.8,1,20.2,1,22.6,1,19.8,1,24.3,1,21.3,1
2016-08-25 07:00:00,19.9,4,19.1,1,21.6,1,19.0,2,21.6,1,15.9,7,17.1,4,18.5,4,22.5,1,22.7,1,23.4,1,21.7,1,20.0,1,20.0,1,20.9,2,22.5,1,21.7,1,21.7,1,21.2,1,19.9,1,22.7,1,22.4,1,23.0,1,18.0,1,22.7,2,21.4,1,19.8,1,20.7,2,22.3,1,22.4,1,22.9,1,24.5,1,22.8,1,25.5,1,23.0,1
2016-08-25 08:00:00,20.6,3,20.6,1,24.0,1,21.7,2,24.3,1,17.4,7,18.9,5,20.9,3,25.1,1,25.6,1,26.1,1,25.0,1,22.4,1,22.7,1,24.0,2,25.7,2,25.0,1,25.1,1,23.7,1,22.9,1,24.6,1,25.3,1,25.1,1,21.1,1,25.6,1,24.9,1,22.8,1,23.8,1,24.6,1,25.7,1,26.3,1,26.9,1,26.4,1,26.8,1,25.4,1
2016-08-25 09:00:00,21.5,3,22.3,1,26.4,1,24.2,1,27.0,1,18.9,7,20.7,6,23.5,2,27.7,1,28.3,1,28.8,1,28.0,1,24.9,1,25.2,1,26.9,2,29.0,2,28.4,1,28.3,1,26.1,1,25.7,1,26.6,1,28.3,1,27.3,1,24.3,1,28.7,1,28.0,1,25.9,1,26.8,1,27.2,1,28.5,1,29.5,1,29.2,1,29.8,1,28.0,1,27.3,1
2016-08-25 10:00:00,22.1,2,23.9,1,28.5,1,26.3,1,29.1,1,20.2,7,22.0,6,25.8,2,29.8,1,30.5,1,30.9,1,30.3,1,27.1,1,27.2,1,28.9,1,31.6,2,31.1,1,30.8,1,28.1,1,27.8,1,28.4,1,30.9,1,29.3,1,27.0,1,31.4,1,30.3,1,28.4,1,29.1,1,29.3,1,29.9,1,31.5,1,30.8,1,32.0,1,28.6,1,28.5,1
2016-08-25 11:00:00,22.6,2,25.2,1,30.1,1,27.6,1,30.8,1,21.2,7,22.9,5,27.8,2,31.2,1,32.3,1,32.5,1,32.0,1,28.9,1,28.7,1,30.0,1,33.5,2,32.9,1,32.5,1,29.8,1,29.3,1,30.0,1,33.0,1,30.9,1,29.1,1,33.5,1,31.6,1,30.3,1,30.8,1,31.0,1,30.1,1,32.7,1,31.5,1,33.3,1,28.7,1,28.8,1
2016-08-25 12:00:00,23.0,2,26.4,1,31.3,1,28.5,2,32.1,1,21.7,7,23.2,3,29.4,2,32.4,1,33.5,1,33.6,1,33.2,1,30.4,1,30.0,1,30.7,1,34.9,1,34.3,1,33.7,1,31.1,1,30.6,1,31.4,1,34.5,1,32.3,1,30.8,2,35.2,1,32.5,1,31.7,1,32.1,1,32.5,1,29.9,1,33.0,1,31.9,1,33.8,1,28.7,1,28.9,1
2016-08-25 13:00:00,23.3,2,27.2,1,32.2,1,28.9,2,33.2,1,21.8,6,23.0,3,30.7,2,33.3,1,34.5,2,34.5,2,34.1,1,31.4,1,31.2,1,30.9,1,36.0,1,35.2,1,34.6,1,32.2,1,31.6,1,32.6,1,35.6,1,33.3,1,31.9,2,36.2,1,33.3,1,32.6,1,33.2,1,33.7,1,29.5,1,32.9,1,31.9,1,33.9,1,28.7,1,28.9,1
2016-08-25 14:00:00,23.3,3,27.4,1,32.7,1,28.9,2,33.9,1,21.5,6,22.6,3,31.5,2,34.0,1,35.2,2,35.2,2,34.9,1,32.0,1,32.1,1,30.9,1,36.6,2,35.8,1,35.2,1,33.0,1,32.3,1,33.5,1,36.0,1,34.0,1,32.3,2,36.8,1,33.7,2,33.0,1,34.0,1,34.6,1,29.1,1,32.5,1,31.5,1,33.7,1,28.6,1,28.7,1
2016-08-25 15:00:00,23.1,3,27.0,1,32.9,1,28.2,2,34.2,1,21.2,6,22.2,4,31.7,2,34.6,2,35.5,2,35.6,2,35.3,1,32.1,1,32.5,1,30.7,1,36.9,2,36.1,1,35.6,1,33.3,1,32.5,1,34.0,1,36.1,1,34.1,1,31.8,2,36.9,1,33.6,2,32.9,1,34.2,1,34.7,1,28.6,1,31.9,1,30.8,1,33.2,1,28.4,1,28.2,1
2016-08-25 16:00:00,22.7,3,26.1,1,32.7,1,26.9,2,33.8,1,20.9,6,21.9,5,31.2,2,34.9,2,35.4,2,35.6,2,35.4,2,31.7,1,32.1,1,30.3,2,36.7,2,36.0,1,35.7,1,33.0,1,31.9,1,33.9,1,35.7,1,33.6,1,30.2,2,36.5,1,32.9,1,32.2,1,33.6,1,34.0,1,28.1,1,31.1,1,29.9,1,32.3,1,28.1,1,27.4,1
2016-08-25 17:00:00,22.1,3,24.7,1,32.1,1,25.2,3,32.8,1,20.4,6,21.5,6,30.1,3,34.7,1,34.8,2,35.2,2,34.7,2,30.7,1,30.9,1,29.5,2,35.9,2,35.3,1,35.0,1,32.1,1,30.6,1,33.3,1,34.9,1,32.6,1,27.9,1,35.4,1,31.5,1,31.1,1,32.2,1,32.6,1,27.4,1,29.9,1,28.7,1,31.0,1,27.6,1,26.3,1
2016-08-25 18:00:00,21.5,3,23.5,1,30.9,1,23.4,3,31.1,1,19.8,6,20.7,7,28.3,3,33.7,1,33.6,1,34.2,1,32.9,1,29.2,1,29.0,1,28.1,3,34.4,1,33.9,1,33.2,1,30.5,1,28.6,1,32.1,1,33.3,1,31.3,1,25.6,1,33.6,1,29.7,1,29.2,1,30.2,1,30.9,1,26.6,1,28.5,1,27.5,1,29.5,1,27.1,1,25.1,1
2016-08-25 19:00:00,20.9,3,22.2,1,29.0,1,21.5,3,28.8,1,18.6,6,19.5,7,25.9,4,31.6,1,31.7,1,32.6,1,29.7,1,27.2,1,26.7,1,26.0,3,31.9,1,31.7,1,30.0,1,28.4,1,26.1,1,30.5,1,31.1,1,29.7,1,23.6,1,31.0,1,27.5,1,27.0,1,27.6,1,29.1,1,25.7,1,26.7,1,26.3,1,27.7,1,26.7,1,23.9,1
2016-08-25 20:00:00,20.4,4,21.1,1,27.0,1,20.0,4,26.4,1,17.4,6,18.1,7,23.4,4,29.2,1,29.4,1,30.7,1,26.2,1,24.9,1,24.3,1,23.7,3,29.2,1,29.2,1,26.4,1,26.1,1,23.5,1,28.7,1,28.7,1,28.1,1,22.1,1,28.1,1,25.2,1,24.4,1,24.9,1,27.4,1,24.7,1,24.8,1,25.2,1,25.7,1,26.4,1,22.8,1
2016-08-25 21:00:00,20.0,4,20.4,1,25.0,1,18.8,4,24.4,1,16.3,6,16.9,7,21.2,5,27.0,1,27.5,1,29.0,1,23.1,1,23.0,1,22.2,1,21.7,3,26.7,1,26.8,1,23.2,1,24.2,1,21.2,1,26.9,1,26.5,1,26.8,1,20.8,1,25.5,1,23.3,1,22.3,1,22.5,1,25.9,1,23.7,1,23.2,1,24.2,1,24.1,1,26.1,1,22.0,1
2016-08-25 22:00:00,19.9,4,19.7,1,23.6,1,18.0,4,23.0,1,15.8,6,16.4,6,19.7,5,25.5,1,26.0,1,27.7,1,21.4,1,21.5,1,20.8,1,20.5,3,25.0,1,25.2,1,21.4,1,22.8,1,19.8,1,25.5,1,24.8,1,25.8,1,19.7,1,23.7,2,21.9,1,20.8,1,20.9,1,24.7,1,22.8,1,22.1,1,23.5,1,22.7,1,25.7,1,21.3,1
2016-08-25 23:00:00,19.7,4,19.1,1,22.7,1,17.6,4,22.2,1,15.7,6,16.3,6,18.8,6,24.4,1,25.0,1,26.7,1,20.8,1,20.4,1,19.9,1,19.8,3,23.9,1,24.0,1,20.6,1,21.9,1,19.1,1,24.3,1,23.5,1,25.1,1,18.8,1,22.6,3,21.0,1,19.9,1,20.0,1,23.7,2,21.9,1,21.5,1,22.9,1,21.8,1,25.2,1,20.9,2
2016-08-26 00:00:00,19.5,4,18.6,2,22.0,1,17.2,4,21.7,1,15.7,7,16.3,6,18.1,6,23.7,1,24.2,1,25.9,1,20.6,1,19.6,1,19.3,1,19.4,3,23.0,1,23.2,1,20.2,1,21.1,1,18.7,1,23.4,1,22.7,1,24.4,1,17.9,1,22.1,4,20.3,1,19.0,1,19.4,1,22.8,2,21.2,1,21.0,1,22.5,1,21.0,1,24.8,1,20.6,2
2016-08-26 01:00:00,19.0,4,18.1,2,21.5,2,16.8,5,21.2,1,15.7,7,16.2,6,17.5,7,22.9,1,23.3,1,25.2,1,20.3,1,18.9,1,18.5,1,19.1,3,22.1,1,22.4,1,19.8,1,20.3,1,18.5,1,22.6,1,22.1,1,23.8,1,17.2,2,21.7,4,19.7,1,18.3,1,19.0,2,21.9,1,20.7,1,20.5,1,22.2,1,20.2,1,24.4,1,20.4,2
2016-08-26 02:00:00,18.6,4,18.0,2,21.0,2,16.4,5,20.7,1,15.6,7,16.0,7,16.9,7,22.0,1,22.4,1,24.5,1,20.0,1,18.4,1,17.9,1,18.7,3,21.2,2,21.5,1,19.3,1,19.5,1,18.3,1,22.0,1,21.7,1,23.0,1,16.6,2,21.6,4,19.1,1,17.7,1,18.6,2,21.0,1,20.4,1,20.1,1,21.9,1,19.5,1,24.0,1,20.2,2
2016-08-26 03:00:00,18.2,4,17.8,3,20.4,2,16.2,6,20.2,1,15.3,6,15.7,7,16.2,7,21.2,1,21.6,1,23.7,1,19.6,1,18.1,1,17.4,1,18.1,3,20.3,2,20.7,1,18.7,1,18.9,1,18.2,1,21.3,1,21.1,1,22.2,1,16.1,2,21.1,4,18.7,1,17.3,1,18.2,3,20.2,1,20.0,1,19.7,1,21.7,1,18.8,1,23.8,1,19.9,2
2016-08-26 04:00:00,18.0,5,17.8,4,19.8,2,16.0,7,19.8,1,14.8,6,15.4,7,15.6,7,20.5,1,21.0,1,22.9,1,19.4,1,18.1,1,17.4,1,17.5,4,19.6,2,19.9,1,18.2,1,18.7,1,18.2,1,20.7,1,20.6,1,21.5,2,15.8,2,20.4,4,18.5,1,17.3,1,17.7,3,19.6,2,19.5,1,19.4,1,21.7,1,18.5,1,23.7,1,19.4,2
2016-08-26 05:00:00,18.0,6,17.9,4,19.4,3,16.1,7,19.9,1,14.5,6,15.3,7,15.4,7,20.3,1,20.8,1,22.3,1,19.7,1,18.6,1,17.9,1,17.3,6,19.3,2,19.5,1,18.4,1,19.0,1,18.6,1,20.4,1,20.5,1,21.2,2,15.9,2,20.0,4,18.8,1,17.8,1,17.7,3,19.5,2,19.4,1,19.7,1,22.0,2,18.9,1,24.0,1,19.2,2
2016-08-26 06:00:00,18.3,7,18.5,5,19.9,3,16.9,7,20.9,1,14.8,6,15.7,7,16.4,7,20.9,1,21.6,1,22.6,1,20.9,1,19.8,1,19.1,1,18.0,6,20.2,2,20.4,1,19.7,1,20.1,1,19.8,1,20.9,1,21.3,1,21.7,2,17.0,1,20.6,3,20.0,1,19.1,1,18.7,3,20.2,2,20.2,1,20.9,1,22.8,2,20.5,1,24.6,1,19.8,1
2016-08-26 07:00:00,19.0,7,19.9,5,21.4,3,18.5,7,22.9,1,15.9,6,16.7,7,18.8,6,22.4,2,23.5,2,23.9,2,23.4,1,21.9,1,21.2,1,20.1,5,22.4,1,22.8,1,22.5,1,22.0,1,22.1,1,22.4,1,23.3,1,23.3,1,19.2,1,22.5,3,22.3,1,21.3,1,21.0,3,21.9,2,22.2,1,23.3,1,24.3,2,23.4,1,25.7,1,21.6,1
2016-08-26 08:00:00,19.9,7,21.6,4,23.4,3,20.4,7,25.5,1,17.6,6,17.9,7,21.9,6,24.5,2,26.0,2,25.9,2,26.5,1,24.6,1,23.6,1,22.9,4,25.3,1,26.0,1,26.1,1,24.3,1,24.9,1,24.6,1,26.0,1,25.6,1,22.1,1,25.1,2,25.2,1,24.1,1,23.9,2,24.2,2,24.8,1,26.2,1,26.2,2,26.9,1,26.9,1,23.9,1
2016-08-26 09:00:00,20.8,6,23.4,4,25.2,2,22.2,7,28.0,1,19.1,6,19.2,7,24.5,6,26.5,2,28.4,2,28.0,2,29.5,1,27.2,1,26.1,1,25.5,3,28.0,1,29.1,1,29.4,1,26.7,1,27.6,1,26.8,1,28.8,1,27.9,1,25.0,1,27.9,2,27.9,1,26.8,1,26.4,2,26.5,1,27.0,1,29.0,1,28.1,2,30.1,1,27.8,1,26.0,1
2016-08-26 10:00:00,21.4,6,24.8,4,26.4,2,23.4,7,29.8,1,20.1,6,20.2,7,26.0,6,27.9,2,30.3,2,29.7,2,31.8,1,29.4,1,28.1,1,27.3,2,29.9,1,31.3,1,31.6,1,28.8,1,29.5,1,28.7,1,31.0,1,29.7,1,27.5,2,30.1,1,30.0,1,29.1,1,27.8,1,28.4,1,28.1,1,31.0,1,29.7,2,32.2,1,28.2,1,27.2,1
2016-08-26 11:00:00,21.7,7,25.8,4,27.0,3,24.2,7,31.1,1,20.8,5,20.8,7,26.6,5,28.9,2,31.6,2,30.9,2,33.5,1,31.2,1,29.8,1,28.4,2,31.1,2,32.7,1,33.0,1,30.5,1,30.8,1,30.3,1,32.7,1,31.1,1,29.4,2,31.8,1,31.4,1,30.8,1,28.6,1,29.9,1,28.4,1,32.2,1,30.9,2,33.4,1,28.1,1,27.7,1
2016-08-26 12:00:00,22.0,7,26.5,4,27.4,3,24.6,7,32.1,1,21.3,4,21.2,7,27.0,5,29.8,1,32.5,1,31.9,1,34.6,1,32.6,1,31.1,1,29.2,2,32.1,2,33.7,1,34.0,1,31.9,1,31.8,1,31.6,1,33.9,1,32.3,1,30.8,2,33.1,1,32.6,1,32.0,1,29.2,1,31.1,1,28.4,1,32.9,1,31.7,2,33.9,1,28.0,1,27.9,1
2016-08-26 13:00:00,22.2,7,26.9,4,27.9,4,24.9,6,33.0,1,21.8,5,21.4,7,27.7,4,30.7,1,33.2,1,32.6,1,35.3,1,33.6,1,32.2,1,30.0,2,33.0,2,34.7,1,34.9,1,32.9,1,32.6,1,32.7,1,34.8,1,33.3,1,31.6,3,34.0,1,33.6,1,32.8,1,30.2,1,32.2,1,28.6,1,33.1,1,32.1,2,34.1,1,28.0,1,28.0,1
2016-08-26 14:00:00,22.3,6,27.1,4,28.3,4,25.0,5,33.7,1,22.1,6,21.5,7,28.4,4,31.6,2,33.7,1,33.1,2,35.6,2,34.0,1,32.9,1,30.6,2,33.9,2,35.4,1,35.8,1,33.6,1,33.1,1,33.6,1,35.3,1,34.1,1,31.7,3,34.7,1,34.4,1,33.1,1,31.2,1,32.9,1,28.8,1,33.0,1,32.0,2,33.9,1,28.1,1,27.9,1
2016-08-26 15:00:00,22.2,6,26.7,3,28.5,5,24.8,4,33.8,1,22.0,6,21.4,7,28.9,4,32.2,2,33.9,2,33.5,2,35.7,2,33.9,1,33.1,1,30.9,2,34.5,2,35.9,1,36.2,1,33.8,1,33.1,1,34.0,1,35.4,1,34.3,1,30.9,2,35.1,1,34.5,1,32.9,1,32.0,1,33.2,1,28.7,1,32.5,1,31.5,2,33.4,1,28.1,1,27.5,1
2016-08-26 16:00:00,21.8,5,25.8,3,28.3,4,24.2,4,33.2,1,21.3,7,21.2,6,28.8,3,32.5,2,33.8,2,33.7,2,35.5,2,33.1,2,32.5,1,30.8,2,34.7,2,35.9,1,36.1,1,33.5,1,32.4,1,33.8,1,35.1,1,33.9,1,29.3,2,35.3,1,33.9,1,32.3,1,32.1,1,32.8,1,28.0,1,31.7,1,30.6,2,32.5,1,27.9,1,26.7,1
2016-08-26 17:00:00,21.2,4,24.6,2,27.7,3,23.3,4,31.8,1,20.3,6,20.9,6,28.1,4,32.2,2,33.3,2,33.5,2,34.6,2,31.8,2,31.3,1,30.1,3,34.3,2,35.2,1,35.1,1,32.6,1,30.9,1,33.1,1,34.3,1,33.0,1,27.2,2,35.0,1,32.5,1,31.1,2,31.4,1,31.8,1,27.0,1,30.5,1,29.4,2,31.2,1,27.5,1,25.7,1
2016-08-26 18:00:00,20.5,4,23.2,2,26.5,3,22.4,4,29.9,2,19.2,6,20.3,6,26.8,4,31.3,2,32.2,2,32.6,2,32.7,2,29.9,2,29.5,1,28.8,3,33.1,1,33.8,1,33.1,1,31.1,1,28.9,1,31.9,1,32.8,1,31.6,1,25.1,2,34.0,1,30.6,1,29.4,2,29.9,1,30.5,1,25.9,1,28.9,1,28.1,2,29.7,1,27.1,1,24.6,1
2016-08-26 19:00:00,19.8,4,21.9,2,24.7,3,21.6,4,27.6,2,18.3,5,19.4,6,25.1,4,29.6,2,30.5,2,31.0,2,29.6,2,27.7,1,27.2,1,27.0,3,31.2,1,31.7,1,29.9,1,29.0,1,26.4,1,30.3,1,30.7,1,30.0,1,23.4,2,32.2,1,28.3,1,27.1,1,27.5,1,28.9,1,25.0,1,26.9,1,26.8,2,27.9,1,26.7,1,23.6,1
2016-08-26 20:00:00,19.1,5,20.8,2,22.8,3,20.9,5,25.2,1,17.7,5,18.4,7,23.2,4,27.6,2,28.6,2,29.1,2,26.2,1,25.4,1,24.9,1,25.1,2,28.9,1,29.2,1,26.4,1,26.7,1,23.9,1,28.7,1,28.3,1,28.3,1,22.1,2,29.9,1,26.0,1,24.6,1,24.9,1,27.4,1,24.3,1,24.8,1,25.6,2,26.2,1,26.3,1,22.8,1
2016-08-26 21:00:00,18.7,5,19.9,3,21.1,3,20.2,5,23.3,1,17.3,5,17.7,7,21.7,4,25.9,2,26.9,2,27.4,2,23.4,1,23.4,1,22.9,1,23.5,2,26.9,1,27.1,2,23.5,1,24.7,1,21.9,1,27.1,1,26.2,1,26.8,1,20.9,2,27.8,1,24.0,1,22.5,1,22.8,1,26.0,1,23.6,1,23.1,1,24.5,2,24.6,1,26.0,1,22.1,1
2016-08-26 22:00:00,18.5,5,19.4,3,20.1,3,19.5,5,22.1,2,17.2,6,17.5,7,20.7,4,24.8,2,25.8,2,26.4,2,22.0,1,22.1,1,21.5,1,22.7,2,25.5,2,25.7,2,21.9,1,23.3,1,20.6,1,25.9,1,24.6,1,25.7,1,19.8,2,26.2,1,22.6,1,21.1,1,21.6,1,25.0,1,22.9,1,22.0,1,23.7,2,23.4,1,25.8,1,21.6,2
2016-08-26 23:00:00,18.5,5,19.1,3,19.6,3,18.7,4,21.5,2,17.3,6,17.6,7,20.2,4,24.1,2,25.1,2,25.8,2,21.5,1,21.2,1,20.7,1,22.3,3,24.6,2,24.8,2,21.2,1,22.3,1,20.0,1,24.9,1,23.6,1,24.8,1,18.8,2,25.0,1,21.6,1,20.2,1,21.1,1,24.3,1,22.1,1,21.4,1,23.0,2,22.5,2,25.6,1,21.3,3
2016-08-27 00:00:00,18.5,5,18.9,3,19.4,3,18.1,4,21.0,2,17.5,6,17.7,6,19.7,5,23.6,2,24.5,2,25.4,2,21.2,1,20.6,1,20.1,1,22.1,3,23.9,3,24.0,2,20.9,1,21.5,1,19.6,1,24.1,1,22.8,1,24.2,1,18.0,1,24.2,1,20.9,1,19.5,1,20.8,1,23.6,1,21.5,1,21.1,1,22.6,2,21.6,2,25.3,1,21.0,3
2016-08-27 01:00:00,18.5,5,18.8,3,19.2,3,17.6,4,20.4,2,17.6,7,17.6,6,19.1,5,22.9,3,23.7,2,24.8,2,20.7,1,20.0,1,19.6,1,21.7,4,23.1,2,23.1,2,20.4,1,20.7,1,19.2,1,23.4,1,22.1,1,23.6,1,17.4,1,23.5,1,20.2,1,18.8,1,20.2,1,22.9,1,21.0,1,20.8,1,22.3,2,20.7,2,24.9,1,20.8,3
2016-08-27 02:00:00,18.4,5,18.6,4,19.0,3,17.2,4,19.8,2,17.6,7,17.5,5,18.5,5,22.2,3,22.8,2,24.1,2,20.0,1,19.5,1,19.1,1,21.0,4,22.4,2,22.1,2,19.8,1,20.0,1,18.9,1,22.8,1,21.5,1,23.1,1,16.9,2,22.9,1,19.5,1,18.1,1,19.4,1,22.1,1,20.6,1,20.5,1,22.1,1,19.9,1,24.5,1,20.6,3
2016-08-27 03:00:00,18.2,5,18.4,5,18.7,4,17.1,4,19.3,2,17.6,6,17.3,5,17.9,5,21.5,3,21.9,3,23.3,3,19.4,1,19.0,1,18.7,1,20.4,4,21.7,2,21.1,2,19.2,1,19.4,1,18.5,1,22.2,1,20.9,1,22.5,1,16.3,2,22.3,2,19.0,1,17.7,1,18.5,2,21.4,1,20.2,1,20.2,1,22.0,1,19.2,1,24.2,1,20.3,2
2016-08-27 04:00:00,17.9,6,18.1,6,18.4,5,17.2,4,19.1,2,17.6,6,17.3,5,17.6,5,21.0,3,21.3,3,22.5,3,19.3,1,18.6,1,18.5,1,19.9,4,21.2,2,20.3,2,18.9,1,19.0,1,18.2,1,21.7,2,20.4,2,21.9,1,15.7,2,21.6,2,18.8,1,17.6,1,17.7,2,20.8,1,19.9,1,20.0,1,21.9,1,18.9,1,24.1,1,20.0,3
2016-08-27 05:00:00,17.9,7,18.2,6,18.5,5,17.9,5,19.5,2,17.9,6,17.7,6,17.9,5,20.9,3,21.4,3,22.2,3,19.9,1,18.7,1,18.7,1,19.9,4,21.4,2,20.1,2,19.2,1,19.2,1,18.5,1,21.6,2,20.5,2,21.6,2,15.5,2,21.3,3,19.2,1,18.1,1,17.4,2,20.7,1,19.9,1,20.1,1,22.2,1,19.4,1,24.3,1,20.0,3
2016-08-27 06:00:00,18.6,6,19.1,6,19.5,5,19.3,4,20.8,3,18.6,6,18.7,6,19.2,5,21.8,3,22.4,3,22.9,3,21.4,1,19.8,1,19.8,1,20.8,4,22.4,2,21.0,2,20.6,1,20.3,1,19.7,2,22.2,2,21.4,3,22.2,2,16.4,2,21.9,3,20.4,2,19.4,1,18.3,2,21.3,1,20.7,1,21.2,1,23.0,1,20.9,1,24.9,2,20.6,4
2016-08-27 07:00:00,20.4,5,21.0,5,21.6,4,21.6,4,23.2,3,19.8,6,20.5,5,21.6,5,23.7,3,24.6,3,24.8,3,23.9,1,22.2,1,21.9,1,22.8,4,24.6,2,23.3,2,23.2,1,22.5,1,22.1,2,23.6,1,23.5,2,23.9,1,18.6,2,23.8,3,22.5,1,21.6,1,20.7,2,22.9,1,22.5,1,23.4,1,24.5,1,23.7,1,26.0,2,22.0,4
2016-08-27 08:00:00,22.7,4,23.6,4,24.2,3,24.5,3,26.1,3,21.3,6,22.6,5,24.6,5,26.3,3,27.4,3,27.5,3,27.0,1,25.2,1,24.6,1,25.3,4,27.4,2,26.3,2,26.5,1,25.2,1,25.1,2,25.6,1,26.2,2,26.1,1,21.7,2,26.4,4,25.2,1,24.2,1,23.9,2,25.2,1,24.8,1,26.1,1,26.5,1,27.1,1,27.1,1,23.9,4
