Time,temperature-002,cloudiness-002,temperature-005,cloudiness-005,temperature-015,cloudiness-015,temperature-027,cloudiness-027,temperature-070,cloudiness-070,temperature-110,cloudiness-110,temperature-120,cloudiness-120,temperature-130,cloudiness-130,temperature-145,cloudiness-145,temperature-149,cloudiness-149,temperature-156,cloudiness-156,temperature-168,cloudiness-168,temperature-180,cloudiness-180,temperature-190,cloudiness-190,temperature-222,cloudiness-222,temperature-240,cloudiness-240,temperature-255,cloudiness-255,temperature-260,cloudiness-260,temperature-280,cloudiness-280,temperature-299,cloudiness-299,temperature-434,cloudiness-434,temperature-460,cloudiness-460,temperature-481,cloudiness-481,temperature-497,cloudiness-497,temperature-510,cloudiness-510,temperature-579,cloudiness-579,temperature-588,cloudiness-588,temperature-621,cloudiness-621,temperature-630,cloudiness-630,temperature-643,cloudiness-643,temperature-645,cloudiness-645,temperature-650,cloudiness-650,temperature-675,cloudiness-675,temperature-690,cloudiness-690,temperature-747,cloudiness-747
2016-08-23 07:00:00,19.2,0,18.1,0,18.4,0,17.7,0,18.6,0,20.9,0,20.0,0,20.4,0,20.6,0,19.9,0,20.7,0,19.2,0,17.8,0,18.2,0,21.7,0,21.0,0,19.3,0,18.8,0,19.1,0,17.0,0,19.9,0,17.9,0,18.1,0,16.8,0,22.5,0,21.4,0,19.4,0,21.5,0,21.7,0,22.3,0,24.9,0,23.7,0,20.4,0,24.9,0,22.1,0
2016-08-23 08:00:00,21.6,0,21.3,0,21.2,0,21.8,0,21.4,0,22.8,0,23.3,0,23.9,0,22.3,0,22.6,0,24.0,0,22.1,0,20.3,0,20.2,0,25.3,0,23.6,0,21.9,0,21.2,0,20.8,0,19.7,0,23.9,0,21.4,0,19.8,0,19.4,0,25.1,0,24.8,0,21.8,0,25.6,0,24.4,0,25.6,0,27.5,0,24.7,0,24.1,0,26.6,0,24.7,0
2016-08-23 09:00:00,24.1,0,23.7,0,24.1,0,26.3,0,24.0,0,24.7,0,25.4,0,26.6,0,24.0,0,24.9,0,26.1,0,24.0,0,22.6,0,22.1,0,28.0,0,26.0,0,24.8,0,23.6,0,22.4,0,21.7,0,25.8,0,24.4,0,22.3,0,22.0,0,27.4,0,27.2,0,25.0,0,29.0,0,26.8,0,28.1,0,29.6,0,26.9,0,27.7,0,26.7,0,25.5,0
2016-08-23 10:00:00,25.8,0,25.8,0,26.0,0,28.0,0,26.0,0,26.2,0,27.6,0,29.0,0,25.6,0,26.5,0,27.2,0,26.5,0,24.2,0,24.0,0,30.8,0,28.2,0,27.0,0,25.5,0,23.4,0,23.4,0,27.7,0,27.3,0,23.8,0,24.4,0,29.8,0,29.1,0,27.4,0,31.2,0,28.3,0,29.5,0,30.6,0,30.2,0,29.8,0,26.9,0,26.1,0
2016-08-23 11:00:00,24.6,0,27.4,0,27.5,0,29.7,0,27.2,0,26.7,0,29.3,0,30.6,0,27.2,0,28.1,0,28.4,0,27.9,0,25.9,0,25.9,0,32.6,0,29.9,0,29.1,0,27.9,0,25.6,0,24.8,0,30.0,0,29.2,0,25.7,0,26.5,0,31.6,0,30.6,0,29.0,0,31.0,0,29.9,0,28.6,0,31.3,0,30.6,0,30.6,0,26.7,0,26.9,0
2016-08-23 12:00:00,27.2,0,28.2,0,28.3,0,31.0,0,28.2,0,27.2,0,30.3,0,32.5,0,28.5,0,29.4,0,30.1,0,29.2,0,27.0,0,27.1,0,33.9,0,31.6,0,30.5,0,30.1,0,26.8,0,26.0,0,31.7,0,31.2,0,27.1,0,28.1,0,32.9,0,31.7,0,30.8,0,31.8,0,31.0,0,27.4,0,31.6,0,30.8,0,32.3,0,26.5,0,27.5,0
2016-08-23 13:00:00,28.0,0,28.3,0,28.8,0,32.1,0,29.2,0,27.7,1,30.6,1,33.5,0,29.6,0,30.4,0,31.2,0,30.4,0,27.9,0,28.0,0,34.5,0,33.1,0,31.9,0,31.5,0,27.9,0,27.3,0,32.7,0,32.4,0,28.3,0,29.2,0,34.5,1,32.1,0,31.6,0,32.6,0,32.2,0,27.2,0,31.4,0,30.8,0,33.0,0,26.7,0,27.6,0
2016-08-23 14:00:00,27.7,1,28.0,1,29.1,0,32.7,1,29.9,1,27.9,1,30.5,1,34.0,1,30.4,1,31.2,1,31.8,1,31.1,1,28.6,1,28.4,1,34.6,1,34.1,1,32.9,1,32.3,1,28.7,1,28.3,1,33.3,0,32.9,1,29.2,1,29.6,1,35.9,1,32.2,0,31.8,1,33.3,1,33.0,1,27.3,0,31.0,0,30.6,0,32.9,0,26.9,0,27.2,0
2016-08-23 15:00:00,27.1,1,27.6,1,29.3,1,32.6,1,30.1,1,27.5,2,30.1,1,34.2,1,31.0,1,31.6,1,32.1,1,31.6,1,29.0,1,28.4,1,34.6,1,34.5,1,33.6,1,32.8,1,29.1,1,28.6,1,33.6,1,32.9,1,29.7,1,29.0,1,36.6,1,31.9,1,31.6,1,33.4,1,33.1,1,27.3,1,30.3,1,30.1,0,32.2,1,27.0,1,26.5,1
2016-08-23 16:00:00,26.6,1,27.1,1,29.0,1,31.8,1,29.7,1,26.4,2,29.5,1,34.1,1,31.3,1,31.6,1,32.1,1,31.6,1,28.7,1,27.7,1,34.2,1,34.5,1,33.5,1,32.7,1,28.9,1,28.2,1,33.5,1,32.5,1,29.5,1,27.4,1,36.6,1,31.2,1,30.9,1,33.0,1,32.4,1,26.8,1,29.5,1,29.3,1,31.1,1,26.8,1,25.8,1
2016-08-23 17:00:00,26.0,1,26.4,1,28.3,1,30.4,1,28.8,1,24.4,3,28.6,2,33.4,1,31.1,1,31.1,1,31.8,1,30.9,1,27.7,1,26.4,1,33.2,1,33.8,1,32.7,1,31.9,1,28.2,1,27.0,1,32.7,1,31.5,1,28.7,1,25.1,1,35.7,1,30.0,1,29.6,1,31.9,1,31.2,1,26.0,1,28.4,1,28.0,1,29.6,1,26.6,1,25.1,1
2016-08-23 18:00:00,25.5,1,25.2,1,27.3,1,28.6,1,27.3,1,22.2,4,27.0,2,31.9,1,30.1,1,30.1,1,30.9,1,29.1,1,26.0,1,24.7,1,31.3,1,32.3,1,31.2,1,30.0,1,27.0,1,25.2,1,31.4,1,29.8,1,27.5,1,22.8,1,34.1,1,28.2,1,27.7,1,30.1,1,29.6,1,25.1,1,27.0,1,26.5,1,28.0,1,26.2,1,24.1,1
2016-08-23 19:00:00,24.8,1,23.6,1,25.9,1,26.3,1,25.1,1,20.0,4,24.7,2,29.4,1,28.3,1,28.5,1,29.5,1,26.6,1,24.0,1,22.8,1,28.8,1,29.8,1,29.0,1,27.0,1,25.2,1,23.1,1,29.4,1,27.4,1,25.8,1,20.6,1,31.5,1,25.9,1,25.2,1,27.5,1,27.8,1,24.2,1,25.3,1,25.2,1,26.6,1,25.9,1,23.1,1
2016-08-23 20:00:00,24.1,1,22.2,1,24.5,1,23.9,1,23.1,1,17.8,4,22.1,2,26.5,1,26.4,1,26.7,1,27.8,1,23.4,1,21.8,1,21.0,1,26.1,1,27.2,1,26.8,1,23.8,1,23.3,1,20.8,1,27.5,1,24.9,1,24.1,1,19.0,1,28.6,1,23.7,1,22.5,1,24.5,1,26.1,1,23.2,1,23.7,1,23.9,1,25.1,1,25.6,1,22.2,1
2016-08-23 21:00:00,23.4,1,21.2,1,23.3,1,22.0,1,21.5,1,16.3,4,19.8,2,23.8,1,24.6,1,24.8,1,26.2,1,20.8,1,19.7,1,19.5,1,23.8,1,24.8,1,24.7,1,21.0,1,21.7,1,19.0,1,25.9,1,22.7,1,22.8,1,17.8,1,26.2,1,22.1,1,20.1,1,22.2,1,24.5,1,22.2,1,22.1,1,22.7,1,23.6,1,25.2,1,21.6,1
2016-08-23 22:00:00,22.9,1,20.5,1,22.6,1,20.6,1,20.3,1,15.6,4,18.4,2,21.8,1,23.5,1,23.5,1,25.0,1,19.2,1,18.5,1,18.3,1,22.2,1,23.3,1,23.0,1,19.3,1,20.6,1,17.7,1,24.4,1,21.2,1,21.7,1,16.9,1,24.6,2,20.8,1,18.4,1,20.9,1,23.1,1,21.2,1,21.1,1,21.9,1,22.1,1,24.7,1,21.1,1
2016-08-23 23:00:00,22.6,1,20.5,1,22.2,1,19.8,1,19.8,1,15.4,4,17.5,3,20.5,1,22.8,1,22.6,1,24.1,1,18.4,1,18.0,1,17.4,1,21.0,1,22.4,1,21.7,1,18.5,1,19.8,1,17.0,1,23.3,1,19.9,1,20.8,1,16.2,1,23.6,2,19.9,1,17.2,1,20.3,1,22.0,1,20.2,1,20.4,1,21.1,1,20.8,1,24.3,1,20.7,1
2016-08-24 00:00:00,22.2,1,20.3,1,22.0,1,19.2,1,19.3,1,15.4,5,17.0,4,19.4,1,22.2,1,21.9,1,23.4,1,17.9,1,17.3,1,16.6,1,20.3,1,21.7,1,20.7,1,18.0,1,19.1,1,16.5,1,22.5,1,19.2,1,20.2,1,15.6,1,22.9,3,19.4,1,16.5,1,20.3,1,21.1,1,19.4,1,20.0,1,20.6,1,19.8,1,23.9,1,20.4,1
2016-08-24 01:00:00,22.1,1,20.1,1,21.6,1,18.7,1,18.9,1,15.3,5,16.5,5,18.3,2,21.4,1,21.2,1,22.8,1,17.4,1,16.6,1,16.0,1,19.5,1,21.1,1,19.8,1,17.6,1,18.2,1,16.1,1,21.8,1,18.7,1,19.8,1,15.4,1,22.4,4,18.9,1,16.0,1,20.0,2,20.4,1,18.9,1,19.7,1,20.2,1,19.1,1,23.7,1,20.3,1
2016-08-24 02:00:00,22.0,1,19.9,1,21.4,1,18.2,1,18.6,1,15.1,6,16.1,6,17.3,3,20.5,1,20.5,1,22.2,1,16.9,1,15.9,1,15.5,1,18.8,1,20.5,1,19.0,1,17.1,1,17.4,1,15.6,1,21.2,1,18.3,1,19.3,1,15.1,1,22.0,5,18.3,1,15.7,1,19.6,2,19.8,1,18.6,1,19.5,1,19.7,1,18.6,1,23.5,1,20.2,1
2016-08-24 03:00:00,21.8,1,19.5,1,21.1,1,17.6,1,18.0,1,14.8,7,15.5,6,16.4,3,19.6,1,19.8,1,21.5,1,16.5,1,15.4,1,15.2,1,18.1,1,19.7,1,18.2,1,16.6,1,16.8,1,15.4,1,20.6,1,17.7,1,18.8,1,14.8,1,21.6,5,17.8,1,15.2,1,19.2,2,19.2,1,18.1,1,19.1,1,19.4,1,18.1,1,23.4,1,19.9,1
2016-08-24 04:00:00,21.5,1,19.0,1,20.6,1,17.0,1,17.8,1,14.6,7,15.2,6,15.8,3,18.9,1,19.1,1,20.6,1,16.2,1,15.3,1,15.2,1,17.6,1,18.8,1,17.3,1,16.2,1,16.5,1,15.3,1,20.0,1,17.2,1,18.3,1,14.3,1,21.3,5,17.3,1,15.0,1,18.9,3,18.6,1,17.6,1,18.6,1,19.1,1,17.7,1,23.2,1,19.5,1
2016-08-24 05:00:00,21.2,1,18.5,1,20.4,1,16.8,1,17.9,1,14.5,7,15.2,6,15.8,3,18.6,1,18.8,1,20.0,1,16.4,1,15.7,1,15.7,1,17.4,2,18.4,1,17.0,1,16.3,1,16.9,1,15.7,1,19.6,1,17.0,1,18.2,1,14.1,1,21.3,5,17.4,1,15.2,1,18.8,3,18.3,2,17.6,1,18.5,1,19.3,1,17.9,1,23.3,1,19.3,2
2016-08-24 06:00:00,21.5,1,18.6,1,20.9,1,17.6,1,18.9,1,14.7,7,15.6,6,16.6,3,19.3,1,19.5,1,20.4,1,17.6,1,16.9,1,16.9,1,18.2,2,19.0,1,17.7,1,17.5,1,17.9,1,16.8,1,19.9,1,17.8,1,18.8,1,14.9,1,21.8,4,18.5,1,16.5,1,19.3,3,18.7,2,18.6,1,19.5,1,20.4,1,19.4,1,23.9,1,19.9,2
2016-08-24 07:00:00,22.5,1,19.5,1,22.4,1,19.6,1,20.9,1,15.3,7,16.6,7,18.4,3,21.1,1,21.4,1,22.1,1,20.1,1,18.9,1,18.8,1,20.0,2,21.0,1,19.9,1,20.3,1,19.7,1,19.0,1,21.2,1,20.2,1,20.4,1,17.2,1,23.0,3,21.0,1,18.9,1,20.6,2,20.1,2,21.1,1,21.8,1,22.4,1,22.5,1,25.2,1,21.5,2
2016-08-24 08:00:00,23.8,1,21.2,1,24.5,1,22.2,1,23.5,1,16.3,7,17.9,7,20.9,3,23.7,1,24.0,1,24.6,1,23.2,1,21.5,1,21.3,1,22.6,2,24.0,1,23.2,1,23.8,1,22.0,1,21.7,1,23.2,1,23.3,1,22.8,1,20.4,1,24.7,2,24.2,1,22.0,1,22.3,2,22.3,1,24.1,1,25.0,1,25.3,1,26.4,1,26.6,1,23.7,2
2016-08-24 09:00:00,25.1,1,23.1,1,26.6,1,24.8,1,26.2,1,17.3,7,19.1,7,23.1,3,26.3,1,26.9,1,27.2,1,26.3,1,23.9,1,23.4,1,25.1,2,26.9,1,26.3,1,27.0,1,24.4,1,24.4,1,25.3,1,26.5,1,25.1,1,23.7,1,27.0,1,27.1,1,25.2,1,24.3,1,24.7,1,27.0,1,28.1,1,27.8,1,29.8,1,27.8,1,25.6,1
2016-08-24 10:00:00,26.2,1,24.9,1,28.3,1,26.6,1,28.4,1,18.6,7,20.2,6,24.9,2,28.3,1,29.2,1,29.4,1,28.7,1,25.8,1,25.2,1,27.1,2,29.3,1,28.9,1,29.4,1,26.6,1,26.4,1,27.3,1,29.3,1,27.3,1,26.4,1,29.4,1,29.2,1,27.8,1,26.2,1,26.9,1,28.9,1,30.2,1,29.7,1,32.0,1,28.3,1,26.9,1
2016-08-24 11:00:00,26.8,2,26.3,1,29.8,1,27.4,1,30.0,1,19.7,7,21.1,5,26.3,2,30.0,1,31.0,1,31.1,1,30.4,1,27.4,1,26.7,1,28.7,2,31.2,1,30.9,1,31.0,1,28.3,1,27.8,1,29.0,1,31.3,1,29.1,1,28.5,1,31.7,1,30.8,1,29.7,1,28.0,1,29.0,1,29.8,1,31.7,1,31.0,1,33.0,1,28.4,1,27.3,1
2016-08-24 12:00:00,27.2,2,27.4,1,31.0,1,27.9,2,31.4,1,20.4,6,21.2,4,27.5,2,31.3,1,32.4,1,32.4,1,31.7,1,28.7,1,27.9,1,29.6,2,32.6,1,32.4,1,32.2,1,29.8,1,29.0,1,30.4,1,32.7,1,30.5,1,30.3,1,33.5,1,31.9,1,31.1,1,29.7,1,30.8,1,30.1,1,32.4,1,31.6,1,33.3,1,28.2,1,27.6,1
2016-08-24 13:00:00,27.3,2,28.0,1,32.1,1,27.9,2,32.5,1,20.8,6,20.8,3,28.7,2,32.3,1,33.4,1,33.4,1,32.8,1,29.8,1,29.1,1,30.0,1,33.8,2,33.5,1,33.2,1,30.9,1,30.0,1,31.6,1,33.9,1,31.7,1,31.5,2,34.4,1,32.9,1,32.2,1,31.0,1,32.2,1,30.0,1,32.8,1,31.9,1,33.4,1,28.1,1,27.7,1
2016-08-24 14:00:00,27.2,2,27.9,1,33.1,1,27.7,2,33.2,1,20.8,5,20.1,3,29.6,2,33.2,1,34.1,1,34.2,1,33.7,1,30.6,1,30.0,1,30.3,1,34.7,2,34.3,1,33.9,1,31.5,1,30.6,1,32.6,1,34.5,1,32.5,1,32.1,2,34.9,1,33.7,1,32.6,1,31.9,1,33.2,1,29.8,1,32.8,1,31.7,1,33.2,1,28.1,1,27.7,1
2016-08-24 15:00:00,26.8,2,27.5,1,33.5,1,27.1,3,33.4,1,20.6,5,19.5,3,29.8,3,33.7,1,34.4,1,34.6,1,34.1,1,30.9,1,30.4,1,30.3,1,35.2,2,34.7,1,34.4,1,31.7,1,30.8,1,33.1,1,34.7,1,32.7,1,31.6,2,35.1,1,34.0,1,32.5,1,32.5,1,33.5,1,29.3,1,32.5,1,31.2,1,32.7,1,28.1,1,27.5,1
2016-08-24 16:00:00,26.2,2,26.7,1,33.2,1,26.2,4,32.9,1,20.3,5,19.3,4,29.0,4,33.9,1,34.3,1,34.6,1,34.0,1,30.6,1,29.9,1,30.3,2,35.2,2,34.6,1,34.4,1,31.4,1,30.2,1,33.1,1,34.5,1,32.2,1,29.8,2,35.2,1,33.6,1,31.9,1,32.5,1,33.0,1,28.7,1,31.7,1,30.4,1,32.0,1,28.0,1,27.0,1
2016-08-24 17:00:00,25.4,2,25.6,1,32.3,1,24.9,4,31.7,1,19.6,6,19.3,5,27.5,5,33.5,1,33.8,1,34.2,1,33.1,1,29.6,1,28.8,1,29.9,2,34.6,1,34.0,1,33.7,1,30.5,1,28.9,1,32.5,1,33.7,1,31.1,1,27.3,2,35.0,1,32.4,1,30.6,1,31.8,1,31.9,1,27.7,1,30.5,1,29.3,1,30.8,1,27.8,1,26.2,1
2016-08-24 18:00:00,24.4,2,24.3,1,30.6,1,23.4,4,29.8,1,19.0,6,19.1,6,25.7,6,32.4,1,32.5,1,33.2,1,31.0,1,28.0,1,27.1,1,28.8,3,33.2,1,32.7,1,31.8,1,29.0,1,27.0,1,31.5,1,32.0,1,29.7,1,24.7,1,34.0,1,30.6,1,28.8,1,30.0,1,30.4,1,26.7,1,28.9,1,28.0,1,29.3,1,27.4,1,25.4,1
2016-08-24 19:00:00,23.4,1,22.9,1,28.5,1,22.0,4,27.3,1,17.9,7,18.2,6,24.1,6,30.3,1,30.5,1,31.6,1,27.9,1,25.9,1,25.1,1,26.6,3,30.9,1,30.6,1,28.7,1,26.9,1,24.6,1,29.9,1,29.7,1,28.2,1,22.7,1,31.9,1,28.1,1,26.4,1,27.4,1,28.6,1,25.7,1,26.7,1,26.5,1,27.6,1,26.9,1,24.3,1
2016-08-24 20:00:00,22.5,1,21.4,1,26.2,1,20.5,3,24.7,1,16.8,7,17.3,7,22.4,6,27.9,1,28.3,1,29.7,1,24.3,1,23.8,1,22.9,1,24.1,3,28.2,1,28.2,1,25.0,1,24.6,1,22.1,1,28.3,1,27.1,1,26.6,1,21.2,1,29.5,1,25.6,1,23.9,1,24.5,1,27.0,1,24.7,1,24.5,1,25.2,1,25.7,1,26.4,1,23.3,1
2016-08-24 21:00:00,22.0,2,20.2,1,24.2,1,19.2,3,22.7,1,16.0,7,16.5,6,21.0,6,25.7,1,26.1,1,28.0,1,21.4,1,21.8,1,21.2,1,22.1,3,25.7,1,25.9,1,21.8,1,22.6,1,20.1,1,26.5,1,24.7,1,25.3,1,20.0,1,27.1,1,23.4,1,21.6,1,21.9,1,25.4,1,23.5,1,22.6,1,24.0,1,24.1,1,26.0,1,22.3,1
2016-08-24 22:00:00,21.8,2,19.4,1,22.9,1,18.7,3,21.3,1,15.8,7,16.0,6,20.1,6,24.3,1,24.6,1,26.7,1,19.6,1,20.6,1,20.0,1,20.9,2,24.1,1,24.2,1,20.0,1,21.3,1,18.6,1,25.3,1,23.1,1,24.3,1,18.9,1,25.5,1,21.6,1,20.1,1,20.5,1,24.2,1,22.6,1,21.4,1,23.2,1,23.0,1,25.6,1,21.8,1
2016-08-24 23:00:00,21.8,3,18.9,1,21.9,1,18.2,3,20.5,1,15.7,7,15.9,6,19.4,6,23.3,1,23.6,1,25.7,1,18.9,1,19.7,1,19.1,1,20.3,2,23.1,1,23.0,1,19.2,1,20.4,1,17.9,1,24.4,1,21.8,1,23.6,1,18.0,1,24.6,2,20.5,1,19.1,1,19.9,1,23.2,1,21.5,1,20.7,1,22.7,1,22.1,1,25.2,1,21.3,1
2016-08-25 00:00:00,21.9,3,18.6,1,21.3,1,17.9,4,20.0,1,15.8,7,16.0,6,18.7,6,22.6,1,22.8,1,25.0,1,18.7,1,19.0,1,18.3,1,20.0,2,22.3,1,22.0,1,18.8,1,19.6,1,17.5,1,23.7,1,21.0,1,23.0,1,17.3,1,23.9,2,19.7,1,18.3,1,19.6,1,22.4,2,20.9,1,20.4,1,22.4,1,21.4,1,24.8,1,21.2,1
2016-08-25 01:00:00,21.8,3,18.5,1,20.8,1,17.6,3,19.5,1,15.8,7,16.0,6,18.1,6,21.9,1,22.0,1,24.3,1,18.5,1,18.3,1,17.5,1,19.6,2,21.5,1,21.2,1,18.4,1,18.9,1,17.2,1,23.1,1,20.4,1,22.5,1,16.7,2,23.4,2,19.0,1,17.6,1,19.2,1,21.8,2,20.4,1,20.1,1,22.2,1,20.6,1,24.3,1,21.0,1
2016-08-25 02:00:00,21.5,3,18.4,1,20.3,1,17.3,3,18.9,1,15.6,7,15.9,6,17.3,6,21.1,1,21.1,1,23.5,1,18.2,1,17.6,1,16.9,1,19.0,2,20.7,1,20.4,1,17.8,1,18.3,1,16.7,1,22.5,1,19.8,1,22.0,1,16.2,2,22.9,3,18.4,1,16.9,1,18.6,1,21.1,1,20.1,1,19.8,1,22.0,1,19.7,1,23.9,1,20.8,1
2016-08-25 03:00:00,21.2,2,18.2,1,19.8,1,16.9,2,18.4,1,15.3,7,15.7,6,16.7,6,20.3,1,20.3,1,22.7,1,17.8,1,17.1,1,16.4,1,18.2,2,19.9,1,19.5,1,17.2,1,17.9,1,16.4,1,21.8,1,19.2,1,21.4,1,15.7,2,22.2,3,18.0,1,16.6,1,17.8,1,20.6,1,19.7,1,19.5,1,21.8,1,19.2,1,23.5,1,20.5,1
2016-08-25 04:00:00,20.8,2,17.8,1,19.3,1,16.7,2,18.1,1,15.0,7,15.4,6,16.0,6,19.7,1,19.7,1,21.8,1,17.4,1,16.9,1,16.3,1,17.5,2,19.2,1,18.6,1,16.8,1,17.8,1,16.2,1,21.0,1,18.7,1,20.9,1,15.3,2,21.5,3,17.8,1,16.6,1,17.0,2,20.1,1,19.1,1,19.2,1,21.6,1,18.9,1,23.4,1,20.1,1
2016-08-25 05:00:00,20.7,2,17.8,1,19.1,1,16.9,2,18.4,1,14.9,7,15.4,7,16.0,5,19.6,1,19.7,1,21.4,1,17.5,1,17.1,1,16.8,1,17.4,2,19.1,1,18.2,1,17.1,1,18.2,1,16.4,1,20.5,1,18.6,1,20.7,1,15.3,2,21.2,3,18.1,1,17.1,1,16.8,2,20.0,1,19.0,1,19.2,1,21.8,1,19.4,1,23.6,1,19.9,1
2016-08-25 06:00:00,20.9,1,18.2,1,19.9,1,18.0,2,19.6,1,15.4,7,16.0,7,17.1,4,20.5,1,20.7,1,21.9,1,18.7,1,18.1,1,17.9,1,18.5,2,20.1,1,19.1,1,18.5,1,19.3,1,17.6,1,20.8,1,19.5,1,21.3,1,16.3,1,21.9,3,19.3,1,18.4,1,17.8,2,20.6,1,19.9,1,20.2,1,22.6,1,20.8,1,24.3,1,20.6,1
2016-08-25 07:00:00,21.6,1,19.6,1,22.0,1,20.1,2,22.0,1,16.5,7,17.4,7,19.5,3,22.6,1,23.0,1,23.8,1,21.4,1,19.9,1,19.9,1,20.9,2,22.6,1,21.6,1,21.5,1,21.1,1,19.9,1,22.3,1,21.8,1,22.9,1,18.6,1,24.0,2,21.5,1,20.5,1,20.4,2,22.3,1,22.2,1,22.6,1,24.3,1,23.5,1,25.6,1,22.3,1
2016-08-25 08:00:00,22.5,1,21.6,1,24.7,1,22.9,2,24.9,1,18.0,7,19.4,7,22.7,3,25.4,1,26.0,1,26.4,1,24.8,1,22.2,1,22.3,1,24.0,2,25.9,1,24.9,1,25.0,1,23.4,1,22.9,1,24.4,1,24.9,1,24.9,1,21.6,1,26.9,2,24.4,1,23.2,1,23.8,1,24.7,1,25.1,1,25.5,1,26.3,1,26.7,1,26.9,1,24.6,1
2016-08-25 09:00:00,23.3,2,23.6,1,27.3,1,25.5,2,27.7,1,19.4,7,21.2,7,25.7,3,27.9,1,29.0,1,29.1,1,28.2,1,24.6,1,24.6,1,26.8,1,29.2,1,28.3,1,28.4,1,25.8,1,25.7,1,26.7,1,28.1,1,27.1,1,24.8,1,29.7,1,27.1,1,25.8,1,27.0,1,27.1,1,27.8,1,28.5,1,28.4,1,29.8,1,28.1,1,26.7,1
2016-08-25 10:00:00,23.8,2,25.2,1,29.2,1,27.4,2,29.8,1,20.4,7,22.6,7,27.9,3,29.7,1,31.0,1,31.0,1,30.6,1,26.5,1,26.4,1,28.6,2,31.6,1,30.7,1,30.6,1,27.8,1,27.6,1,28.6,1,30.7,1,28.9,1,27.4,1,31.9,1,29.3,1,28.1,1,29.2,1,29.1,1,29.4,1,30.6,1,30.1,1,31.8,1,28.7,1,28.0,1
2016-08-25 11:00:00,23.8,2,26.4,1,30.4,1,28.7,2,31.2,1,21.0,7,23.4,7,29.1,2,31.0,1,32.4,1,32.5,1,32.2,1,28.1,1,27.8,1,29.6,2,33.3,2,32.2,1,31.9,1,29.5,1,28.8,1,30.0,1,32.7,1,30.3,1,29.5,2,33.5,1,30.9,1,29.9,1,30.7,1,30.8,1,30.0,1,32.0,1,31.1,1,33.1,1,28.9,1,28.5,1
2016-08-25 12:00:00,23.9,2,27.0,1,31.3,1,29.2,2,32.3,1,21.4,7,23.7,7,30.0,2,32.0,1,33.4,1,33.5,1,33.2,1,29.5,1,29.0,1,29.8,2,34.4,2,33.4,1,33.0,1,30.8,1,29.7,1,31.2,1,34.1,1,31.6,1,31.0,2,34.6,1,32.1,1,31.2,1,31.8,1,32.1,1,30.2,1,32.7,1,31.8,1,33.6,1,28.9,1,28.7,1
2016-08-25 13:00:00,23.9,2,27.0,1,32.1,1,29.3,2,33.3,1,21.8,7,23.5,7,30.6,2,33.0,1,34.3,1,34.3,1,34.0,1,30.7,1,30.0,1,29.8,2,35.2,2,34.4,1,34.0,1,31.8,1,30.6,1,32.3,1,35.1,1,32.7,1,31.9,2,35.6,1,33.1,1,32.0,1,32.8,1,33.2,1,30.3,1,32.9,1,32.0,1,33.8,1,28.8,1,28.6,1
2016-08-25 14:00:00,23.8,2,26.6,1,32.7,1,28.9,2,33.8,1,21.9,6,23.0,7,31.0,2,33.9,1,34.9,1,34.8,1,34.8,1,31.6,1,30.8,1,29.7,2,35.7,2,35.1,1,34.9,1,32.6,1,31.2,1,33.0,1,35.8,1,33.6,1,32.0,2,36.3,1,33.7,1,32.3,1,33.8,1,34.0,1,30.2,1,32.6,1,31.9,1,33.6,1,28.7,1,28.4,1
2016-08-25 15:00:00,23.5,3,25.9,1,33.0,1,28.1,2,34.0,1,21.7,6,22.5,7,30.8,2,34.5,1,35.3,1,35.2,1,35.1,1,31.9,1,31.1,1,29.4,2,35.8,2,35.5,2,35.5,1,32.9,1,31.5,1,33.4,1,36.0,1,33.9,1,31.3,2,36.5,1,33.8,1,32.1,1,34.3,1,34.3,1,29.9,1,32.1,1,31.3,1,33.1,1,28.5,1,27.9,1
2016-08-25 16:00:00,23.1,3,25.2,2,32.9,2,27.0,3,33.6,1,21.0,5,22.1,7,30.0,3,34.7,2,35.2,2,35.4,2,35.1,2,31.5,1,30.8,1,29.0,2,35.4,2,35.4,2,35.6,1,32.8,1,31.3,1,33.4,1,35.8,1,33.6,1,29.6,2,36.2,1,33.1,1,31.5,1,34.2,1,33.9,1,29.0,1,31.4,1,30.4,1,32.2,1,28.1,1,27.2,1
2016-08-25 17:00:00,22.5,3,24.5,2,32.2,2,25.5,3,32.6,1,20.1,5,21.5,7,28.6,3,34.4,2,34.6,2,35.2,2,34.3,2,30.5,1,29.8,1,28.3,2,34.5,2,34.6,2,34.8,1,32.1,1,30.3,1,32.8,1,34.9,1,32.7,1,27.3,2,35.1,1,31.8,1,30.4,1,33.3,1,32.9,1,28.0,1,30.3,1,29.2,1,31.0,1,27.7,1,26.3,1
2016-08-25 18:00:00,21.9,3,23.6,2,30.9,2,24.0,4,30.8,1,18.9,4,20.7,7,26.8,3,33.3,2,33.4,2,34.4,2,32.4,2,28.8,1,28.2,1,27.1,3,33.0,1,33.2,1,32.8,1,30.6,1,28.5,1,31.7,1,33.3,1,31.3,1,25.1,1,33.5,1,30.0,1,28.7,1,31.4,1,31.4,1,26.8,1,28.8,1,28.0,1,29.5,1,27.2,1,25.3,1
2016-08-25 19:00:00,21.3,3,22.3,2,28.9,2,22.2,4,28.4,1,17.7,2,19.4,6,24.8,4,31.4,2,31.5,2,32.9,2,29.4,1,26.7,1,26.2,1,25.2,3,30.8,1,31.1,1,29.4,1,28.4,1,25.9,1,30.2,1,30.8,1,29.6,1,23.4,2,31.3,2,27.8,1,26.5,1,28.6,1,29.5,1,25.8,1,27.0,1,26.8,1,27.8,1,26.8,1,24.1,1
2016-08-25 20:00:00,20.7,3,21.0,2,26.6,2,20.6,4,25.9,1,16.7,2,18.0,6,22.9,4,29.1,1,29.4,1,30.9,1,25.9,1,24.4,1,24.1,1,23.0,2,28.4,1,28.8,1,25.6,1,25.8,1,23.2,1,28.3,1,28.1,1,27.9,1,22.1,2,29.0,2,25.5,1,24.2,1,25.5,1,27.7,1,24.8,1,25.0,1,25.8,1,26.0,1,26.4,1,23.0,1
2016-08-25 21:00:00,20.3,4,19.8,1,24.6,2,19.1,4,23.6,1,15.8,2,16.9,6,21.1,4,26.8,1,27.4,1,29.1,1,23.0,1,22.4,1,22.1,1,21.1,2,26.1,1,26.6,1,22.5,1,23.6,1,20.9,1,26.7,1,25.6,1,26.4,1,20.8,2,26.8,2,23.6,1,22.2,1,22.9,1,26.1,1,24.0,1,23.4,1,24.8,1,24.5,1,26.0,1,22.2,1
2016-08-25 22:00:00,20.1,4,19.2,1,23.2,2,18.1,4,22.3,1,15.4,3,16.4,6,19.8,5,25.2,1,25.9,1,27.7,1,21.4,1,21.1,1,20.8,1,20.0,2,24.5,1,25.1,1,20.9,1,22.2,1,19.8,1,25.3,1,23.9,1,25.3,1,19.6,2,25.2,2,22.3,1,20.9,1,21.5,1,24.9,1,23.1,1,22.3,1,24.0,1,23.3,1,25.6,1,21.7,1
2016-08-25 23:00:00,19.9,4,19.0,2,22.3,2,17.5,4,21.5,1,15.2,5,16.2,5,18.9,6,24.1,1,24.9,1,26.7,1,20.8,1,20.5,1,19.9,1,19.4,2,23.3,2,24.0,1,20.3,1,21.3,1,19.3,1,24.4,1,22.8,1,24.5,1,18.5,1,23.9,2,21.5,1,20.2,1,20.9,1,24.0,1,22.3,1,21.7,1,23.5,1,22.4,1,25.3,1,21.5,1
2016-08-26 00:00:00,19.7,4,18.7,2,21.7,2,17.1,5,21.0,1,15.1,6,16.1,6,18.1,6,23.1,2,23.9,1,25.8,1,20.5,1,19.9,1,19.2,1,19.0,2,22.4,2,23.0,1,20.1,1,20.7,1,19.1,1,23.6,1,22.1,1,23.8,1,17.6,1,23.1,2,20.8,1,19.6,1,20.6,1,23.1,1,21.7,1,21.3,1,23.0,1,21.5,1,24.9,1,21.3,1
2016-08-26 01:00:00,19.4,4,18.5,3,21.1,2,16.7,5,20.3,1,15.0,5,15.8,6,17.3,7,22.2,2,22.9,2,24.9,1,19.9,1,19.3,1,18.6,1,18.5,3,21.5,2,22.0,1,19.7,1,20.0,1,18.8,1,22.9,1,21.5,1,23.1,1,16.9,1,22.3,2,20.1,1,19.0,1,20.1,1,22.3,1,21.2,1,20.9,1,22.6,1,20.6,1,24.5,1,21.0,1
2016-08-26 02:00:00,19.0,5,18.3,3,20.5,2,16.3,6,19.7,1,14.7,4,15.4,6,16.5,6,21.3,1,21.8,2,24.0,1,19.3,1,18.7,1,18.1,1,18.0,4,20.7,1,21.0,1,19.2,1,19.3,1,18.5,1,22.2,1,20.9,1,22.3,1,16.2,1,21.7,3,19.5,1,18.5,1,19.3,1,21.4,1,20.8,1,20.5,1,22.3,1,19.8,1,24.1,1,20.6,1
2016-08-26 03:00:00,18.7,5,18.1,4,20.0,2,16.0,6,19.3,1,14.5,3,15.0,6,15.7,6,20.5,1,21.0,2,23.1,1,18.8,1,18.2,1,17.9,1,17.4,4,19.9,1,20.0,1,18.7,1,18.7,1,18.1,1,21.5,1,20.5,1,21.6,1,15.8,2,20.9,3,19.0,1,18.0,1,18.5,2,20.6,1,20.4,1,20.1,1,22.0,1,19.2,1,23.9,1,20.1,1
2016-08-26 04:00:00,18.5,6,17.9,5,19.7,4,15.8,7,19.2,1,14.1,3,14.6,6,15.1,7,20.0,2,20.5,2,22.3,2,18.6,1,18.1,1,17.9,1,17.0,5,19.3,1,19.3,1,18.4,1,18.5,1,18.1,1,21.0,1,20.1,2,21.0,1,15.5,2,20.0,4,18.8,1,17.8,1,17.8,2,19.9,1,20.0,1,19.9,1,21.9,1,19.0,1,23.9,1,19.7,1
2016-08-26 05:00:00,18.4,6,18.0,6,19.7,5,16.0,7,19.6,1,13.9,5,14.6,7,15.0,7,20.0,2,20.6,2,21.8,2,19.1,1,18.5,1,18.5,1,17.0,6,19.3,2,19.1,1,18.7,1,18.8,1,18.6,1,20.8,1,20.2,2,20.9,1,15.6,2,19.6,4,19.2,1,18.1,1,17.5,2,19.7,1,20.0,1,20.1,1,22.1,1,19.6,1,24.2,1,19.7,1
2016-08-26 06:00:00,18.7,7,18.5,7,20.3,5,16.9,7,20.8,1,14.4,6,15.1,7,16.0,7,20.6,2,21.5,2,22.1,2,20.4,1,19.7,1,19.7,1,17.9,6,20.2,2,20.1,1,20.0,1,19.9,1,20.0,2,21.4,1,21.2,2,21.6,1,16.6,2,20.1,4,20.4,1,19.2,1,18.3,2,20.3,1,20.8,1,21.2,1,23.0,1,21.2,1,24.9,2,20.5,1
2016-08-26 07:00:00,19.5,7,19.8,7,21.6,5,18.7,7,22.9,1,15.8,5,16.4,7,18.3,6,22.0,2,23.4,2,23.3,2,22.8,1,21.8,1,21.8,1,19.9,5,22.2,2,22.4,1,22.5,1,22.0,1,22.4,2,22.9,1,23.2,2,23.3,2,18.8,2,22.0,4,22.5,1,21.2,1,20.3,2,21.9,1,22.7,1,23.3,1,24.7,1,24.0,1,26.0,2,22.4,1
2016-08-26 08:00:00,20.5,7,21.6,7,23.3,4,20.8,7,25.5,1,17.6,4,18.0,6,21.3,4,23.9,2,25.7,2,25.1,2,25.7,1,24.4,1,24.2,1,22.5,4,24.9,2,25.4,1,25.7,1,24.6,1,25.2,2,24.9,1,25.8,2,25.6,2,21.8,1,24.6,3,25.1,1,23.8,1,23.1,2,24.1,1,25.1,1,26.0,1,26.9,1,27.2,1,27.2,1,24.7,1
2016-08-26 09:00:00,21.5,7,23.5,6,25.0,3,22.8,7,27.9,1,19.3,3,19.6,6,24.0,4,25.8,2,28.0,2,27.1,2,28.5,1,27.0,1,26.6,1,24.9,3,27.4,1,28.4,2,28.7,1,27.2,1,27.9,1,26.9,1,28.4,1,27.8,2,24.9,2,27.2,2,27.7,1,26.4,1,25.6,1,26.3,1,27.3,1,28.6,1,28.9,1,30.1,1,28.1,1,26.9,1
2016-08-26 10:00:00,22.3,7,25.1,6,26.5,3,24.1,7,29.6,1,20.4,2,20.7,6,25.8,3,27.5,2,29.7,2,28.9,2,30.6,2,29.2,1,28.4,1,26.5,2,29.3,1,30.6,2,30.9,1,29.4,1,29.8,1,28.5,1,30.4,1,29.5,2,27.6,2,29.1,1,29.8,1,28.6,1,27.3,1,28.2,1,28.7,1,30.6,1,30.4,1,32.0,1,28.5,1,28.4,1
2016-08-26 11:00:00,22.7,6,26.3,6,27.6,4,24.9,7,30.8,1,21.0,2,21.3,6,26.9,4,28.8,2,30.9,2,30.4,2,32.1,2,30.8,1,29.7,1,27.5,2,30.7,1,32.2,2,32.4,2,31.0,1,31.1,1,29.8,1,31.9,1,30.8,1,29.7,3,30.5,1,31.5,1,30.3,1,28.5,1,29.7,1,29.3,1,31.9,1,31.3,1,32.9,1,28.4,1,29.1,1
2016-08-26 12:00:00,23.0,6,27.0,5,28.5,5,25.3,7,31.7,1,21.3,2,21.6,5,27.7,4,29.7,2,31.7,2,31.5,2,33.2,2,32.0,1,30.8,1,28.2,2,31.7,1,33.3,1,33.5,2,32.2,1,32.0,1,30.9,1,33.1,1,31.8,1,31.2,3,31.6,1,32.8,1,31.6,2,29.4,1,31.0,1,29.5,1,32.7,1,31.9,1,33.3,1,28.3,1,29.4,1
