Time,temperature-002,cloudiness-002,temperature-005,cloudiness-005,temperature-015,cloudiness-015,temperature-027,cloudiness-027,temperature-070,cloudiness-070,temperature-110,cloudiness-110,temperature-120,cloudiness-120,temperature-130,cloudiness-130,temperature-145,cloudiness-145,temperature-149,cloudiness-149,temperature-156,cloudiness-156,temperature-168,cloudiness-168,temperature-180,cloudiness-180,temperature-190,cloudiness-190,temperature-222,cloudiness-222,temperature-240,cloudiness-240,temperature-255,cloudiness-255,temperature-260,cloudiness-260,temperature-280,cloudiness-280,temperature-299,cloudiness-299,temperature-434,cloudiness-434,temperature-460,cloudiness-460,temperature-481,cloudiness-481,temperature-497,cloudiness-497,temperature-510,cloudiness-510,temperature-579,cloudiness-579,temperature-588,cloudiness-588,temperature-621,cloudiness-621,temperature-630,cloudiness-630,temperature-643,cloudiness-643,temperature-645,cloudiness-645,temperature-650,cloudiness-650,temperature-675,cloudiness-675,temperature-690,cloudiness-690,temperature-747,cloudiness-747
2013-08-04 23:00:00,16.8,3,15.8,1,17.3,2,16.6,0,15.3,2,17.8,6,16.2,6,15.6,0,17.3,0,16.7,0,20.4,0,16.5,4,17.8,2,18.7,0,14.7,0,17.4,0,19.9,0,16.6,0,20.3,4,17.9,0,20.4,0,22.5,1,22.1,0,19.6,2,20.8,0,23.7,0,20.9,1,21.2,0,25.5,0,24.5,0,22.9,0,24.2,0,23.7,0,24.7,0,23.8,0
2013-08-05 00:00:00,16.8,2,15.4,1,15.9,0,15.4,1,15.5,0,18.0,5,16.2,5,14.3,3,15.4,0,15.6,0,20.5,0,16.5,3,16.5,1,17.9,0,14.9,0,16.1,0,19.8,0,16.1,0,19.5,1,17.5,0,20.0,0,20.3,0,22.0,0,18.8,1,20.3,0,22.9,0,19.5,0,18.8,0,23.6,0,22.8,0,22.2,0,23.1,0,23.5,0,23.5,0,23.8,0
2013-08-05 01:00:00,17.1,3,15.1,2,14.8,1,14.0,0,14.5,0,18.1,6,16.0,6,14.2,2,14.1,0,14.7,0,19.9,0,16.3,0,16.1,2,16.9,0,15.1,0,15.9,0,18.9,0,15.9,2,18.6,4,16.9,2,19.4,0,18.5,0,21.2,0,18.2,0,20.1,0,21.6,0,18.5,0,18.7,0,21.9,0,22.4,0,21.5,0,23.6,0,22.8,0,24.6,0,22.7,0
2013-08-05 02:00:00,17.0,3,14.4,2,14.6,0,14.1,3,13.9,0,18.1,7,16.5,6,14.5,1,14.7,0,15.0,0,18.1,0,15.6,0,15.6,2,16.7,0,13.8,0,15.2,0,18.4,0,16.2,0,18.3,2,17.6,0,18.2,0,17.5,0,21.3,0,17.4,0,20.1,0,21.1,0,18.2,0,17.7,0,21.0,0,22.1,0,21.2,0,22.8,0,22.5,0,25.1,0,22.0,0
2013-08-05 03:00:00,16.9,3,14.4,1,14.7,3,13.8,2,13.2,1,18.1,6,16.6,7,14.3,1,13.6,1,14.3,1,17.7,1,14.0,0,15.4,2,16.0,3,13.6,0,14.2,0,17.4,0,15.9,0,18.1,2,16.3,2,18.4,0,17.4,0,21.1,0,16.8,0,19.8,0,20.6,0,17.4,0,17.1,0,21.0,0,21.7,0,20.5,1,22.0,0,20.0,0,23.6,0,22.1,0
2013-08-05 04:00:00,16.5,0,14.5,2,14.2,2,13.0,0,13.1,1,17.9,7,16.7,6,13.5,4,12.6,0,13.9,1,17.3,0,13.2,0,14.6,0,16.0,5,13.7,5,13.7,0,16.6,0,15.1,0,17.7,1,15.9,1,17.9,0,17.3,0,20.0,0,16.4,0,18.9,0,20.0,0,17.0,0,16.1,0,21.2,0,21.5,1,21.0,2,22.2,0,18.7,0,23.3,0,22.9,1
2013-08-05 05:00:00,17.2,1,15.2,2,15.5,2,14.4,2,15.0,1,17.8,7,16.5,6,14.6,4,14.3,1,15.7,2,17.5,1,14.5,0,16.0,0,17.3,5,14.9,5,15.1,2,17.5,1,16.0,0,18.2,2,17.2,1,18.3,1,17.8,1,20.4,1,16.9,1,19.8,1,21.1,1,18.2,0,17.5,1,21.4,1,22.3,2,21.5,2,23.1,1,19.7,0,24.0,0,23.4,2
2013-08-05 06:00:00,17.9,1,16.4,2,17.3,2,16.2,3,17.2,1,17.8,7,16.6,6,16.0,5,16.2,2,17.6,2,18.5,2,16.7,1,18.0,1,19.2,4,16.6,5,17.0,3,18.9,2,17.6,1,19.4,2,19.0,2,19.2,1,19.1,2,21.2,1,18.2,1,21.2,2,22.5,1,19.9,0,19.4,1,22.4,1,23.5,3,22.6,2,24.3,1,21.5,1,24.7,1,24.2,2
2013-08-05 07:00:00,18.7,2,18.3,2,19.2,2,18.2,4,19.8,1,17.8,7,17.1,6,17.7,5,18.1,3,19.6,3,20.6,3,19.3,1,20.3,1,21.3,4,18.6,5,19.3,4,20.9,2,19.8,1,21.1,3,21.1,2,20.7,2,21.1,2,22.4,1,20.4,1,22.9,2,24.1,1,22.0,1,21.5,1,24.1,1,25.0,4,24.4,3,25.8,2,23.9,1,25.4,1,25.6,3
2013-08-05 08:00:00,19.4,3,20.7,3,21.1,3,20.3,4,22.5,1,18.0,7,17.9,6,19.5,5,20.2,4,21.7,4,23.3,3,22.3,2,22.6,2,23.6,3,20.6,5,22.0,4,23.2,3,22.3,1,23.2,3,23.2,2,22.5,2,23.7,2,24.2,2,23.1,1,24.8,3,25.9,1,24.3,1,23.6,1,26.2,1,26.5,4,26.4,3,27.3,2,26.6,1,26.2,2,27.2,4
2013-08-05 09:00:00,20.1,4,22.9,4,22.9,3,22.1,5,25.0,2,18.2,7,18.9,6,21.2,5,22.2,4,23.7,4,25.7,4,25.1,2,24.7,2,25.7,3,22.5,5,24.5,4,25.5,3,24.7,2,25.3,3,25.2,3,24.3,3,26.3,2,26.1,2,25.9,1,26.5,3,27.7,1,26.6,1,25.3,1,28.3,1,27.8,5,28.3,3,28.8,2,29.4,1,26.9,2,28.7,4
2013-08-05 10:00:00,20.6,4,24.4,4,24.6,3,23.4,4,26.8,2,18.4,7,19.9,5,22.7,5,24.1,4,25.6,4,27.4,4,27.5,3,26.5,3,27.7,2,23.9,5,26.3,4,27.4,3,26.7,2,27.0,3,27.0,3,25.9,3,28.4,3,27.9,2,28.3,1,28.0,3,29.6,1,28.6,1,26.2,1,30.2,1,28.7,5,29.9,2,30.2,2,31.8,1,27.5,2,29.9,4
2013-08-05 11:00:00,21.0,4,25.1,4,26.0,3,24.0,3,28.0,3,18.6,6,20.7,5,23.7,4,25.9,4,27.4,4,28.4,4,29.4,3,28.1,3,29.3,2,24.9,5,27.4,4,28.6,3,28.3,3,28.5,2,28.6,4,27.1,4,29.9,3,29.5,2,30.1,1,29.0,3,31.2,1,30.3,1,26.4,2,31.6,1,29.1,5,31.0,2,31.3,3,33.8,2,28.1,2,30.9,3
2013-08-05 12:00:00,21.0,4,25.2,4,26.9,4,24.0,3,28.8,4,18.8,6,21.2,5,24.0,4,26.3,4,28.1,4,29.1,4,30.3,4,29.1,4,30.2,2,25.1,5,28.0,4,29.4,3,29.4,4,29.6,2,29.6,4,27.7,4,31.0,4,30.7,1,31.3,1,29.1,3,32.3,1,31.4,1,26.0,3,32.7,2,29.1,5,31.7,2,32.0,3,34.8,1,28.0,1,31.6,2
2013-08-05 13:00:00,20.6,3,24.6,3,27.7,4,23.7,4,29.6,4,19.2,5,20.9,4,23.8,4,26.8,5,28.7,4,29.7,4,31.2,4,30.0,3,31.1,2,24.8,5,28.1,5,30.2,4,30.4,4,30.4,2,30.3,4,27.8,4,31.7,3,31.6,1,32.1,2,29.0,4,32.9,1,32.1,1,25.7,3,33.6,2,29.0,4,31.9,2,32.2,2,35.2,1,28.0,1,32.1,2
2013-08-05 14:00:00,20.0,2,23.8,2,28.0,4,23.3,5,30.0,4,19.8,5,20.4,3,23.6,5,27.0,6,29.1,5,30.1,5,31.9,5,30.7,3,31.6,3,24.2,5,28.0,6,30.8,4,31.0,4,30.8,2,30.9,4,27.8,4,31.9,3,32.0,1,32.1,2,28.4,4,32.9,1,32.3,1,25.3,4,33.9,3,28.8,3,31.7,2,32.0,2,35.2,1,28.1,1,32.3,2
2013-08-05 15:00:00,19.5,2,23.1,2,27.9,4,23.0,6,30.1,4,20.1,5,19.9,3,23.1,5,27.1,6,29.2,6,30.2,6,32.1,5,31.1,2,32.0,3,23.7,5,27.8,6,30.8,5,30.9,4,31.0,2,31.1,3,27.3,5,31.6,3,32.1,1,31.4,2,27.8,4,32.6,1,32.1,1,24.8,5,33.6,4,28.4,2,31.2,1,31.4,2,34.7,1,28.1,1,32.1,2
2013-08-05 16:00:00,19.3,2,22.6,3,27.0,5,22.9,5,29.5,5,20.0,5,19.6,4,22.9,5,26.8,6,28.8,6,29.8,6,31.8,5,31.1,3,32.1,2,23.4,4,27.5,6,30.1,5,29.9,4,30.8,3,30.9,2,26.6,5,30.7,4,31.8,1,29.8,2,27.1,4,32.0,1,31.4,1,24.1,5,32.6,4,27.9,2,30.6,1,30.5,2,33.9,1,27.9,1,31.2,3
2013-08-05 17:00:00,19.3,3,22.2,4,25.6,5,22.5,5,28.4,5,19.6,5,19.2,5,22.6,4,26.3,5,28.0,5,29.0,5,30.9,5,30.6,4,31.7,2,23.0,4,27.0,6,29.1,5,28.2,4,30.2,3,30.3,2,25.9,5,29.3,4,31.1,1,27.6,2,26.3,5,30.9,1,30.0,1,23.5,4,31.1,3,27.1,3,29.6,1,29.4,2,32.7,2,27.6,1,29.9,4
2013-08-05 18:00:00,19.1,3,21.6,4,24.0,5,21.9,4,26.8,5,18.8,4,18.7,5,21.9,3,25.2,4,26.8,5,27.8,4,29.2,5,29.4,4,30.7,2,22.2,4,26.0,5,27.6,5,26.5,4,28.9,3,29.1,2,24.9,4,27.6,5,30.0,1,25.5,1,25.3,5,29.5,1,28.3,1,22.6,3,29.4,3,26.4,3,28.2,2,28.2,3,31.2,2,27.2,1,28.5,4
2013-08-05 19:00:00,18.5,3,20.6,4,22.4,5,20.6,3,24.6,5,17.8,4,17.8,6,20.8,2,23.9,4,25.2,4,26.3,4,26.6,4,27.5,4,28.7,1,20.9,3,24.5,4,26.2,4,25.1,4,27.0,3,27.2,2,23.9,4,26.0,5,28.5,1,23.7,1,23.9,5,27.5,1,26.2,1,21.8,3,28.0,2,25.5,4,26.4,2,26.9,3,29.4,2,26.8,1,27.1,4
2013-08-05 20:00:00,17.8,3,19.2,3,20.9,3,19.2,2,22.8,5,16.8,3,16.9,5,19.2,2,22.7,3,23.6,4,24.6,4,23.9,4,25.5,4,26.6,1,19.4,3,23.0,4,24.8,4,23.8,5,24.8,3,25.1,2,22.7,3,24.6,4,27.2,1,22.3,1,22.6,6,25.3,1,23.9,1,21.3,2,26.6,2,24.9,3,24.4,2,25.6,3,27.5,2,26.5,2,26.0,4
2013-08-05 21:00:00,17.1,3,18.0,2,19.9,2,17.7,2,20.9,5,15.9,3,15.9,5,17.6,2,21.3,3,22.2,4,23.3,4,21.8,4,23.8,3,24.6,2,18.2,3,21.6,3,23.5,4,22.3,5,23.0,3,23.3,2,21.7,3,23.3,3,25.9,1,21.1,1,21.4,6,23.3,1,21.9,1,20.6,2,25.5,2,24.2,3,22.8,2,24.7,3,25.7,2,26.3,2,25.1,4
2013-08-05 22:00:00,16.5,3,17.1,2,19.3,1,16.6,3,19.6,5,15.4,3,15.2,4,16.8,3,20.6,3,21.3,4,22.5,4,20.5,4,22.6,3,23.3,2,17.3,3,20.4,3,22.5,5,20.8,5,21.8,3,22.1,2,21.0,4,22.3,3,25.0,1,20.1,1,20.6,6,22.0,1,20.6,2,20.2,3,24.6,2,23.7,4,21.8,2,23.8,3,24.3,2,26.1,2,24.5,4
2013-08-05 23:00:00,16.1,4,16.5,3,18.7,2,16.0,3,18.9,5,15.2,3,14.8,4,16.1,4,20.1,3,20.7,4,22.1,4,20.3,5,21.7,3,22.5,3,16.7,4,19.8,3,21.7,5,19.6,5,21.1,3,21.5,2,20.4,4,21.5,2,24.5,1,19.2,1,20.2,7,21.0,1,19.6,3,20.0,4,23.7,2,23.0,5,21.2,3,23.1,4,23.2,3,25.9,2,24.1,4
2013-08-06 00:00:00,15.7,5,15.9,4,18.3,2,15.6,4,18.0,5,15.0,4,14.4,3,15.8,4,19.5,3,20.0,4,21.5,4,19.8,5,21.0,2,21.9,4,16.4,4,19.0,3,20.9,5,18.5,5,20.6,3,20.9,2,19.8,5,20.8,2,24.0,1,18.4,1,19.8,7,20.4,1,19.0,4,19.6,4,23.0,3,22.4,5,20.7,3,22.5,4,22.1,3,25.6,2,23.9,4
2013-08-06 01:00:00,15.3,5,15.3,4,17.6,2,15.2,4,17.1,5,14.8,3,14.2,4,15.6,5,18.5,3,19.3,3,21.0,3,19.6,5,20.3,2,21.4,4,16.1,5,18.2,4,20.2,5,17.9,5,19.9,3,20.2,2,19.2,6,20.2,2,23.6,1,17.7,2,19.4,7,19.7,1,18.5,3,19.2,5,22.3,3,21.8,6,20.3,3,22.1,4,21.1,2,25.3,2,23.6,4
2013-08-06 02:00:00,15.0,5,14.9,4,17.0,2,15.0,4,16.8,4,14.4,3,14.1,4,15.2,5,17.7,3,18.5,3,20.2,3,19.0,5,19.7,3,20.8,4,15.9,5,17.4,4,19.3,5,17.7,5,19.3,2,19.6,2,18.4,6,19.5,1,23.0,1,17.2,2,19.1,7,19.0,1,18.0,2,18.9,5,21.8,3,21.3,6,19.9,3,21.9,4,20.4,2,24.9,3,23.2,4
2013-08-06 03:00:00,14.7,6,14.5,4,16.6,2,14.8,5,16.3,3,14.2,2,14.0,4,14.9,5,16.9,3,17.8,3,19.3,3,18.7,5,19.5,3,20.5,4,15.6,5,16.7,4,18.8,5,17.7,5,18.9,1,19.5,2,18.0,6,19.0,1,22.4,1,16.8,2,18.7,7,18.7,1,17.7,1,18.6,5,21.2,3,20.8,5,19.7,3,21.6,4,19.8,1,24.6,4,22.8,4
2013-08-06 04:00:00,14.6,6,14.7,5,16.6,3,14.6,5,16.7,3,13.8,2,13.7,4,14.6,5,16.6,4,17.5,4,18.8,4,18.5,5,19.9,3,20.7,3,15.6,6,16.5,5,18.6,6,18.0,5,18.7,1,19.9,2,17.7,6,18.7,2,21.9,1,16.5,2,18.6,7,18.8,1,17.6,1,18.6,5,20.8,3,20.7,5,19.9,3,21.9,4,19.6,2,24.5,4,22.6,4
2013-08-06 05:00:00,14.6,7,15.2,6,16.9,4,14.8,6,17.4,2,13.6,2,13.7,4,14.6,5,16.6,5,17.5,5,18.5,5,18.7,6,20.8,3,21.4,2,15.8,6,16.6,6,18.6,6,18.4,6,19.1,1,20.9,2,17.7,6,18.7,4,21.6,1,16.6,2,18.7,7,19.4,2,18.1,1,18.5,5,20.6,4,21.1,5,20.5,4,22.5,4,20.0,3,24.7,4,22.7,5
2013-08-06 06:00:00,15.1,7,16.1,6,17.6,5,15.4,6,18.4,3,13.8,2,14.0,4,15.1,6,17.0,6,18.0,6,18.8,6,19.4,7,22.1,3,22.7,2,16.3,7,17.1,6,19.0,7,18.9,6,20.0,2,22.4,2,17.9,7,19.2,4,21.9,1,17.5,2,19.0,7,20.7,2,19.1,2,18.7,6,20.7,4,22.0,6,21.5,4,23.6,5,21.3,4,25.2,4,23.3,5
2013-08-06 07:00:00,15.9,7,17.3,6,18.6,5,16.5,6,19.7,3,14.6,3,14.9,4,16.4,6,17.7,5,19.0,6,19.6,6,20.2,6,23.3,3,24.4,2,17.3,7,17.8,6,19.5,7,19.8,6,21.6,2,24.3,2,18.2,7,20.5,4,23.1,1,19.3,1,19.6,7,22.6,2,21.0,4,19.3,6,21.2,5,23.6,6,23.2,4,25.3,6,23.8,6,26.2,4,24.5,5
2013-08-06 08:00:00,16.8,7,18.5,6,19.8,5,17.8,6,21.2,3,15.6,3,16.1,5,17.9,6,18.8,5,20.1,5,20.8,5,21.2,6,24.6,2,26.6,1,18.4,7,18.6,6,20.2,7,20.7,6,23.6,2,26.4,1,18.5,7,22.1,4,24.7,1,21.6,1,20.3,7,25.0,2,23.2,5,20.1,5,22.0,5,25.3,6,25.1,4,27.1,6,26.8,6,27.3,4,26.0,5
2013-08-06 09:00:00,18.1,6,19.6,6,21.2,5,19.0,7,22.8,3,16.8,3,17.2,5,19.6,6,19.9,4,21.3,4,22.0,4,22.4,5,25.9,2,28.5,1,19.7,7,19.5,6,20.8,6,21.5,6,25.3,2,28.3,1,19.0,7,23.6,3,26.4,1,24.3,2,21.2,7,27.2,2,25.4,6,20.9,5,23.0,5,26.8,6,26.8,3,28.9,7,29.3,7,28.1,4,27.6,5
2013-08-06 10:00:00,18.8,6,20.5,6,22.3,5,20.0,7,24.2,4,17.7,4,18.1,5,20.8,6,20.9,4,22.2,4,22.9,4,23.5,4,26.9,2,29.9,1,20.9,7,20.3,6,21.1,7,22.0,6,26.6,1,29.8,1,19.8,7,24.6,3,27.7,1,26.7,3,22.1,7,29.0,2,27.3,6,21.7,5,24.2,5,27.7,6,28.2,3,30.1,6,31.3,6,28.2,5,28.9,5
2013-08-06 11:00:00,19.6,6,21.1,6,23.4,4,20.7,7,25.4,4,18.3,4,18.8,5,21.8,6,22.0,4,22.9,4,23.6,4,24.6,4,27.6,2,30.8,2,21.9,7,21.1,7,21.5,7,22.2,6,27.3,1,30.7,1,20.4,7,25.2,4,28.5,1,28.7,4,22.8,6,30.4,3,28.6,5,22.4,4,25.2,6,28.0,6,28.9,3,30.9,5,32.4,6,27.9,6,29.8,5
2013-08-06 12:00:00,19.9,6,21.5,6,24.3,4,21.0,7,26.3,5,18.8,3,19.1,5,22.5,6,22.7,4,23.5,5,24.3,4,25.3,4,28.0,3,31.0,1,22.6,6,21.7,7,21.9,7,22.5,6,27.7,2,31.1,1,21.0,7,25.6,5,29.0,1,30.2,6,23.4,6,31.3,3,29.5,4,22.8,4,26.2,6,28.1,6,29.6,3,31.2,4,32.9,5,27.7,6,30.3,5
2013-08-06 13:00:00,20.0,7,21.9,7,24.9,4,21.1,7,26.8,5,19.0,3,19.1,4,22.9,6,23.2,5,24.2,5,25.0,5,25.8,5,28.0,3,30.6,1,23.0,5,22.4,7,22.6,7,23.2,6,27.7,3,31.0,2,21.5,7,26.2,6,29.0,2,31.1,6,23.8,6,31.8,4,30.0,3,23.3,5,27.0,5,28.1,6,29.8,4,31.2,5,33.3,5,27.7,6,30.3,5
2013-08-06 14:00:00,20.0,7,22.0,7,25.1,5,20.8,7,27.1,6,19.1,3,18.9,3,23.1,6,23.6,6,24.7,6,25.7,6,26.1,6,27.7,3,30.0,1,23.1,5,22.7,7,23.3,7,23.7,7,27.3,4,30.5,2,21.7,7,26.8,6,28.7,3,31.1,7,24.0,6,31.9,4,30.3,3,23.3,6,27.7,5,28.0,7,29.9,5,30.9,6,33.2,5,27.9,6,29.8,6
2013-08-06 15:00:00,20.0,7,22.0,7,25.0,6,20.4,7,26.9,7,18.9,2,18.6,2,22.9,5,23.9,7,25.1,7,26.1,7,26.1,7,27.3,4,29.2,2,22.8,4,23.0,7,23.8,7,24.1,7,27.0,5,29.7,2,21.8,7,26.9,7,28.3,4,30.2,6,24.1,6,31.6,5,29.9,3,23.1,7,27.9,5,27.7,7,29.5,6,30.3,7,32.8,5,28.0,5,29.1,6
2013-08-06 16:00:00,19.9,6,21.7,6,24.5,6,19.9,7,26.5,7,18.5,2,18.2,2,22.4,5,24.1,7,25.2,7,26.2,7,26.0,7,26.9,4,28.4,2,22.3,5,23.1,7,23.8,7,23.8,7,26.7,6,28.8,2,21.7,7,26.5,7,27.9,4,28.3,6,24.0,6,30.8,5,28.9,3,22.5,7,27.7,5,27.2,6,28.8,6,29.5,7,32.0,6,27.8,5,28.2,6
2013-08-06 17:00:00,19.7,6,20.9,6,23.5,6,19.2,6,25.6,7,18.0,2,17.7,2,21.6,5,24.0,7,24.9,7,25.8,7,25.6,7,26.2,4,27.6,3,21.6,5,22.8,7,23.5,7,23.2,7,26.0,6,27.6,2,21.5,7,25.7,7,27.3,4,26.0,5,23.7,6,29.6,6,27.4,4,21.5,7,27.1,6,26.5,6,27.8,6,28.5,5,30.8,6,27.5,5,27.3,6
2013-08-06 18:00:00,19.1,6,20.0,6,22.3,6,18.4,6,24.4,7,17.2,1,17.2,3,20.4,4,23.4,7,24.1,7,25.0,7,24.7,7,25.1,5,26.5,4,20.7,6,22.2,7,22.7,7,22.3,7,25.2,7,26.3,2,20.9,7,24.5,7,26.6,4,23.7,5,23.1,6,28.0,6,25.7,5,20.4,7,26.1,6,25.9,5,26.5,5,27.4,5,29.4,7,27.1,5,26.5,6
2013-08-06 19:00:00,18.1,6,18.7,6,20.8,6,17.4,6,22.7,7,16.2,1,16.4,2,19.1,4,22.2,7,22.8,7,23.7,7,23.1,7,23.7,5,25.0,5,19.5,5,21.2,6,21.9,7,21.7,7,23.9,6,25.0,2,20.1,7,23.3,7,25.4,5,22.0,5,22.1,5,26.2,6,23.9,5,19.4,7,25.0,7,25.4,5,25.2,5,26.4,5,27.9,6,26.7,6,25.7,6
2013-08-06 20:00:00,17.2,6,17.3,6,19.5,7,16.2,6,20.8,7,15.3,1,15.6,2,17.8,4,20.6,7,21.4,7,22.3,7,21.3,6,22.1,5,23.6,4,18.4,5,20.0,6,21.0,6,21.0,7,22.5,6,23.5,2,19.1,7,22.1,7,24.1,5,20.8,5,20.8,5,24.3,6,22.2,5,18.6,7,23.8,7,24.9,5,24.1,5,25.6,5,26.4,5,26.3,6,25.0,5
2013-08-06 21:00:00,16.2,7,16.1,6,18.5,7,15.3,6,19.2,6,14.4,1,14.9,2,16.6,3,19.3,7,20.2,7,21.0,7,19.7,6,20.7,5,22.2,4,17.5,4,19.0,6,20.2,6,20.3,7,21.3,6,22.2,3,18.3,7,21.0,7,23.0,5,20.0,5,19.6,5,22.7,6,20.8,6,17.9,7,22.6,7,24.4,5,23.0,5,24.9,6,25.0,5,26.1,6,24.5,5
2013-08-06 22:00:00,15.7,6,15.4,6,17.9,7,14.7,6,18.1,6,13.8,1,14.3,2,15.8,3,18.4,7,19.3,7,20.1,7,18.7,6,19.7,5,21.3,4,16.9,4,18.3,6,19.6,6,19.3,7,20.5,6,21.2,3,17.8,7,20.2,7,22.4,5,19.4,6,18.8,6,21.7,5,19.7,6,17.6,7,21.7,7,24.0,5,22.1,5,24.4,7,23.8,4,25.9,6,24.1,6
2013-08-06 23:00:00,15.5,6,15.0,6,17.4,7,14.2,5,17.2,6,13.4,1,13.9,2,15.4,3,17.8,6,18.8,6,19.5,7,17.9,6,19.0,6,20.7,4,16.4,4,17.8,6,19.2,6,18.3,7,19.9,7,20.7,3,17.4,7,19.5,7,21.9,5,19.0,6,18.3,6,21.0,5,18.9,6,17.4,7,21.0,7,23.5,5,21.5,5,24.0,7,22.9,4,25.7,6,23.8,6
2013-08-07 00:00:00,15.3,6,14.7,7,17.1,7,13.8,5,16.6,6,13.1,2,13.6,2,15.0,3,17.3,6,18.3,6,19.0,6,17.6,6,18.4,7,20.2,4,16.0,4,17.4,6,18.6,6,17.4,7,19.5,7,20.0,3,17.0,7,18.8,7,21.7,5,18.5,6,17.9,6,20.4,6,18.3,7,17.2,7,20.4,7,22.9,5,21.0,5,23.5,7,21.9,4,25.5,6,23.4,6
2013-08-07 01:00:00,15.8,6,15.4,7,17.4,7,13.7,6,16.4,6,12.1,2,12.2,2,13.7,3,17.0,6,17.9,6,18.9,7,17.1,6,18.8,7,20.3,4,15.6,4,16.6,6,17.9,6,16.4,7,18.8,7,20.3,3,16.1,7,18.0,7,21.7,6,17.8,6,17.3,6,19.8,6,18.3,6,17.1,7,19.7,6,22.3,5,20.6,5,23.1,7,21.3,5,25.3,6,22.8,6
2013-08-07 02:00:00,15.6,7,15.0,7,17.1,7,13.5,6,16.0,6,11.9,3,12.0,2,13.3,3,16.5,7,17.4,7,18.4,7,16.8,7,18.1,7,19.7,5,15.2,4,16.0,6,17.4,6,16.1,7,18.2,7,19.7,3,15.4,6,17.5,7,21.2,6,17.2,6,16.8,6,19.1,6,17.8,6,16.8,6,19.0,6,21.8,6,20.3,6,22.7,7,20.7,5,24.9,6,22.4,5
2013-08-07 03:00:00,15.6,7,14.8,7,16.9,7,13.4,6,16.0,7,11.7,4,11.8,2,13.0,3,16.1,7,17.0,7,18.1,7,16.7,7,17.9,7,19.4,6,14.8,4,15.6,6,17.0,6,16.1,7,17.9,7,19.3,3,14.9,6,17.1,7,20.7,6,16.8,6,16.5,6,18.9,7,17.7,6,16.6,6,18.5,6,21.5,6,20.2,6,22.6,7,20.3,5,24.7,6,22.1,5
2013-08-07 04:00:00,15.8,7,15.0,7,17.1,7,13.5,6,16.5,7,11.4,4,11.8,2,12.9,4,16.1,7,17.0,7,17.9,7,16.9,7,18.3,7,19.7,6,14.6,4,15.4,6,16.7,7,16.3,7,17.9,7,19.3,3,14.6,6,17.0,7,20.3,7,16.6,6,16.4,6,19.3,7,18.0,6,16.4,6,18.2,7,21.4,6,20.5,6,22.7,6,20.2,6,24.7,6,22.1,5
2013-08-07 05:00:00,16.0,7,15.6,7,17.4,7,13.8,6,17.3,7,11.4,5,12.0,3,13.1,4,16.3,7,17.2,7,17.9,7,17.4,7,19.2,7,20.4,6,14.7,4,15.5,6,16.6,7,16.7,7,18.1,7,19.7,3,14.5,7,17.1,7,20.1,6,16.6,6,16.4,7,20.2,7,18.6,7,16.4,6,18.1,7,21.8,5,21.2,6,23.1,6,20.6,7,24.9,6,22.3,5
2013-08-07 06:00:00,16.2,7,16.2,7,17.7,7,14.4,6,18.1,7,11.7,5,12.6,3,13.8,5,16.6,7,17.5,7,18.0,7,18.0,7,20.1,7,21.4,6,15.1,4,15.9,5,16.9,7,17.3,7,18.7,7,20.4,4,14.8,7,17.5,7,20.2,6,17.1,7,16.7,7,21.3,7,19.6,7,16.6,7,18.2,7,22.5,5,22.0,6,23.8,6,21.8,7,25.4,6,22.8,6
2013-08-07 07:00:00,16.3,7,16.8,7,17.7,7,15.4,6,18.7,7,12.6,6,13.6,4,15.0,5,16.9,7,17.9,7,18.2,7,18.6,7,20.9,7,22.5,6,16.0,4,16.6,6,17.6,7,18.1,7,19.5,7,21.3,5,15.3,7,18.1,7,20.6,7,18.0,7,17.2,7,22.5,7,20.9,7,17.0,7,18.4,7,23.7,5,22.9,6,24.9,6,23.9,7,26.1,6,23.4,6
2013-08-07 08:00:00,16.3,7,17.3,7,17.6,7,16.5,6,19.1,7,14.0,6,14.9,4,16.5,4,17.3,7,18.3,7,18.6,7,19.2,7,21.5,7,23.6,7,17.1,4,17.4,6,18.5,7,18.9,7,20.4,7,22.3,6,16.1,7,18.9,7,21.2,7,19.2,7,17.9,7,23.7,7,22.3,6,17.5,7,18.8,7,25.0,6,23.8,6,26.2,7,26.3,6,26.9,7,24.2,6
2013-08-07 09:00:00,16.3,7,17.6,7,17.6,7,17.8,6,19.5,7,15.3,6,16.3,4,18.0,4,17.7,7,18.7,7,19.1,7,19.9,7,21.9,7,24.5,7,18.3,4,18.3,6,19.4,7,19.6,7,21.1,7,23.2,6,17.0,7,19.7,7,21.7,7,20.3,7,18.8,7,24.8,7,23.6,6,18.0,7,19.4,7,26.2,7,24.8,7,27.3,7,28.3,6,27.5,7,25.1,7
2013-08-07 10:00:00,16.4,7,17.7,7,17.7,7,19.0,5,20.0,7,16.4,6,17.5,4,19.3,4,18.3,7,19.2,7,19.7,7,20.6,7,22.2,7,25.2,7,19.4,4,19.1,6,20.2,7,20.1,7,21.4,7,24.0,6,17.9,6,20.4,7,22.0,7,21.2,7,19.8,6,25.9,7,24.6,6,18.4,7,20.2,7,26.9,7,25.7,7,28.1,6,29.4,6,27.8,7,26.0,7
2013-08-07 11:00:00,16.6,7,17.7,7,18.0,7,19.9,5,20.5,7,17.3,5,18.4,3,20.2,4,18.9,7,19.7,7,20.3,7,21.2,7,22.4,7,25.7,6,20.4,4,19.9,6,20.8,7,20.5,7,21.5,7,24.5,6,18.6,6,21.1,7,22.2,7,21.9,7,20.8,6,26.8,7,25.3,6,18.7,7,21.0,7,27.3,7,26.6,7,28.5,6,29.7,6,27.9,7,26.9,7
2013-08-07 12:00:00,16.9,7,17.8,7,18.3,7,20.5,5,20.9,7,17.9,4,19.0,4,21.0,4,19.5,7,20.2,6,20.9,6,21.6,7,22.6,7,25.8,6,21.0,3,20.5,7,21.4,7,20.9,7,21.5,7,24.9,6,19.0,6,21.6,7,22.3,7,22.4,7,21.6,6,27.3,7,25.9,7,19.0,7,21.7,7,27.5,7,27.2,7,28.7,6,29.8,6,27.9,7,27.4,7
2013-08-07 13:00:00,17.2,7,18.0,7,18.6,7,20.7,5,21.2,7,18.3,4,19.2,4,21.6,3,20.0,6,20.7,6,21.3,6,21.8,7,22.7,7,25.6,6,21.2,4,20.9,7,21.9,7,21.4,7,21.6,7,25.1,6,18.9,6,22.0,7,22.4,7,22.7,7,22.0,6,27.4,7,26.4,7,19.2,7,22.2,7,27.8,7,27.5,7,28.7,6,29.9,6,28.0,7,27.5,7
2013-08-07 14:00:00,17.5,7,18.2,7,18.8,7,20.5,5,21.4,7,18.5,5,19.0,4,21.9,3,20.3,6,21.0,6,21.5,6,21.9,7,22.8,7,25.2,7,21.2,4,21.2,7,22.2,7,21.8,7,21.7,7,25.0,7,18.6,7,22.2,7,22.4,7,22.7,7,22.0,7,27.1,7,26.6,7,19.3,7,22.3,7,27.9,7,27.4,7,28.6,6,29.9,6,28.1,7,27.1,7
2013-08-07 15:00:00,17.6,7,18.3,7,18.8,7,20.1,5,21.4,7,18.5,5,18.7,4,21.8,3,20.4,6,21.2,6,21.6,6,21.8,7,22.7,7,24.6,7,21.0,4,21.2,7,22.1,7,21.8,7,21.7,7,24.6,7,18.2,7,22.0,7,22.2,7,22.2,7,21.9,7,26.4,7,26.3,7,19.2,7,22.2,7,27.6,7,26.9,7,28.1,6,29.5,6,28.1,7,26.3,7
2013-08-07 16:00:00,17.5,6,18.2,7,18.6,7,19.6,5,21.2,6,18.3,5,18.3,5,21.3,3,20.1,6,21.1,6,21.5,6,21.7,7,22.4,7,24.0,7,20.7,4,21.0,6,21.5,7,21.1,7,21.5,7,23.9,7,18.0,7,21.3,7,21.8,7,21.1,7,21.6,7,25.4,7,25.4,7,18.8,7,21.7,7,26.8,7,26.0,7,27.3,7,28.5,6,27.8,7,25.2,7
2013-08-07 17:00:00,17.2,6,17.8,6,18.2,7,18.8,4,20.7,6,17.9,5,17.7,5,20.5,4,19.6,6,20.8,6,21.1,6,21.3,7,22.0,7,23.3,7,20.3,4,20.5,6,20.6,7,20.0,7,21.1,7,22.9,7,17.9,7,20.3,7,21.3,7,19.6,7,21.2,7,24.2,7,24.1,7,18.2,7,21.0,7,25.7,7,24.9,7,26.4,6,27.2,6,27.3,7,24.1,6
2013-08-07 18:00:00,16.8,6,17.2,6,17.6,6,17.9,4,19.8,5,17.2,4,16.9,4,19.4,5,18.9,6,20.1,6,20.5,6,20.6,6,21.2,6,22.5,7,19.5,4,19.8,6,19.6,7,18.9,7,20.4,7,21.8,7,17.5,6,19.2,7,20.6,7,18.2,7,20.5,6,23.1,7,22.6,7,17.5,7,20.2,7,24.6,7,23.8,7,25.4,6,25.9,6,26.7,6,23.0,6
2013-08-07 19:00:00,16.2,5,16.3,5,16.8,6,16.7,4,18.6,5,16.1,4,15.9,4,18.1,4,18.1,6,19.2,6,19.6,6,19.4,6,20.1,6,21.5,7,18.4,3,18.8,6,18.8,6,18.1,7,19.5,7,20.7,7,16.8,6,18.2,7,19.8,7,17.1,7,19.5,6,22.1,7,21.3,7,16.8,6,19.4,6,23.7,6,22.8,7,24.5,6,24.9,7,26.2,6,22.2,6
2013-08-07 20:00:00,15.7,4,15.4,5,16.0,5,15.5,4,17.2,6,14.9,3,14.8,3,16.8,3,17.2,6,18.1,6,18.6,6,17.9,6,19.0,6,20.4,6,17.1,3,17.7,6,18.1,6,17.4,6,18.5,7,19.6,7,15.8,6,17.3,6,19.0,7,16.4,6,18.3,6,21.3,7,20.2,7,16.2,5,18.6,6,22.9,5,21.9,6,23.8,6,24.2,6,25.7,6,21.5,6
2013-08-07 21:00:00,15.5,4,15.0,5,15.7,5,14.6,5,16.4,6,14.0,3,13.9,3,15.7,2,16.7,6,17.6,6,18.2,6,17.3,6,18.4,5,19.7,6,16.1,2,17.1,6,17.5,6,16.7,6,17.9,7,19.0,7,15.4,6,16.7,5,18.7,7,16.0,6,17.4,6,20.7,7,19.5,7,15.8,5,18.1,6,22.2,5,21.3,6,23.3,6,23.4,6,25.5,6,21.1,6
2013-08-07 22:00:00,15.4,4,14.6,5,15.5,5,13.8,5,15.8,6,13.3,2,13.2,2,14.7,2,16.2,6,17.0,6,17.7,6,16.6,7,17.8,5,19.2,6,15.4,2,16.5,6,16.9,6,16.1,6,17.4,7,18.4,7,15.1,6,16.1,5,18.5,7,15.7,6,16.7,6,20.2,6,19.0,7,15.6,5,17.7,5,21.5,5,20.8,6,22.8,6,22.6,6,25.2,6,20.7,6
2013-08-07 23:00:00,15.3,5,14.3,5,15.3,5,13.2,5,15.2,6,12.9,2,12.8,2,14.0,2,15.8,6,16.6,6,17.3,6,16.1,7,17.3,5,18.6,6,14.9,3,16.0,6,16.4,6,15.5,6,17.0,7,18.0,7,14.8,6,15.6,4,18.3,6,15.5,6,16.1,5,19.7,6,18.5,6,15.4,5,17.3,5,21.0,5,20.4,6,22.4,5,21.9,6,25.0,6,20.4,5
2013-08-08 00:00:00,15.3,5,14.0,5,15.1,6,12.8,5,14.7,6,12.7,2,12.5,2,13.5,3,15.4,6,16.1,6,17.0,6,15.6,7,16.9,5,18.2,6,14.5,3,15.5,6,16.0,6,15.1,6,16.6,7,17.5,6,14.5,6,15.2,4,18.1,6,15.3,6,15.8,5,19.4,6,18.2,6,15.2,5,17.0,5,20.6,5,20.1,6,22.0,5,21.3,6,24.9,6,20.2,5
2013-08-08 01:00:00,15.3,5,13.9,6,15.1,6,12.6,5,14.4,5,12.6,2,12.5,2,13.2,3,15.1,5,15.8,5,16.7,6,15.3,7,16.6,5,17.9,6,14.3,4,15.1,6,15.7,6,14.7,6,16.3,7,17.3,6,14.3,6,14.9,4,18.0,6,15.3,6,15.6,5,19.2,6,18.0,6,15.2,5,16.8,5,20.3,5,20.0,5,21.8,5,20.9,6,24.8,6,20.2,5
2013-08-08 02:00:00,15.4,5,13.8,6,15.1,6,12.6,5,14.2,5,12.5,2,12.5,2,13.0,4,14.9,5,15.6,5,16.5,5,15.0,6,16.4,5,17.8,6,14.1,5,14.8,6,15.4,6,14.5,6,16.1,7,17.1,6,14.2,6,14.7,5,18.0,6,15.4,5,15.5,5,19.2,6,18.0,6,15.2,5,16.7,5,20.2,5,20.0,5,21.7,5,20.7,5,24.8,5,20.3,5
2013-08-08 03:00:00,15.5,5,13.8,6,15.2,6,12.7,5,14.1,5,12.5,2,12.6,2,12.9,4,14.8,5,15.4,5,16.4,5,15.0,7,16.3,5,17.7,6,14.1,6,14.7,6,15.3,6,14.4,6,16.0,7,17.0,6,14.2,5,14.7,5,18.0,6,15.6,5,15.5,5,19.3,5,18.1,6,15.3,5,16.6,5,20.1,5,20.1,5,21.7,5,20.6,5,24.9,5,20.5,5
2013-08-08 04:00:00,15.7,5,13.9,6,15.3,6,13.1,5,14.2,6,12.6,2,12.8,2,13.0,5,14.8,5,15.4,5,16.4,5,15.0,7,16.4,5,17.8,6,14.2,6,14.6,6,15.3,6,14.5,5,16.0,7,17.1,6,14.2,5,14.7,6,18.2,6,15.9,5,15.6,5,19.5,5,18.4,5,15.4,5,16.7,5,20.3,5,20.4,5,21.9,5,20.6,5,25.0,5,20.8,5
