Time,temperature-002,cloudiness-002,temperature-005,cloudiness-005,temperature-015,cloudiness-015,temperature-027,cloudiness-027,temperature-070,cloudiness-070,temperature-110,cloudiness-110,temperature-120,cloudiness-120,temperature-130,cloudiness-130,temperature-145,cloudiness-145,temperature-149,cloudiness-149,temperature-156,cloudiness-156,temperature-168,cloudiness-168,temperature-180,cloudiness-180,temperature-190,cloudiness-190,temperature-222,cloudiness-222,temperature-240,cloudiness-240,temperature-255,cloudiness-255,temperature-260,cloudiness-260,temperature-280,cloudiness-280,temperature-299,cloudiness-299,temperature-434,cloudiness-434,temperature-460,cloudiness-460,temperature-481,cloudiness-481,temperature-497,cloudiness-497,temperature-510,cloudiness-510,temperature-579,cloudiness-579,temperature-588,cloudiness-588,temperature-621,cloudiness-621,temperature-630,cloudiness-630,temperature-643,cloudiness-643,temperature-645,cloudiness-645,temperature-650,cloudiness-650,temperature-675,cloudiness-675,temperature-690,cloudiness-690,temperature-747,cloudiness-747
2013-07-20 11:00:00,19.5,3,23.9,0,22.0,1,24.7,0,27.8,0,26.1,0,22.4,1,29.3,0,26.2,0,27.6,0,28.4,0,28.4,0,27.8,0,27.7,0,29.8,0,27.3,2,28.2,0,28.2,0,27.3,0,26.3,0,27.7,1,28.0,0,26.9,0,24.4,6,30.4,0,30.4,2,27.1,2,28.8,0,29.0,0,27.6,2,29.6,4,28.3,2,30.5,2,27.4,0,26.9,3
2013-07-20 12:00:00,19.9,4,24.2,0,22.9,1,24.8,0,29.0,0,26.6,0,22.9,1,29.6,3,27.6,0,28.6,0,29.5,0,30.0,0,29.0,0,29.0,0,30.6,2,27.7,2,29.5,4,28.9,0,28.5,0,27.7,1,29.0,4,29.2,2,28.0,0,26.3,6,32.6,0,31.2,2,28.3,3,29.3,2,29.6,2,28.4,2,29.9,4,31.0,2,31.2,1,27.5,1,27.6,0
2013-07-20 13:00:00,20.0,4,24.7,0,23.5,1,24.3,1,29.5,0,26.8,1,23.0,1,29.7,5,28.0,0,29.3,0,30.8,0,30.8,1,29.7,0,30.3,1,31.0,6,29.6,1,29.0,2,30.0,1,29.2,0,28.7,2,28.2,5,29.7,5,28.9,0,27.4,6,33.2,0,32.7,3,28.9,4,30.3,3,31.3,0,27.8,0,30.8,5,31.0,1,31.9,2,26.3,4,28.3,5
2013-07-20 14:00:00,20.2,4,25.0,0,23.5,0,23.9,2,30.0,0,28.1,3,22.9,3,31.2,5,28.8,0,29.7,0,31.0,0,31.3,1,30.1,0,29.6,3,31.5,6,29.4,3,30.7,1,29.8,2,29.3,2,29.6,1,27.7,5,28.3,6,29.7,0,27.6,7,32.7,2,32.8,4,28.9,4,30.4,4,31.9,0,28.2,0,32.7,3,31.6,1,29.9,4,27.3,5,28.3,5
2013-07-20 15:00:00,20.2,3,25.1,0,23.8,0,22.9,1,29.8,0,26.9,6,19.9,7,31.4,5,29.2,0,29.9,0,30.7,0,31.4,2,30.0,2,30.4,0,31.9,5,30.2,5,31.1,0,30.2,2,30.1,1,29.9,0,28.6,4,29.2,5,30.3,0,27.5,7,32.7,4,32.5,5,29.1,4,30.7,5,32.4,0,27.8,0,31.7,2,29.5,1,28.6,4,26.9,3,26.2,7
2013-07-20 16:00:00,19.3,4,24.6,0,23.9,0,22.4,1,30.1,0,27.2,7,19.2,6,31.9,4,28.7,0,29.9,1,30.4,0,31.2,1,30.2,0,30.4,0,31.9,4,29.5,3,30.9,0,30.4,1,30.1,3,29.9,0,29.1,3,29.7,6,30.6,0,26.1,6,33.8,3,31.2,5,29.5,6,30.6,6,32.6,0,27.1,0,30.1,2,29.8,0,26.3,4,26.7,3,25.4,8
2013-07-20 17:00:00,19.1,3,23.7,0,23.2,0,21.9,1,28.9,0,26.2,7,18.6,6,31.1,3,28.0,0,29.2,1,29.9,0,30.9,2,29.2,1,29.5,1,31.0,4,28.5,3,29.7,1,29.3,1,29.2,3,28.7,0,28.3,3,28.4,6,29.3,0,23.8,5,33.3,3,30.4,5,27.6,6,29.4,5,31.6,1,26.2,1,29.3,2,28.5,1,25.6,4,26.8,3,25.3,8
2013-07-20 18:00:00,18.6,3,22.4,1,22.3,1,21.0,1,27.2,1,24.8,6,18.4,6,29.8,3,27.2,1,28.1,1,29.1,1,29.9,3,27.6,1,28.3,1,29.7,3,27.4,3,28.5,1,27.7,2,27.8,3,27.1,1,27.3,2,26.9,5,28.0,1,22.0,4,32.1,3,28.6,4,25.3,5,27.9,4,30.2,1,25.5,2,28.0,2,27.1,1,24.9,3,26.6,3,24.9,7
2013-07-20 19:00:00,17.7,2,21.0,1,21.5,1,19.8,2,25.0,1,23.1,5,18.1,5,28.0,2,26.2,1,26.9,1,27.9,1,27.8,3,25.5,2,26.7,2,28.4,3,26.1,3,27.4,1,25.6,1,26.3,2,25.4,1,26.1,2,25.3,4,26.7,1,20.2,3,30.5,2,26.4,3,23.2,4,26.1,4,28.6,1,24.7,2,26.4,1,25.8,1,24.0,3,26.1,2,24.1,6
2013-07-20 20:00:00,16.8,2,19.5,1,20.6,1,18.6,2,22.5,1,21.4,4,17.9,5,25.9,1,25.1,1,25.5,1,26.5,1,25.1,2,23.4,3,24.9,2,27.0,2,24.5,2,25.9,1,23.4,1,24.7,2,23.6,2,24.9,1,23.7,3,25.2,2,18.8,2,28.6,2,24.5,3,21.4,3,24.2,3,27.0,1,23.8,1,24.8,1,24.7,1,23.1,3,25.6,2,23.4,5
2013-07-20 21:00:00,16.1,2,18.2,1,19.9,1,17.6,2,20.2,1,20.1,3,17.7,4,23.9,1,24.0,1,24.3,1,25.2,1,22.8,1,21.6,3,23.3,3,25.6,1,23.2,2,24.5,1,21.3,1,23.2,2,21.9,2,23.9,1,22.2,2,23.8,2,17.6,2,26.7,1,22.9,2,19.8,2,22.6,3,25.5,1,23.1,1,23.4,1,23.7,1,22.3,2,25.0,2,22.6,5
2013-07-20 22:00:00,15.8,2,17.2,1,19.3,1,17.0,2,18.4,2,19.4,2,17.4,3,22.3,1,22.8,1,23.3,1,24.1,1,21.3,1,20.3,3,22.2,3,24.4,1,22.3,2,23.2,1,19.8,1,21.9,2,20.5,2,23.0,1,20.8,2,22.8,2,16.7,1,25.1,1,21.8,2,18.6,1,21.6,2,24.3,1,22.4,1,22.4,1,23.1,1,21.4,2,24.6,2,22.1,5
2013-07-20 23:00:00,15.8,3,16.5,1,18.8,1,16.7,2,16.9,2,19.0,1,17.1,3,21.2,1,21.7,2,22.6,1,23.3,2,20.2,1,19.5,4,21.5,4,23.6,1,21.8,1,22.1,1,18.8,1,20.9,1,19.3,3,22.4,1,19.5,1,22.2,2,16.0,1,24.0,1,21.1,1,17.8,1,21.2,2,23.3,1,21.7,1,21.7,1,22.7,1,20.7,1,24.3,2,21.8,4
2013-07-21 00:00:00,16.0,3,16.3,2,18.6,1,16.4,2,16.2,2,18.9,1,17.0,3,20.4,1,20.9,2,22.0,2,22.7,2,19.8,2,19.1,3,20.7,3,23.0,1,21.5,1,21.1,1,18.2,1,20.3,2,18.4,3,22.3,1,18.7,1,21.7,1,15.4,2,23.1,1,20.5,1,17.4,1,21.1,2,22.7,1,21.0,1,21.3,1,22.2,1,20.1,1,24.0,1,21.5,4
2013-07-21 01:00:00,16.1,3,16.1,2,18.2,2,16.0,2,15.5,2,18.6,1,16.8,2,19.9,1,20.1,2,21.1,2,22.1,2,18.9,2,18.5,3,19.7,3,22.3,1,21.0,1,20.4,1,17.6,1,19.8,2,17.6,2,21.7,1,18.0,1,21.1,1,14.9,2,22.2,1,19.8,1,17.0,1,20.9,1,22.0,2,20.6,1,20.8,1,21.6,1,19.1,1,23.5,1,21.2,4
2013-07-21 02:00:00,16.2,3,15.7,2,17.8,2,15.8,2,14.7,2,18.3,2,16.8,2,19.5,1,19.5,2,20.3,2,21.6,2,18.1,2,17.9,2,19.0,2,21.7,1,20.5,1,19.7,1,17.1,1,19.3,2,16.9,2,20.9,1,17.2,1,20.5,1,14.3,1,21.5,1,19.3,1,16.8,1,20.5,1,21.3,3,20.0,1,20.2,1,21.1,1,18.4,1,23.1,1,20.8,4
2013-07-21 03:00:00,16.2,3,15.7,2,17.7,3,15.7,2,14.6,1,17.9,2,16.8,1,19.0,1,18.9,2,19.7,2,21.0,2,17.7,2,17.6,2,18.6,2,21.1,1,19.9,1,19.1,1,16.8,1,18.9,3,16.6,2,20.2,1,16.9,1,20.0,1,13.9,1,20.9,2,18.9,1,16.7,1,20.0,1,20.9,3,19.8,1,19.9,1,20.8,1,17.8,1,22.8,1,20.5,4
2013-07-21 04:00:00,16.3,3,15.8,2,17.7,3,15.8,2,15.2,1,17.7,2,16.7,1,18.7,1,18.7,2,19.6,2,20.7,2,17.7,2,18.0,2,19.0,2,20.8,1,19.6,1,18.8,1,16.8,1,18.9,2,16.8,2,19.8,1,16.9,1,19.7,1,13.7,1,20.7,2,18.8,1,16.8,1,19.8,1,20.7,3,19.7,1,19.9,1,20.8,1,17.7,1,22.7,1,20.4,5
2013-07-21 05:00:00,16.6,3,16.3,1,18.2,2,16.4,2,16.6,2,18.0,2,17.0,1,19.0,1,18.8,2,20.0,2,20.7,2,18.3,2,18.9,2,20.1,2,20.9,2,19.7,1,19.0,1,17.4,1,19.3,2,17.5,2,19.9,1,17.5,1,19.8,1,14.1,1,21.0,2,19.3,1,17.3,1,19.8,2,21.0,2,20.0,1,20.3,1,21.4,1,18.4,1,23.0,1,20.9,5
2013-07-21 06:00:00,17.4,3,17.4,1,19.2,2,17.4,2,18.7,2,18.8,2,17.7,2,20.0,1,19.6,2,21.1,2,21.3,2,19.7,2,20.3,2,21.5,1,21.7,2,20.6,1,20.1,1,19.0,1,20.3,1,18.7,2,20.6,1,18.9,1,20.4,1,15.3,2,21.9,2,20.5,1,18.5,1,20.6,2,21.8,2,21.1,1,21.6,1,22.5,1,20.1,1,23.9,1,22.0,6
2013-07-21 07:00:00,18.7,3,19.3,1,20.8,1,19.2,2,21.3,2,20.3,2,19.3,2,21.7,1,21.1,2,22.8,2,22.9,2,22.0,1,22.0,1,22.9,1,23.3,2,22.4,2,22.2,1,21.5,1,22.0,1,20.4,2,22.1,1,21.1,1,21.7,1,17.7,2,23.8,3,22.6,1,20.5,1,22.2,1,23.3,2,23.1,1,23.7,1,24.3,1,22.9,1,25.4,1,23.7,6
2013-07-21 08:00:00,20.3,3,21.5,1,22.7,1,21.3,2,24.0,1,22.3,2,21.2,2,24.0,1,23.0,2,24.9,2,25.1,2,24.7,1,23.8,1,24.4,1,25.4,2,24.7,2,24.8,1,24.5,1,23.9,1,22.5,1,23.9,1,23.6,1,23.4,1,20.7,2,26.0,3,25.2,1,23.2,1,24.2,1,25.2,1,25.4,1,26.3,1,26.3,1,26.4,1,27.2,1,25.7,6
2013-07-21 09:00:00,21.8,3,23.6,1,24.6,1,23.3,2,26.3,1,24.1,2,23.2,2,26.5,2,24.9,2,26.9,2,27.2,2,27.2,1,25.6,1,26.0,1,27.6,2,26.9,2,27.2,1,27.2,1,25.8,1,24.4,1,25.9,1,26.0,1,25.3,1,23.4,2,28.2,4,27.7,1,25.9,1,26.4,2,27.2,1,27.3,1,28.8,1,28.3,1,29.7,1,28.5,1,27.3,5
2013-07-21 10:00:00,22.7,3,25.5,2,26.2,1,24.9,2,28.1,1,25.6,2,24.8,2,28.8,2,26.7,2,28.6,2,29.1,2,29.2,1,27.2,1,27.7,1,29.5,2,28.8,2,28.9,1,28.9,1,27.4,2,26.2,1,27.3,1,28.0,1,26.8,1,25.6,3,30.0,4,29.9,1,28.3,1,28.1,2,29.1,1,28.6,2,30.7,1,29.8,2,32.2,1,29.1,2,28.0,4
2013-07-21 11:00:00,23.4,3,27.0,2,27.5,1,26.2,2,29.3,1,26.5,3,26.1,1,30.6,2,28.1,2,30.0,2,30.5,2,30.5,1,28.6,1,29.3,1,31.1,2,30.3,2,30.0,1,29.7,1,28.6,2,27.7,1,28.3,1,29.5,1,28.1,1,27.1,4,31.3,3,31.6,1,30.0,1,29.3,3,30.7,1,29.0,2,32.0,2,30.8,2,33.8,1,29.2,2,28.2,3
2013-07-21 12:00:00,23.9,3,28.2,2,28.6,1,26.8,2,30.2,1,27.0,3,26.8,2,31.8,2,29.2,2,30.9,2,31.5,2,31.4,1,29.7,1,30.6,1,32.0,3,31.4,2,30.7,1,30.3,1,29.7,2,28.9,1,29.2,1,30.6,1,29.2,1,28.2,5,32.3,3,33.1,2,31.1,1,30.1,4,32.1,1,29.1,2,32.7,2,31.5,2,34.3,1,29.1,2,28.2,3
2013-07-21 13:00:00,24.3,3,29.2,2,29.2,1,27.1,1,30.9,2,27.1,3,27.1,3,32.1,2,30.0,1,31.5,2,32.0,1,32.1,2,30.4,1,31.4,1,32.1,3,32.1,2,31.4,2,30.8,1,30.4,3,29.7,1,29.9,1,31.4,1,30.1,1,28.9,6,32.9,4,34.2,2,31.1,2,30.3,4,33.1,1,29.0,2,32.9,2,32.0,2,33.7,1,29.1,2,28.3,2
2013-07-21 14:00:00,24.7,3,29.8,2,29.7,2,27.0,1,31.5,2,26.8,2,27.1,4,32.1,2,30.5,2,31.9,2,32.1,2,32.4,2,30.8,1,31.9,1,31.8,2,32.5,2,32.1,2,31.3,2,31.0,3,30.1,1,30.3,2,31.8,1,30.7,1,29.2,6,33.1,4,34.8,2,30.4,2,30.3,5,33.8,1,28.7,1,32.7,1,32.1,2,32.6,1,29.1,2,28.4,2
2013-07-21 15:00:00,25.0,3,30.1,2,30.0,2,26.9,2,31.9,2,26.5,2,26.8,5,31.9,3,30.9,2,32.1,2,32.2,2,32.7,2,31.0,1,32.0,1,31.4,2,32.8,3,32.6,2,31.8,2,31.1,3,30.2,1,30.6,2,31.9,1,31.1,2,28.7,6,32.9,5,34.7,1,29.4,2,30.0,5,33.9,1,28.3,1,32.2,1,31.6,1,31.5,1,29.0,1,28.3,3
2013-07-21 16:00:00,25.1,3,29.8,2,30.1,2,26.8,2,32.1,2,26.2,2,26.4,5,31.9,3,31.1,2,32.2,2,32.2,2,33.0,3,31.1,1,31.9,1,31.2,3,33.1,3,32.9,2,32.1,2,30.8,2,29.9,1,30.6,1,31.6,1,31.1,2,27.3,6,32.1,5,33.7,1,28.3,2,29.6,4,33.5,1,27.7,1,31.4,1,30.5,1,30.8,1,28.8,1,27.8,3
2013-07-21 17:00:00,24.9,2,28.9,1,29.8,2,26.5,3,31.7,2,25.7,1,25.8,5,31.7,4,31.0,3,32.0,3,32.0,3,32.9,3,30.8,2,31.3,1,31.0,3,32.9,3,32.8,2,31.9,2,30.0,2,29.1,1,30.3,1,31.0,1,30.8,2,25.3,5,31.0,4,32.0,1,27.1,2,29.0,4,32.5,1,27.1,1,30.3,1,29.0,1,30.3,1,28.5,2,27.0,3
2013-07-21 18:00:00,24.4,2,27.5,1,29.0,2,25.7,3,30.2,2,24.7,2,24.9,4,30.9,4,30.3,3,31.3,3,31.4,3,31.9,3,29.5,2,30.2,1,30.3,3,32.0,3,31.9,2,30.7,2,28.6,2,27.9,1,29.5,1,29.6,1,29.7,1,23.3,4,29.7,4,29.9,1,25.7,2,27.8,4,31.0,1,26.4,1,28.8,1,27.5,1,29.5,1,28.0,2,26.0,3
2013-07-21 19:00:00,23.5,1,25.4,1,27.7,2,24.2,2,27.6,2,23.0,2,23.6,3,29.3,4,28.9,3,29.7,2,30.3,2,29.5,3,27.1,2,28.5,1,29.0,3,29.9,2,30.2,2,28.2,2,26.8,2,26.1,1,28.3,1,27.8,1,28.1,1,21.7,4,28.1,4,27.7,1,24.1,2,26.0,3,29.2,1,25.6,1,26.9,1,26.3,1,27.8,1,27.5,2,24.9,3
2013-07-21 20:00:00,22.4,1,23.2,1,25.9,2,22.1,2,24.3,2,21.1,3,22.2,2,27.0,2,27.1,2,28.0,2,28.8,2,26.5,2,24.2,2,26.1,1,27.2,2,27.4,2,28.0,2,24.9,2,24.8,1,24.0,1,26.9,2,25.5,1,26.4,1,20.3,3,26.7,4,25.5,1,22.7,2,24.0,3,27.3,1,24.8,1,24.9,1,25.3,1,25.8,1,26.9,1,23.7,4
2013-07-21 21:00:00,21.6,1,21.2,1,24.2,1,20.5,2,21.5,2,19.3,4,21.0,2,24.9,1,25.3,1,26.3,1,27.4,1,23.7,2,21.9,2,24.2,1,25.6,2,25.2,1,26.0,1,22.2,1,23.2,1,22.2,1,25.6,2,23.5,1,24.8,1,19.3,3,25.3,4,23.7,1,21.3,2,22.5,3,25.7,1,24.1,1,23.4,1,24.7,1,23.8,1,26.4,1,22.9,4
2013-07-21 22:00:00,21.2,1,20.3,1,22.8,1,19.5,2,19.8,2,18.4,5,20.2,2,23.3,1,24.0,1,25.1,1,26.3,1,22.0,2,20.6,1,22.7,1,24.3,2,23.9,1,24.5,1,20.4,1,22.1,1,21.0,1,24.5,2,21.8,1,23.8,1,18.4,3,24.3,4,22.3,1,20.2,2,21.6,2,24.5,2,23.6,1,22.4,1,24.2,1,22.5,1,26.2,1,22.3,4
2013-07-21 23:00:00,21.1,2,19.8,1,22.0,1,18.9,2,19.0,2,17.9,5,19.8,4,22.2,1,23.3,1,24.1,1,25.5,1,21.0,2,20.0,1,21.6,1,23.4,2,23.3,2,23.5,1,19.4,1,21.2,1,20.1,1,23.8,3,20.5,1,23.2,1,17.5,3,23.4,4,21.3,1,19.6,2,21.2,2,23.6,2,23.2,1,21.8,1,23.9,1,21.6,1,26.0,1,22.0,5
2013-07-22 00:00:00,21.1,2,19.5,1,21.3,1,18.5,2,18.4,2,17.6,6,19.5,5,21.4,2,22.6,1,23.5,1,24.8,1,20.2,2,19.5,1,20.5,1,22.6,2,22.7,2,22.5,1,18.9,1,20.6,1,19.5,1,23.2,3,19.5,1,22.6,1,16.7,3,22.6,4,20.5,1,19.0,2,20.9,2,22.9,2,22.7,1,21.3,1,23.4,1,20.6,1,25.8,1,21.9,5
2013-07-22 01:00:00,21.1,2,19.2,1,20.7,1,18.1,2,17.6,1,17.2,6,19.1,5,20.8,2,21.9,1,22.8,1,24.3,1,19.6,2,18.7,1,19.6,1,22.0,2,22.1,2,21.6,1,18.4,1,20.0,1,18.8,1,22.6,3,18.7,1,22.0,1,16.0,2,21.9,4,19.8,1,18.4,2,20.7,2,22.2,3,22.2,1,20.8,1,22.8,1,19.8,1,25.4,1,21.7,5
2013-07-22 02:00:00,20.9,2,19.1,1,20.2,1,17.8,2,16.8,1,16.7,6,18.6,5,20.3,2,21.4,1,22.1,1,23.7,1,19.0,2,17.9,1,18.8,1,21.4,3,21.5,1,20.7,1,18.0,1,19.2,1,18.0,1,22.0,3,18.1,1,21.4,1,15.4,2,21.5,3,19.1,1,17.9,2,20.3,2,21.6,3,21.6,1,20.3,1,22.2,1,19.1,1,25.0,1,21.5,4
2013-07-22 03:00:00,20.8,2,18.8,1,19.9,1,17.7,2,16.6,1,16.2,7,18.1,5,19.9,2,20.9,1,21.7,1,23.1,1,18.6,1,17.6,1,18.6,1,21.0,3,21.0,1,20.1,1,17.8,1,18.8,1,17.6,1,21.4,2,17.8,1,20.9,1,14.9,3,21.0,3,18.8,1,17.7,2,20.0,2,21.0,3,21.1,1,19.9,1,21.8,1,18.7,1,24.8,1,21.4,3
2013-07-22 04:00:00,20.7,2,18.7,1,19.7,1,17.8,1,17.2,1,15.8,7,17.7,5,19.7,3,20.7,2,21.6,1,22.7,1,18.7,1,18.2,1,19.2,1,20.7,3,20.6,1,19.8,1,18.0,1,18.8,1,17.8,1,20.9,2,17.9,1,20.7,2,14.7,3,20.7,4,18.9,1,17.9,2,19.7,3,20.7,4,20.8,1,19.9,1,21.8,1,18.8,1,24.8,1,21.4,3
2013-07-22 05:00:00,20.8,2,19.1,1,20.0,1,18.4,1,18.7,1,15.8,7,17.7,5,19.8,4,20.9,2,22.0,2,22.6,2,19.5,2,19.5,1,20.4,1,20.8,3,20.7,1,20.2,2,18.8,1,19.4,2,18.6,1,20.8,2,18.4,1,20.9,2,15.0,3,20.8,4,19.6,1,18.6,2,19.8,3,20.9,4,20.9,2,20.4,1,22.4,1,19.7,1,25.1,1,21.9,2
2013-07-22 06:00:00,21.5,2,20.2,1,21.0,1,19.8,2,20.9,2,16.2,7,18.2,5,20.6,4,22.0,2,23.1,2,23.4,2,21.0,2,21.3,1,21.9,1,21.5,4,21.6,2,21.5,2,20.5,1,20.7,2,20.0,1,21.5,2,19.7,1,21.6,2,16.2,3,21.6,4,21.0,1,20.0,2,20.4,3,21.6,4,22.0,2,21.9,1,23.6,1,21.6,1,25.5,1,23.0,2
2013-07-22 07:00:00,22.8,2,22.3,1,22.9,1,21.9,2,23.7,2,17.4,7,19.3,5,22.2,4,23.9,2,24.9,2,25.1,2,23.4,2,23.4,1,23.7,1,22.9,3,23.5,2,23.7,2,23.1,1,22.5,2,22.0,1,23.1,1,21.9,1,23.0,2,18.2,3,23.3,4,23.4,1,22.0,2,21.6,3,22.9,4,24.1,2,24.3,1,25.4,1,24.5,1,26.3,1,24.7,2
2013-07-22 08:00:00,24.5,1,24.8,1,25.3,1,24.5,2,26.6,1,18.8,7,20.8,6,24.2,4,26.2,2,27.1,2,27.3,2,26.1,2,25.4,1,25.3,1,24.7,3,25.9,2,26.4,1,26.1,1,24.6,1,24.3,1,25.2,1,24.5,1,24.7,1,20.8,3,25.5,4,26.2,1,24.4,2,23.2,2,24.5,2,26.7,2,27.3,1,27.4,1,27.7,1,27.0,2,26.8,2
2013-07-22 09:00:00,25.7,1,27.2,1,27.5,1,26.8,2,29.2,1,20.3,7,22.3,6,26.2,3,28.4,2,29.2,3,29.6,3,28.6,1,27.3,1,27.1,1,26.4,3,28.2,2,28.9,1,28.5,1,26.6,2,26.7,1,27.3,1,27.1,1,26.4,1,23.5,3,27.6,3,28.9,1,26.7,2,24.9,2,26.2,2,28.8,1,30.0,1,29.5,1,30.7,1,27.7,2,28.4,2
2013-07-22 10:00:00,26.1,2,29.0,2,29.2,1,28.3,2,30.9,1,21.4,6,23.6,5,27.8,3,30.1,2,30.8,3,31.3,3,30.3,1,29.0,1,28.6,1,27.6,3,30.0,2,30.5,1,30.0,2,28.2,2,28.6,1,28.8,1,29.2,2,27.9,1,25.9,3,29.2,3,31.1,1,28.8,3,26.3,2,27.7,1,29.9,1,31.9,1,31.0,1,32.9,1,27.9,2,29.2,2
2013-07-22 11:00:00,26.1,2,30.1,2,30.3,1,29.3,2,31.9,1,22.1,6,24.5,5,28.9,3,31.3,3,31.9,3,32.4,3,31.3,1,30.4,1,30.1,1,28.5,4,31.2,2,31.5,1,30.7,2,29.5,2,30.1,2,29.8,1,30.7,2,29.1,1,27.7,4,30.2,3,32.8,1,30.3,4,27.3,3,29.1,1,30.1,1,33.2,1,32.1,1,34.0,1,28.1,2,29.4,2
2013-07-22 12:00:00,26.0,2,30.7,2,31.1,1,29.8,3,32.6,1,22.5,5,25.0,5,29.8,3,32.1,3,32.6,3,33.1,3,31.9,2,31.3,2,31.2,1,29.2,4,32.1,2,32.2,1,31.2,2,30.4,3,31.2,2,30.5,1,31.8,2,30.3,1,28.9,5,30.9,4,34.0,1,31.1,4,28.1,3,30.3,1,30.0,2,33.7,1,32.8,1,34.3,2,28.1,2,29.4,2
2013-07-22 13:00:00,26.2,2,31.1,2,31.7,1,30.0,4,33.3,1,22.9,5,25.1,5,30.1,3,32.8,3,33.0,3,33.2,3,32.3,2,31.8,2,32.1,1,29.8,4,32.7,2,32.9,1,31.9,2,31.3,3,31.9,2,31.1,1,32.6,2,31.2,1,29.2,5,31.5,4,34.7,1,31.0,5,28.5,4,31.5,1,29.8,2,33.9,1,33.1,1,33.7,2,28.1,3,29.4,3
2013-07-22 14:00:00,26.5,2,31.1,1,32.1,1,30.0,4,33.8,1,23.1,6,24.7,6,30.0,4,33.1,3,33.2,3,33.1,3,32.6,3,32.1,2,32.7,1,30.1,4,33.0,2,33.6,2,32.6,2,31.9,3,32.2,2,31.5,1,32.9,2,31.9,2,28.9,5,31.9,4,34.8,1,30.3,4,28.7,4,32.4,1,29.6,2,33.7,1,33.0,1,32.7,2,28.2,2,29.4,3
2013-07-22 15:00:00,26.9,1,30.9,1,32.1,1,29.5,5,34.1,1,22.9,6,24.0,7,29.7,5,33.2,2,33.1,3,32.9,3,32.9,4,32.1,2,33.0,2,30.1,4,33.1,2,33.9,2,33.1,2,32.1,4,32.0,2,31.7,1,32.8,2,32.2,2,27.9,5,32.1,4,34.4,1,29.2,4,28.9,4,32.9,1,29.2,2,33.1,1,32.4,1,31.8,2,28.1,2,29.3,4
2013-07-22 16:00:00,27.1,1,30.4,1,31.8,2,28.5,5,34.0,2,22.4,7,23.0,7,29.1,6,32.9,2,32.7,2,32.7,2,33.1,5,32.0,2,32.9,2,29.6,5,32.9,2,33.8,2,33.1,2,31.8,4,31.4,2,31.5,1,32.3,1,32.0,2,26.4,5,32.0,4,33.3,1,28.1,3,29.2,3,32.8,2,28.6,2,32.3,2,31.3,1,31.3,2,27.9,2,29.0,4
2013-07-22 17:00:00,26.9,2,29.5,2,31.0,2,27.2,4,33.2,2,21.4,6,22.0,7,28.3,6,32.4,2,32.0,2,32.3,2,32.8,5,31.5,2,32.2,2,28.7,6,32.4,2,33.2,2,32.4,1,31.0,3,30.4,2,30.9,2,31.5,1,31.3,2,24.7,5,31.4,4,31.7,1,26.8,3,29.2,3,32.0,2,27.9,3,31.0,2,30.0,1,31.0,2,27.5,2,28.4,4
2013-07-22 18:00:00,26.2,2,28.0,2,29.9,2,25.5,4,31.5,3,20.4,6,20.9,7,27.2,6,31.3,2,31.0,2,31.7,2,31.5,4,30.2,2,30.9,3,27.5,6,31.2,2,32.1,2,30.8,1,29.5,3,28.7,2,29.9,2,30.1,1,30.1,2,23.0,4,30.3,4,29.7,1,25.5,2,28.5,3,30.9,2,26.9,3,29.4,2,28.5,1,30.3,2,27.2,2,27.5,3
2013-07-22 19:00:00,25.1,2,26.0,2,28.4,1,23.5,4,28.7,2,19.3,6,19.8,7,25.9,6,29.9,2,29.6,2,30.5,2,29.0,4,28.0,2,28.9,2,26.1,5,29.3,3,30.4,2,28.2,1,27.7,3,26.6,2,28.6,2,28.3,1,28.6,2,21.5,3,28.4,4,27.5,1,23.9,2,26.5,3,29.3,2,25.9,2,27.3,1,27.0,1,28.7,1,26.8,2,26.4,3
2013-07-22 20:00:00,23.7,1,23.7,1,26.8,1,21.6,5,25.6,2,18.4,6,18.9,7,24.4,5,28.3,2,28.1,1,29.1,1,26.0,3,25.5,2,26.6,2,24.5,5,27.2,3,28.4,2,25.1,1,25.6,2,24.5,2,27.2,2,26.3,1,27.0,1,20.4,3,26.4,5,25.4,1,22.3,2,24.2,4,27.7,2,25.0,2,25.1,1,25.9,1,26.7,1,26.5,2,25.1,3
2013-07-22 21:00:00,22.6,1,21.8,1,25.3,1,20.0,6,22.9,1,17.6,6,18.0,7,22.8,5,26.7,1,26.7,1,27.7,1,23.3,2,23.2,1,24.4,1,23.3,4,25.4,3,26.6,2,22.6,1,23.9,2,22.6,2,26.0,2,24.3,1,25.5,1,19.3,2,24.6,5,23.5,1,20.8,2,22.2,4,26.2,2,24.2,1,23.4,1,24.9,1,24.8,1,26.0,2,24.0,3
2013-07-22 22:00:00,21.9,1,20.7,1,24.0,1,19.0,6,21.3,1,17.2,6,17.4,7,21.4,5,25.2,1,25.5,1,26.6,1,21.7,2,21.9,1,23.0,1,22.5,4,24.1,3,25.1,2,21.1,1,22.7,2,21.4,2,25.2,2,22.8,1,24.5,1,18.5,2,23.5,5,22.2,1,19.7,2,21.1,4,24.9,2,23.7,2,22.4,2,24.2,1,23.4,1,25.6,2,23.3,3
2013-07-22 23:00:00,21.4,1,20.1,1,22.9,1,18.5,6,20.5,2,16.9,6,16.9,7,20.2,5,24.0,1,24.4,1,26.0,1,20.9,2,21.1,2,22.0,1,22.0,5,23.3,2,24.0,2,20.3,1,21.9,2,20.6,2,24.6,2,21.7,1,23.9,2,17.7,2,22.7,6,21.3,2,19.0,1,20.7,4,24.0,2,23.1,3,22.0,2,23.5,1,22.4,2,25.1,2,22.9,3
2013-07-23 00:00:00,21.2,1,19.8,1,22.0,1,18.0,6,19.8,2,16.6,6,16.6,7,19.2,6,22.9,2,23.5,2,25.3,2,20.4,1,20.3,2,21.1,2,21.5,5,22.6,2,23.0,2,19.8,1,21.3,1,19.9,2,23.9,3,20.7,1,23.3,2,17.0,3,22.1,6,20.6,2,18.4,1,20.6,4,23.1,3,22.7,3,21.7,2,23.0,1,21.5,2,24.7,2,22.6,4
2013-07-23 01:00:00,20.9,1,19.5,1,21.3,1,17.5,6,19.0,2,16.3,6,16.3,7,18.6,6,22.1,2,22.6,2,24.7,2,19.7,1,19.4,2,20.0,2,21.0,6,21.9,3,22.1,2,19.2,2,20.6,1,19.0,2,22.9,3,19.8,1,22.6,1,16.2,2,21.4,6,19.9,1,17.8,1,20.3,4,22.3,3,22.1,3,21.3,2,22.5,1,20.5,2,24.4,2,22.2,4
2013-07-23 02:00:00,20.7,1,19.3,1,20.7,1,17.0,6,18.3,1,16.1,6,16.1,7,18.2,7,21.4,2,21.9,2,24.2,2,19.1,1,18.6,1,19.1,2,20.3,6,21.2,3,21.2,2,18.6,2,19.9,1,18.0,2,21.8,4,19.0,1,22.0,1,15.6,2,20.8,6,19.2,1,17.4,1,20.0,5,21.7,4,21.5,3,20.7,2,22.0,1,19.7,1,24.3,1,21.8,4
2013-07-23 03:00:00,20.5,1,19.1,1,20.3,1,16.8,6,18.0,1,16.0,7,16.1,7,18.1,7,21.0,2,21.5,2,23.6,2,18.7,1,18.3,1,18.7,2,20.0,7,20.7,4,20.8,3,18.3,2,19.5,1,17.6,2,21.0,5,18.6,2,21.5,1,15.1,2,20.4,7,18.9,1,17.1,1,19.7,6,21.3,5,21.0,3,20.3,2,21.8,2,19.1,1,24.2,1,21.6,5
2013-07-23 04:00:00,20.4,1,19.0,1,20.1,1,17.1,6,18.5,1,16.0,7,16.3,7,18.0,7,21.0,2,21.5,2,23.2,2,18.8,2,18.9,1,19.2,2,19.9,7,20.6,4,20.8,3,18.6,2,19.4,1,17.9,2,20.7,6,18.7,2,21.3,1,14.9,2,20.4,7,19.0,2,17.0,1,19.7,7,21.1,5,20.8,3,20.3,2,21.9,2,19.1,1,24.3,1,21.7,5
2013-07-23 05:00:00,20.7,1,19.3,1,20.3,1,17.9,6,19.7,1,16.1,7,16.7,7,18.1,7,21.3,2,21.9,2,23.1,2,19.6,2,20.1,1,20.3,2,20.2,7,20.9,5,21.3,4,19.6,2,19.8,2,18.9,2,20.8,6,19.4,3,21.6,2,15.2,2,20.8,7,19.7,2,17.5,2,19.9,7,21.1,6,21.1,4,20.8,2,22.4,2,19.9,2,24.6,2,22.3,5
2013-07-23 06:00:00,21.3,2,20.3,1,21.4,1,19.2,6,21.5,2,16.4,7,17.3,7,18.7,7,22.2,2,23.0,2,23.6,2,21.2,2,21.9,1,21.9,2,20.9,7,21.8,5,22.3,4,21.3,2,20.9,2,20.4,2,21.2,6,20.7,4,22.4,2,16.5,2,21.5,7,21.2,3,18.8,2,20.4,7,21.6,6,22.1,4,22.1,3,23.5,2,21.5,2,25.2,2,23.4,5
2013-07-23 07:00:00,22.4,2,22.3,1,23.5,1,21.0,6,23.8,2,17.0,7,18.2,7,19.9,7,23.8,3,24.7,2,24.9,2,23.5,2,23.9,1,23.7,2,21.9,7,23.1,5,23.8,4,23.6,3,22.6,2,22.4,2,21.7,6,22.7,4,23.7,2,18.9,2,22.4,7,23.5,3,21.2,2,21.1,6,22.5,6,24.0,5,24.3,3,25.3,2,24.1,1,26.2,2,25.0,5
2013-07-23 08:00:00,23.7,1,24.7,1,26.0,1,23.0,7,26.3,2,17.7,7,19.2,7,21.5,7,25.5,3,26.8,3,26.7,3,26.2,2,25.8,2,25.6,2,23.0,7,24.6,6,25.6,4,26.1,3,24.8,2,24.5,2,22.4,6,25.0,4,25.4,2,21.9,2,23.5,7,26.1,3,24.2,1,21.9,6,23.7,6,26.2,5,27.0,4,27.3,2,27.3,1,27.3,2,26.9,6
2013-07-23 09:00:00,24.7,1,27.0,1,28.3,1,24.8,7,28.5,2,18.4,7,20.2,7,22.9,7,27.2,3,28.6,3,28.4,3,28.6,2,27.6,2,27.4,2,23.9,7,25.7,6,27.3,4,28.2,4,26.9,2,26.5,1,23.1,5,27.2,4,27.1,2,24.7,2,24.7,7,28.7,3,27.0,2,23.0,6,25.1,6,28.2,6,29.4,4,29.3,3,30.3,1,28.2,2,28.4,6
2013-07-23 10:00:00,25.1,2,28.6,1,29.9,1,26.0,7,30.1,2,19.1,7,21.1,7,23.9,7,28.4,3,29.8,3,29.8,3,30.3,2,29.0,2,28.8,2,24.3,7,26.2,6,28.6,4,29.6,4,28.7,2,28.2,1,23.9,5,28.8,3,28.7,2,26.8,2,25.9,7,30.8,3,29.2,2,24.2,6,26.5,6,29.4,6,31.1,4,30.8,3,32.6,2,28.6,2,29.3,6
2013-07-23 11:00:00,25.2,2,29.6,2,30.9,1,26.6,7,31.2,1,19.7,7,21.7,7,24.5,7,29.2,3,30.5,3,30.7,3,31.4,2,30.0,3,30.0,2,24.5,7,26.4,6,29.5,4,30.3,4,30.0,1,29.5,2,24.6,6,29.9,3,30.0,2,28.3,3,26.8,7,32.4,3,30.6,3,25.3,6,27.8,6,29.8,5,32.1,4,31.9,3,34.1,3,28.6,3,29.8,6
2013-07-23 12:00:00,25.1,2,30.1,2,31.5,1,26.9,7,31.9,2,20.2,7,22.1,7,25.0,7,29.8,3,30.9,3,31.2,3,31.9,2,30.7,3,30.9,2,24.7,7,26.7,7,29.8,4,30.6,4,30.9,2,30.5,2,25.2,6,30.6,4,31.0,2,29.3,3,27.5,7,33.5,3,31.3,4,26.1,6,28.7,6,29.9,5,32.7,4,32.5,3,34.7,3,28.5,4,30.0,6
2013-07-23 13:00:00,25.1,3,30.1,3,32.0,2,26.9,7,32.1,2,20.5,7,22.2,7,25.5,7,30.1,4,31.2,4,31.3,4,32.0,3,31.2,4,31.5,2,25.1,6,27.5,7,29.6,5,30.6,4,31.3,2,31.2,3,25.5,6,30.9,5,31.6,3,29.9,4,27.7,7,34.2,3,31.3,4,26.4,6,29.1,6,29.8,4,33.0,4,32.7,3,34.3,3,28.5,4,30.1,6
2013-07-23 14:00:00,25.2,3,29.7,3,32.3,2,26.6,7,32.1,3,20.6,7,22.1,7,25.9,7,30.2,5,31.2,5,31.0,5,31.8,3,31.4,5,31.9,2,25.5,5,28.6,7,29.1,6,30.4,5,31.2,3,31.6,4,25.7,7,30.7,6,31.7,5,29.9,5,27.7,7,34.3,4,30.7,4,26.2,6,29.1,6,29.5,4,33.0,4,32.5,3,33.3,3,28.5,4,30.1,6
2013-07-23 15:00:00,25.1,4,28.9,4,32.0,3,26.0,7,31.8,3,20.4,6,21.9,7,26.2,7,30.0,6,30.7,6,30.5,6,31.3,4,31.5,5,32.0,2,25.7,5,29.4,7,28.6,6,29.8,6,30.7,4,31.5,4,25.7,7,30.0,7,31.5,5,29.2,5,27.5,6,33.8,4,29.8,3,25.8,7,28.9,5,29.0,4,32.5,5,31.7,3,32.2,2,28.5,4,29.9,7
2013-07-23 16:00:00,24.8,4,27.6,4,31.1,3,25.1,7,31.2,4,20.0,6,21.6,7,26.2,7,29.4,6,29.6,6,29.7,6,30.7,5,31.3,5,31.7,2,25.5,5,29.7,7,28.2,6,28.9,6,29.9,4,30.9,3,25.7,7,28.7,7,31.0,6,27.7,5,27.3,6,32.5,4,28.6,3,25.3,7,28.7,5,28.3,4,31.5,5,30.4,3,31.2,2,28.3,4,29.5,7
