Time,temperature-002,cloudiness-002,temperature-005,cloudiness-005,temperature-015,cloudiness-015,temperature-027,cloudiness-027,temperature-070,cloudiness-070,temperature-110,cloudiness-110,temperature-120,cloudiness-120,temperature-130,cloudiness-130,temperature-145,cloudiness-145,temperature-149,cloudiness-149,temperature-156,cloudiness-156,temperature-168,cloudiness-168,temperature-180,cloudiness-180,temperature-190,cloudiness-190,temperature-222,cloudiness-222,temperature-240,cloudiness-240,temperature-255,cloudiness-255,temperature-260,cloudiness-260,temperature-280,cloudiness-280,temperature-299,cloudiness-299,temperature-434,cloudiness-434,temperature-460,cloudiness-460,temperature-481,cloudiness-481,temperature-497,cloudiness-497,temperature-510,cloudiness-510,temperature-579,cloudiness-579,temperature-588,cloudiness-588,temperature-621,cloudiness-621,temperature-630,cloudiness-630,temperature-643,cloudiness-643,temperature-645,cloudiness-645,temperature-650,cloudiness-650,temperature-675,cloudiness-675,temperature-690,cloudiness-690,temperature-747,cloudiness-747
2014-05-16 02:00:00,8.6,0,6.1,0,7.4,0,7.2,0,5.3,0,9.1,0,8.6,0,8.4,0,7.2,0,7.0,0,9.2,0,4.6,0,6.0,0,8.7,6,10.0,0,7.0,0,8.4,0,4.5,0,5.9,0,5.9,5,5.9,0,6.0,0,6.7,0,2.4,0,10.6,0,10.3,0,9.1,0,5.4,0,10.4,0,13.5,0,12.1,0,12.3,0,7.5,0,14.7,0,12.8,0
2014-05-16 03:00:00,8.6,0,6.1,0,7.0,0,5.5,0,3.6,0,8.4,0,8.5,0,8.3,0,6.8,0,7.0,0,9.3,0,4.2,0,6.4,0,8.7,5,9.3,0,5.9,0,7.9,0,4.6,0,5.8,0,3.9,1,5.0,0,5.7,0,6.1,0,2.0,0,9.8,0,9.6,0,8.7,1,4.8,0,7.5,0,12.7,0,11.2,0,12.0,0,5.7,0,14.3,0,13.0,0
2014-05-16 04:00:00,8.3,4,5.8,3,6.8,0,5.0,0,2.8,0,7.6,0,8.3,0,7.8,0,6.2,0,6.5,0,8.7,0,4.5,0,6.3,1,9.6,2,9.0,0,6.0,0,7.3,0,3.9,0,6.4,0,4.2,6,4.1,0,5.8,0,5.8,0,1.2,1,9.3,0,9.0,0,7.9,0,2.9,0,7.1,0,11.5,0,10.3,0,11.6,0,5.4,0,13.6,0,12.6,0
2014-05-16 05:00:00,9.2,0,6.5,0,7.7,0,6.1,0,4.3,0,7.0,0,8.6,0,7.8,0,7.1,0,7.6,0,8.3,0,6.9,0,7.1,0,9.5,3,8.8,0,6.2,0,7.3,0,5.2,0,7.4,0,5.2,6,4.8,0,6.2,0,6.3,0,0.9,3,8.9,0,9.3,0,8.0,0,2.9,0,6.9,0,11.5,0,10.9,0,11.4,0,6.4,0,13.3,0,11.5,0
2014-05-16 06:00:00,11.4,0,7.6,0,10.3,0,9.4,0,7.1,0,8.5,0,10.7,0,10.2,0,8.8,0,9.1,0,9.6,0,8.2,0,8.9,5,10.5,3,10.0,0,8.1,0,8.8,0,7.6,0,9.0,0,7.1,5,7.0,0,7.5,0,7.8,0,2.0,7,9.7,0,10.1,0,9.3,0,5.8,0,8.9,0,13.0,0,12.3,0,12.4,1,14.0,0,14.0,3,13.7,0
2014-05-16 07:00:00,11.6,0,10.4,0,12.0,0,11.5,0,10.5,0,12.0,0,11.8,0,12.5,0,10.4,0,11.1,0,12.4,0,10.6,0,10.6,4,12.1,7,11.4,0,10.2,0,10.7,0,10.1,0,10.7,0,8.4,5,9.4,0,9.1,2,9.1,0,5.7,5,11.1,0,12.1,0,11.2,0,9.8,0,10.8,0,15.3,0,13.7,0,13.7,0,16.6,0,17.9,3,15.6,0
2014-05-16 08:00:00,12.4,1,12.3,1,13.1,0,12.1,0,12.1,0,13.4,0,13.1,0,13.9,0,11.4,0,12.5,0,14.0,0,11.7,0,12.0,4,13.7,6,12.9,0,11.0,0,12.6,0,11.4,0,12.1,0,9.5,4,10.4,0,10.7,2,10.4,0,8.1,5,12.7,0,13.1,0,13.1,0,11.2,0,11.7,0,16.6,0,15.0,0,15.2,0,17.6,0,18.4,3,16.7,0
2014-05-16 09:00:00,13.2,1,14.1,1,14.4,0,12.8,1,13.7,1,14.8,0,14.2,0,15.2,0,12.9,1,13.9,1,15.5,1,13.5,1,13.7,4,14.8,4,14.4,0,12.4,1,14.4,1,13.3,0,13.8,1,11.1,4,11.5,1,12.5,2,12.1,1,10.6,5,14.5,0,14.5,0,15.3,1,12.8,0,13.3,0,17.9,0,16.7,0,16.8,0,19.2,0,18.8,3,17.8,1
2014-05-16 10:00:00,14.1,1,15.5,1,15.5,1,13.7,1,15.3,1,16.1,0,15.0,1,16.4,1,14.2,1,15.1,1,16.7,1,15.1,1,14.9,3,16.0,3,15.8,1,14.1,1,15.7,1,15.1,1,15.1,1,12.7,3,12.9,1,14.0,2,13.8,1,13.2,5,16.2,1,16.1,1,17.2,1,14.3,1,15.1,1,19.2,0,18.4,0,18.1,0,21.1,0,19.2,2,18.9,1
2014-05-16 11:00:00,14.7,1,16.3,2,16.5,1,14.7,1,16.4,1,17.1,1,15.5,1,17.4,1,15.3,1,16.0,1,17.5,1,16.2,1,15.8,3,17.2,2,17.0,1,15.7,1,16.6,1,16.5,1,16.0,2,14.2,3,14.3,1,14.9,2,15.2,1,15.4,5,17.8,1,17.6,1,18.7,1,15.8,1,16.6,1,20.2,1,19.8,1,19.2,1,22.9,0,19.6,2,19.9,1
2014-05-16 12:00:00,15.3,2,16.8,2,17.1,1,15.4,1,17.2,1,17.8,1,15.7,1,18.1,1,16.0,1,16.7,1,18.0,1,17.0,1,16.4,2,18.1,2,18.1,1,16.8,1,17.2,1,17.5,1,16.7,2,15.4,2,15.4,1,15.5,2,16.4,2,16.8,5,19.1,1,18.9,1,19.8,0,17.1,1,17.7,1,20.8,1,21.1,1,20.2,1,24.2,1,19.9,2,20.8,1
2014-05-16 13:00:00,15.7,2,17.4,2,17.6,1,16.0,1,17.7,1,18.2,1,15.8,1,18.6,1,16.6,1,17.4,1,18.4,1,17.6,1,16.8,2,18.7,3,19.0,1,17.5,1,18.0,2,18.3,1,17.4,2,16.3,2,16.2,1,16.2,2,17.2,2,17.3,4,20.0,1,19.9,1,20.7,0,18.0,1,18.6,1,21.0,1,22.0,1,21.1,1,25.1,1,20.0,1,21.6,1
2014-05-16 14:00:00,16.0,2,17.9,2,17.9,1,16.1,2,18.1,1,18.1,1,16.0,1,18.9,1,17.0,1,17.9,1,18.8,1,18.1,2,17.1,2,19.0,4,19.6,1,17.8,2,18.6,2,18.9,1,17.9,2,17.0,2,16.6,1,16.6,2,17.8,2,17.2,4,20.6,1,20.6,1,21.2,1,18.5,1,19.3,1,21.0,1,22.7,1,21.8,1,25.3,1,20.1,1,22.2,1
2014-05-16 15:00:00,16.1,2,18.1,1,18.1,1,16.0,1,18.3,1,17.8,1,16.1,1,19.1,1,17.2,1,18.2,1,19.1,1,18.2,2,17.2,2,19.0,4,20.0,1,18.1,2,19.0,2,19.2,1,18.1,2,17.2,3,16.7,1,16.9,2,18.1,2,16.7,5,21.0,1,20.9,1,21.3,1,19.0,1,19.7,1,20.9,1,22.9,1,22.2,1,25.1,1,20.1,2,22.2,1
2014-05-16 16:00:00,15.8,1,17.9,1,17.9,1,15.7,1,18.2,1,17.2,1,15.8,1,18.9,1,17.2,1,18.2,1,19.1,1,18.0,1,17.0,2,18.6,4,20.1,1,18.2,2,18.9,2,19.0,1,18.0,1,16.8,3,16.6,1,16.9,1,17.9,2,16.0,5,21.1,1,20.7,1,20.9,2,19.2,1,19.9,1,20.8,1,22.6,1,22.2,1,24.5,1,20.0,2,21.6,1
2014-05-16 17:00:00,15.1,1,17.2,1,17.3,1,15.2,1,17.6,1,16.4,1,15.2,1,18.4,1,16.8,1,17.7,1,18.7,1,17.3,1,16.5,2,17.8,3,19.8,1,18.1,1,18.2,1,18.2,1,17.4,1,16.0,4,16.0,1,16.5,1,17.4,3,15.0,4,20.8,1,20.2,1,20.0,3,18.9,1,19.5,1,20.7,1,21.8,1,21.8,1,23.3,2,19.6,3,20.8,1
2014-05-16 18:00:00,14.3,1,16.0,1,16.4,1,14.2,1,16.6,1,15.2,1,14.1,1,17.5,1,16.0,1,16.9,1,18.0,1,16.2,1,15.5,1,16.8,2,19.0,1,17.3,1,17.0,1,17.1,1,16.4,1,15.1,4,14.9,1,16.0,1,16.6,3,13.7,4,20.0,1,19.3,1,18.7,3,17.8,1,18.5,1,20.3,1,20.8,1,21.0,1,21.6,2,19.0,3,19.9,1
2014-05-16 19:00:00,13.6,1,14.5,1,15.2,1,13.1,1,14.9,1,13.9,1,12.9,1,16.0,1,14.5,1,15.6,1,16.8,1,14.4,1,14.2,1,15.7,2,17.8,1,16.0,1,15.7,1,15.7,1,15.0,1,14.0,4,13.4,1,15.2,1,15.8,2,12.3,4,18.7,1,18.4,1,17.1,3,15.8,1,16.9,1,19.6,1,19.5,1,20.0,1,19.3,2,18.1,3,19.2,1
2014-05-16 20:00:00,13.0,1,12.8,1,13.7,1,11.6,1,13.2,1,12.6,1,11.7,1,14.5,1,13.0,1,14.3,1,15.6,1,12.7,1,12.7,1,14.7,2,16.3,1,14.4,1,14.1,1,14.1,1,13.5,1,13.0,4,11.7,1,14.2,1,14.9,1,10.8,4,17.2,1,17.2,1,15.3,2,13.4,1,15.2,1,18.7,1,18.0,1,18.8,2,16.9,1,17.0,3,18.7,1
2014-05-16 21:00:00,12.6,1,11.5,1,12.4,1,10.4,1,11.6,1,11.4,1,10.6,1,13.0,1,11.4,1,12.8,1,14.4,1,11.3,1,11.3,1,13.6,2,14.8,1,12.8,1,12.6,1,12.6,1,12.3,1,12.1,3,10.1,1,13.2,1,14.0,1,9.5,4,15.8,1,16.2,1,13.8,2,11.6,1,13.4,1,18.1,1,16.7,1,17.7,2,14.8,1,16.1,3,18.4,1
2014-05-16 22:00:00,12.2,1,10.5,1,11.5,1,9.7,2,10.7,1,10.8,1,9.8,1,11.9,1,10.4,1,11.6,1,13.4,1,10.5,1,10.3,1,12.5,3,13.6,1,11.8,1,11.3,1,11.4,1,11.6,1,11.2,3,8.9,1,12.3,1,13.3,1,8.4,4,14.7,1,15.3,1,12.5,2,10.8,1,12.2,1,17.5,1,15.7,1,16.8,1,13.6,1,15.5,4,18.2,1
2014-05-16 23:00:00,11.9,1,9.9,1,10.9,1,9.2,2,10.0,1,10.3,2,9.3,1,11.1,1,9.4,1,10.4,1,12.6,1,10.3,1,9.7,1,11.7,3,12.9,1,11.2,1,10.3,1,10.4,1,11.2,1,10.3,4,8.2,1,11.7,1,12.6,2,7.4,4,13.8,1,14.7,1,11.6,3,10.6,1,11.3,1,17.1,1,14.8,1,16.0,1,12.9,2,15.0,4,17.9,1
2014-05-17 00:00:00,11.5,1,9.4,1,10.3,1,8.7,2,9.4,1,9.9,2,8.8,1,10.3,2,8.7,1,9.5,1,11.8,1,10.1,1,9.2,1,10.9,4,12.3,1,10.7,1,9.4,1,9.5,1,10.8,1,9.7,4,7.6,1,10.9,1,12.1,3,6.6,3,13.1,1,14.1,1,10.9,4,10.7,1,10.4,1,16.5,1,14.0,1,15.2,1,12.5,3,14.6,4,17.5,1
2014-05-17 01:00:00,11.2,1,8.8,1,9.6,1,8.3,2,8.9,1,9.6,2,8.4,1,9.6,2,8.0,1,8.6,1,11.2,1,9.7,1,8.5,1,10.1,4,11.8,1,10.1,1,8.4,1,8.8,1,10.2,1,9.0,4,6.8,1,10.1,1,11.3,3,6.1,4,12.4,1,13.5,2,10.4,4,10.5,1,9.3,1,15.5,1,13.4,1,14.3,2,12.1,3,14.2,4,17.0,1
2014-05-17 02:00:00,10.9,1,8.1,1,9.0,1,7.9,2,8.2,1,9.3,1,8.1,1,9.1,1,7.3,1,8.0,1,10.6,1,9.0,1,8.0,1,9.7,5,11.4,1,9.5,1,7.6,1,8.1,1,9.4,1,8.7,5,6.1,1,9.5,1,10.7,3,5.8,4,11.8,1,13.1,3,9.9,3,10.1,1,8.2,1,14.6,1,13.0,2,13.5,2,11.8,4,13.8,4,16.3,1
2014-05-17 03:00:00,10.7,1,7.7,1,8.7,2,7.7,2,7.8,1,9.0,1,7.8,2,8.8,1,6.8,1,7.7,1,10.0,1,8.6,1,7.7,1,9.6,5,11.0,1,8.9,1,7.0,1,7.8,1,8.9,1,8.6,5,5.4,1,9.0,1,10.1,2,5.7,4,11.2,1,12.8,3,9.7,3,9.4,1,7.2,1,13.9,1,12.7,2,12.9,3,11.7,4,13.7,4,15.9,1
2014-05-17 04:00:00,10.7,2,7.8,1,8.9,2,7.7,1,7.8,1,8.8,1,7.8,2,8.7,1,6.7,1,7.6,1,9.6,1,8.6,1,7.9,2,9.9,5,10.7,1,8.7,1,6.7,1,8.0,1,8.8,1,8.9,4,4.8,1,8.8,1,9.7,2,5.7,5,10.8,1,12.7,3,9.7,4,8.9,1,6.7,1,13.7,1,12.7,2,12.8,3,12.1,3,14.1,4,15.6,1
2014-05-17 05:00:00,11.0,2,8.4,1,9.6,2,8.2,1,8.3,1,8.9,1,8.1,2,9.0,1,7.1,1,8.1,1,9.7,1,9.3,1,8.6,2,10.7,5,10.8,1,8.9,1,7.0,1,8.7,1,9.2,1,9.7,3,4.9,1,9.1,2,9.8,2,6.2,5,10.8,1,12.9,2,10.1,4,8.8,1,6.9,1,14.1,1,13.1,2,13.3,2,13.0,3,14.7,4,15.6,1
2014-05-17 06:00:00,11.7,2,9.7,1,10.8,2,9.4,1,9.5,2,9.8,1,9.2,2,10.1,1,8.3,1,9.3,1,10.5,1,10.5,1,9.9,2,11.9,5,11.6,1,9.8,1,8.2,1,10.1,1,10.2,1,10.9,3,5.7,1,10.1,2,10.4,2,7.2,5,11.5,1,13.6,1,11.3,4,9.5,1,8.0,1,15.2,1,14.0,1,14.5,1,14.4,2,15.7,4,16.0,1
2014-05-17 07:00:00,12.6,3,11.7,2,12.5,3,11.6,2,11.6,2,11.7,1,11.0,2,12.0,2,10.0,1,11.2,1,12.3,1,12.4,1,11.8,2,13.3,5,13.2,1,11.6,1,10.4,1,12.0,1,12.0,1,12.5,2,7.6,1,11.7,2,11.7,2,9.0,4,13.0,1,14.9,1,13.3,3,11.3,1,10.1,1,16.9,1,15.4,1,16.3,1,16.5,2,16.8,4,17.0,1
2014-05-17 08:00:00,13.6,3,14.0,2,14.4,3,14.2,2,13.9,2,14.0,1,13.2,2,14.3,2,12.1,2,13.4,2,14.5,2,14.4,1,13.8,2,14.9,5,15.2,1,13.6,1,12.9,1,14.1,1,14.1,1,14.3,2,10.1,1,13.7,2,13.4,2,11.2,4,15.1,1,16.5,1,15.6,2,13.7,1,12.8,1,19.0,1,17.2,1,18.4,1,18.7,2,17.8,3,18.4,1
2014-05-17 09:00:00,14.5,3,15.8,3,16.2,4,16.4,2,15.9,2,16.2,1,15.1,2,16.4,2,14.1,2,15.5,2,16.5,2,16.3,1,15.5,1,16.2,4,17.1,1,15.7,1,15.0,1,16.0,1,16.0,1,15.7,2,12.6,1,15.4,2,15.1,1,13.5,3,17.2,1,18.2,1,17.8,1,15.9,1,15.2,1,20.7,1,19.0,1,20.4,1,20.5,2,18.6,3,19.7,1
2014-05-17 10:00:00,15.2,3,17.0,3,17.5,4,17.6,2,17.2,2,17.7,1,16.4,2,17.9,2,15.6,2,17.0,2,17.7,2,17.7,1,16.7,1,17.2,3,18.5,1,17.2,1,16.5,1,17.4,1,17.3,1,16.6,2,14.5,1,16.5,2,16.6,1,15.5,3,18.8,1,19.6,1,19.5,1,17.3,1,17.1,1,21.9,1,20.4,1,21.6,1,21.7,2,19.1,3,20.7,1
2014-05-17 11:00:00,15.6,3,17.7,3,18.4,3,18.3,2,18.0,2,18.7,1,17.2,2,18.9,2,16.8,2,18.1,2,18.4,2,18.6,1,17.4,2,17.8,3,19.6,1,18.2,1,17.3,1,18.2,1,18.2,1,17.0,2,15.8,1,17.3,2,17.8,1,17.1,4,20.0,1,20.7,1,20.6,1,18.1,1,18.3,1,22.6,1,21.6,1,22.4,2,22.2,2,19.2,4,21.3,1
2014-05-17 12:00:00,16.0,3,18.1,2,19.1,3,18.6,2,18.4,2,19.3,1,17.5,2,19.6,2,17.6,2,18.9,2,18.8,2,19.2,2,17.8,2,18.4,2,20.3,2,19.0,2,18.0,1,18.9,1,18.8,2,17.4,2,16.8,1,17.7,2,18.8,1,18.1,4,20.8,1,21.6,1,21.2,1,18.6,1,19.4,1,22.9,1,22.5,1,22.8,2,22.3,1,19.2,4,21.8,1
2014-05-17 13:00:00,16.5,3,18.6,2,19.6,3,18.9,2,18.8,2,19.8,1,17.8,2,20.2,1,18.3,2,19.5,2,19.3,2,19.7,2,18.1,4,18.8,3,21.0,2,19.4,2,18.8,2,19.5,2,19.4,2,17.8,2,17.6,1,18.1,2,19.5,2,18.3,5,21.5,1,22.3,1,21.3,1,19.2,1,20.4,1,23.1,1,23.3,1,23.1,2,22.2,1,19.0,4,22.1,1
2014-05-17 14:00:00,16.9,3,19.0,2,19.9,3,19.1,2,19.1,2,20.1,1,18.0,1,20.7,1,18.8,2,20.0,2,19.8,2,20.0,2,18.2,5,19.1,3,21.5,2,19.8,2,19.6,2,20.0,2,19.9,3,18.1,2,18.2,1,18.5,2,19.9,3,18.0,6,21.9,1,22.7,1,21.0,1,19.7,2,21.2,1,23.1,1,23.8,1,23.1,1,22.0,1,18.8,4,22.3,1
2014-05-17 15:00:00,17.1,2,19.1,2,20.1,3,19.1,2,19.3,2,20.1,1,18.1,1,21.0,2,19.1,2,20.2,2,20.1,2,20.2,2,18.2,6,19.0,4,21.9,2,20.0,2,20.0,2,20.2,2,20.1,3,18.2,2,18.6,1,18.8,2,20.1,3,17.3,6,22.1,1,22.9,1,20.6,2,20.1,2,21.8,1,23.0,1,23.9,1,22.8,1,21.7,1,18.6,4,22.3,1
2014-05-17 16:00:00,17.0,2,18.8,2,20.0,3,18.7,2,19.2,2,19.8,1,18.0,1,21.1,2,19.2,2,20.2,2,20.1,2,20.1,2,17.9,6,18.5,4,22.1,2,20.2,2,19.9,2,20.1,2,20.0,2,17.8,2,18.7,1,18.9,2,20.0,3,16.4,5,22.1,1,22.7,1,20.0,3,20.2,2,21.9,1,22.8,1,23.5,1,22.0,1,21.3,1,18.5,3,22.2,1
2014-05-17 17:00:00,16.7,2,18.1,2,19.6,3,18.0,2,18.7,2,19.1,1,17.6,1,20.7,2,19.0,2,20.0,2,20.0,2,19.5,2,17.3,6,17.7,3,21.8,2,20.1,2,19.3,2,19.5,2,19.4,2,17.0,2,18.5,1,18.7,1,19.7,3,15.3,4,21.7,1,22.1,1,19.2,4,19.8,1,21.6,1,22.4,1,22.5,1,20.8,1,20.5,1,18.5,3,21.8,1
2014-05-17 18:00:00,16.1,2,16.9,2,18.7,3,16.8,2,17.6,2,17.9,1,16.7,1,19.9,2,18.4,2,19.3,2,19.3,2,18.1,2,16.4,5,16.7,3,21.0,1,19.4,2,18.4,1,18.2,1,18.1,1,15.8,2,17.8,1,17.9,1,18.9,2,14.2,4,21.0,1,21.0,1,18.1,5,18.5,1,20.9,1,21.5,2,21.2,1,19.5,1,19.4,1,18.2,3,21.2,1
2014-05-17 19:00:00,15.4,2,15.5,2,17.5,2,15.2,1,15.9,3,16.1,1,15.3,1,18.4,2,17.2,2,18.2,2,18.4,2,16.0,2,15.2,4,15.5,3,19.5,1,18.0,2,17.1,1,16.2,1,16.4,1,14.5,2,16.7,1,16.5,1,17.7,2,12.8,3,19.7,1,19.2,1,16.7,4,16.5,1,19.6,1,20.2,2,19.5,1,18.3,1,17.6,1,17.5,2,20.2,1
2014-05-17 20:00:00,14.6,2,13.9,2,15.9,2,13.4,1,13.9,3,14.3,1,13.8,1,16.4,1,15.9,1,16.8,1,17.2,1,13.6,3,13.6,3,14.3,4,17.6,1,16.1,2,15.8,1,13.9,1,14.4,1,13.0,2,15.3,1,14.9,1,16.3,1,11.4,3,18.2,1,17.3,1,15.1,2,14.2,1,18.2,1,18.5,2,17.8,1,17.3,1,15.8,1,16.8,2,19.1,1
2014-05-17 21:00:00,14.0,1,12.5,1,14.4,2,11.9,1,12.2,3,12.8,1,12.5,1,14.5,1,14.5,1,15.4,1,16.1,1,11.7,3,12.2,3,13.1,4,15.7,1,14.4,2,14.5,1,11.9,1,12.7,1,11.6,2,14.0,1,13.3,1,15.0,1,10.2,3,16.6,1,15.5,1,13.7,1,12.2,1,16.6,1,17.2,2,16.1,1,16.3,1,14.2,1,16.1,2,18.1,1
2014-05-17 22:00:00,13.7,1,11.7,1,13.2,2,10.9,1,10.9,3,11.8,1,11.8,1,13.1,1,13.5,1,14.2,1,15.3,1,10.7,3,11.0,3,12.2,5,14.3,1,13.2,2,13.4,1,10.8,1,11.7,1,10.4,3,13.2,1,12.2,1,13.8,1,9.3,3,15.5,1,14.2,1,12.4,1,11.1,1,15.2,1,16.3,2,14.8,1,15.4,1,13.2,1,15.6,2,17.1,1
2014-05-17 23:00:00,13.5,1,11.2,1,12.4,2,10.2,1,10.1,3,11.3,1,11.6,1,12.1,1,12.7,1,13.2,2,14.5,2,10.3,2,10.2,4,11.3,5,13.2,1,12.5,2,12.6,1,10.2,1,11.0,1,9.5,4,12.6,1,11.4,1,12.9,1,8.7,3,14.5,1,13.2,1,11.4,1,10.7,1,14.0,1,15.8,1,14.0,1,14.6,1,12.5,2,15.2,2,16.3,1
2014-05-18 00:00:00,13.3,2,10.8,1,11.6,2,9.7,2,9.6,3,11.2,1,11.5,1,11.3,1,11.9,1,12.3,2,14.0,2,9.9,2,9.6,5,10.5,5,12.5,1,12.0,2,11.8,2,9.7,1,10.5,1,8.7,4,12.2,1,10.8,1,12.1,1,8.1,3,13.8,1,12.5,1,10.6,1,10.5,1,12.9,1,15.4,1,13.3,1,14.0,1,12.0,2,14.8,2,15.6,1
2014-05-18 01:00:00,13.0,2,10.4,2,10.9,2,9.2,2,9.1,2,11.1,1,11.4,2,10.7,1,11.2,2,11.5,2,13.5,2,9.3,1,9.2,5,9.9,5,12.0,1,11.6,2,11.1,2,9.0,2,9.9,1,8.1,5,11.8,1,10.2,1,11.3,1,7.6,3,13.2,1,11.9,1,9.9,1,10.2,1,11.9,1,14.7,1,12.8,1,13.6,1,11.4,1,14.4,2,14.9,1
2014-05-18 02:00:00,12.7,1,10.0,2,10.5,2,8.8,2,8.8,2,11.1,1,11.2,2,10.3,1,10.5,2,10.8,2,13.0,2,8.7,1,9.0,5,9.5,5,11.7,1,11.0,2,10.4,2,8.3,2,9.3,1,7.7,5,11.4,2,9.7,1,10.4,1,7.1,3,12.9,1,11.5,1,9.2,1,9.7,1,11.3,1,14.1,1,12.4,1,13.3,1,10.9,1,14.0,2,14.3,1
2014-05-18 03:00:00,12.5,1,9.8,2,10.2,1,8.6,1,8.6,2,11.0,1,11.0,2,10.2,2,10.1,2,10.4,2,12.6,2,8.3,2,9.1,5,9.5,5,11.5,1,10.6,1,10.0,2,7.8,2,8.9,1,7.7,4,11.0,2,9.3,1,9.9,1,6.8,3,12.4,1,11.2,1,8.9,1,9.2,1,10.8,1,13.6,1,12.2,1,13.2,1,10.5,1,13.8,3,13.8,1
2014-05-18 04:00:00,12.5,1,9.8,2,10.3,2,8.7,1,8.7,2,10.9,1,10.9,2,10.2,2,10.1,2,10.5,2,12.2,2,8.5,2,9.5,4,10.0,5,11.3,1,10.4,1,9.7,2,7.9,2,8.9,1,8.1,3,10.7,2,9.2,2,9.7,1,6.7,3,11.9,1,11.2,1,8.9,1,8.8,1,10.6,1,13.5,1,12.3,1,13.2,1,10.4,2,14.0,3,13.5,1
2014-05-18 05:00:00,12.9,2,10.3,2,10.8,2,9.3,1,9.2,2,11.0,2,11.2,2,10.6,2,10.6,2,11.0,2,12.2,2,9.2,3,10.3,3,10.9,4,11.5,1,10.6,1,10.0,2,8.6,2,9.5,1,9.0,2,10.8,2,9.5,2,10.0,2,7.2,3,11.9,1,11.6,1,9.3,1,8.9,1,10.8,1,13.8,1,12.7,1,13.5,1,11.0,2,14.5,3,13.6,1
2014-05-18 06:00:00,13.6,2,11.4,1,11.9,2,10.7,2,10.3,2,11.8,2,12.1,2,11.7,2,11.7,2,12.2,2,12.9,2,10.7,3,11.5,2,12.2,3,12.4,1,11.6,1,11.0,2,10.1,1,10.6,1,10.3,2,11.4,2,10.4,2,10.9,2,8.3,3,12.6,1,12.5,1,10.5,1,10.0,1,11.8,2,14.7,2,13.8,2,14.4,1,12.4,2,15.4,3,14.3,1
2014-05-18 07:00:00,14.6,1,13.3,1,13.7,2,12.9,2,12.2,2,13.5,2,13.8,2,13.6,2,13.3,1,13.9,1,14.6,1,12.8,2,13.1,2,13.7,2,14.2,1,13.4,1,12.9,2,12.3,1,12.3,1,12.1,2,12.8,2,12.1,2,12.3,1,10.3,3,14.4,1,14.1,1,12.4,1,12.5,1,13.7,1,16.1,2,15.5,2,16.0,1,14.9,2,16.6,2,15.6,1
2014-05-18 08:00:00,15.8,1,15.5,1,15.7,2,15.4,2,14.4,2,15.5,2,15.9,2,16.0,2,15.2,1,15.9,1,16.8,1,15.1,2,14.8,2,15.2,2,16.5,1,15.7,1,15.3,1,14.8,1,14.3,1,14.0,2,14.6,2,14.1,2,14.1,1,12.8,3,16.9,1,16.1,1,14.7,1,15.6,1,16.0,1,17.7,1,17.6,1,18.0,1,17.8,2,17.8,2,17.3,1
2014-05-18 09:00:00,16.8,1,17.5,1,17.7,2,17.7,2,16.5,1,17.4,2,17.8,2,18.2,2,17.0,1,17.7,1,18.8,1,17.2,2,16.3,2,16.6,2,18.7,1,17.8,1,17.4,1,17.0,2,16.1,1,15.6,2,16.4,2,16.2,2,15.9,1,15.3,3,19.2,1,18.1,1,16.9,1,18.5,1,18.3,1,19.1,1,19.5,1,19.7,1,20.3,2,18.7,2,18.7,1
2014-05-18 10:00:00,17.4,2,18.9,2,19.2,2,19.3,2,18.0,2,18.6,2,19.1,2,19.8,2,18.3,2,19.0,2,20.1,2,18.7,1,17.4,2,17.7,2,20.2,1,19.4,1,18.9,1,18.5,2,17.5,1,16.7,2,17.8,2,18.0,2,17.4,1,17.3,3,20.9,1,19.9,1,18.6,1,20.3,1,20.1,1,19.9,1,20.9,1,20.8,2,21.8,2,19.2,2,19.6,1
2014-05-18 11:00:00,17.8,2,19.8,2,20.3,2,20.3,2,19.1,2,19.1,2,20.0,2,21.0,2,19.3,2,20.0,2,20.8,2,19.7,1,18.2,2,18.5,2,21.2,2,20.6,2,19.9,1,19.6,2,18.6,2,17.5,2,18.8,2,19.4,3,18.7,2,18.7,3,22.1,1,21.3,2,19.7,1,21.4,2,21.5,1,20.2,1,21.7,2,21.5,2,22.6,2,19.3,2,20.0,1
2014-05-18 12:00:00,18.1,3,20.4,3,21.1,2,20.9,2,19.8,2,19.4,2,20.4,2,21.8,2,20.1,2,20.7,2,21.4,2,20.5,2,18.9,3,19.3,3,22.0,2,21.4,2,20.8,1,20.5,2,19.4,2,18.2,2,19.7,2,20.5,3,19.8,2,19.5,3,23.1,1,22.4,2,20.5,2,22.1,2,22.5,1,20.2,2,22.3,2,21.7,2,22.8,2,19.2,2,20.2,2
2014-05-18 13:00:00,18.4,3,20.9,2,21.6,2,21.3,2,20.4,2,19.5,2,20.6,2,22.4,2,20.8,2,21.4,2,22.0,2,21.2,2,19.5,3,20.1,4,22.7,2,22.1,2,21.8,2,21.5,2,20.2,2,19.0,3,20.5,2,21.4,3,20.8,2,19.6,3,24.1,1,23.1,2,21.0,2,22.8,2,23.2,1,20.1,2,22.7,2,21.7,2,22.8,2,19.1,2,20.2,2
2014-05-18 14:00:00,18.8,2,21.3,2,22.0,2,21.6,2,20.9,2,19.5,2,20.6,3,22.9,2,21.3,2,21.9,2,22.6,2,21.7,3,20.0,4,20.8,5,23.2,2,22.6,2,22.6,2,22.3,2,20.8,2,19.7,4,21.1,2,21.9,3,21.6,2,19.2,4,25.0,1,23.4,2,21.2,3,23.5,2,23.5,1,20.0,2,22.8,2,21.5,2,22.7,2,19.0,2,20.0,3
2014-05-18 15:00:00,19.0,2,21.4,2,22.0,2,21.6,2,21.2,2,19.2,2,20.5,3,23.1,2,21.6,2,22.2,2,22.9,2,22.0,3,20.2,4,21.1,6,23.5,2,22.9,2,23.1,2,22.7,2,21.2,2,20.1,5,21.4,2,22.1,3,22.0,3,18.5,4,25.6,2,23.2,2,21.1,3,23.9,2,23.4,1,19.6,2,22.5,1,21.1,2,22.4,2,18.9,2,19.6,3
2014-05-18 16:00:00,19.0,2,21.2,2,21.7,2,21.3,2,21.3,2,18.6,2,20.2,4,23.1,2,21.6,2,22.2,2,22.9,2,21.9,3,20.0,4,20.9,6,23.3,2,23.0,2,22.9,2,22.4,2,21.3,2,20.0,4,21.4,2,21.8,4,21.9,3,17.7,4,25.8,2,22.6,2,20.6,3,23.8,2,22.8,1,19.0,1,21.8,1,20.5,2,21.9,2,18.8,2,18.9,3
2014-05-18 17:00:00,18.9,2,20.7,2,21.2,2,20.6,2,20.9,2,17.7,2,19.5,5,22.7,3,21.3,2,21.8,2,22.5,2,21.3,3,19.4,4,20.1,4,22.7,3,22.6,2,22.2,2,21.5,1,20.8,2,19.3,3,20.9,2,21.1,5,21.3,3,16.7,4,25.5,2,21.5,2,19.7,2,23.1,2,21.9,2,18.3,1,20.6,1,19.6,2,21.0,2,18.6,2,18.0,4
2014-05-18 18:00:00,18.5,2,19.7,2,20.3,2,19.4,2,19.7,2,16.5,2,18.5,5,21.7,3,20.5,2,21.0,2,21.7,2,19.8,3,18.3,4,18.9,3,21.5,3,21.7,2,21.1,2,19.9,1,19.6,2,18.1,2,20.1,2,20.0,5,20.4,2,15.6,4,24.5,2,20.0,2,18.3,2,21.6,2,20.6,2,17.4,1,19.1,1,18.7,2,19.8,2,18.3,2,17.1,4
2014-05-18 19:00:00,17.9,2,18.3,2,19.1,2,17.8,2,17.7,2,15.1,3,17.0,5,20.1,3,19.2,2,19.7,2,20.6,2,17.4,2,16.6,4,17.3,2,19.8,2,20.1,2,19.7,2,17.8,1,17.6,2,16.4,2,19.0,2,18.6,5,19.2,2,14.4,4,22.9,2,18.1,2,16.6,1,19.3,2,19.2,1,16.5,2,17.4,1,17.7,3,18.2,3,17.7,2,16.2,4
2014-05-18 20:00:00,17.2,2,16.7,2,17.8,1,16.0,2,15.3,2,13.7,3,15.4,4,18.2,2,17.6,2,18.1,2,19.4,2,14.7,2,14.8,3,15.6,2,18.0,2,18.2,2,18.2,1,15.5,1,15.3,2,14.6,2,17.7,2,17.2,4,18.0,3,13.2,4,21.1,1,16.1,1,14.7,1,16.9,2,17.7,1,15.7,2,15.7,2,16.7,3,16.5,3,17.1,3,15.5,5
2014-05-18 21:00:00,16.6,1,15.3,1,16.6,1,14.6,2,13.3,2,12.5,4,13.9,3,16.5,1,16.2,1,16.7,1,18.4,1,12.6,2,13.2,2,14.0,2,16.3,1,16.5,2,16.7,1,13.7,1,13.4,2,13.0,2,16.5,1,15.9,4,16.9,3,12.1,4,19.4,1,14.4,1,13.1,1,14.8,1,16.4,1,15.1,3,14.3,2,15.8,3,15.1,4,16.5,3,14.9,5
2014-05-18 22:00:00,16.2,1,14.4,1,15.6,2,13.9,2,12.2,2,11.7,4,12.9,3,15.3,1,15.2,1,15.6,1,17.6,1,11.6,1,12.1,2,12.7,2,15.1,1,15.3,2,15.5,1,12.6,2,12.4,2,11.9,2,15.6,1,14.9,4,16.1,3,11.2,4,18.2,1,13.2,1,11.9,1,13.7,1,15.4,2,14.7,3,13.3,2,15.1,4,14.2,4,16.1,3,14.5,6
2014-05-18 23:00:00,15.8,2,13.8,1,14.8,2,13.6,2,11.7,2,11.2,4,12.4,4,14.5,2,14.4,1,14.8,1,17.1,1,11.4,1,11.5,2,11.8,2,14.4,1,14.6,2,14.5,1,12.1,2,12.1,2,11.2,2,14.9,2,14.1,4,15.5,3,10.5,4,17.3,1,12.4,2,11.1,1,13.3,1,14.6,2,14.4,4,12.7,2,14.5,4,13.6,5,15.9,3,14.2,6
2014-05-19 00:00:00,15.6,2,13.5,2,14.1,3,13.5,2,11.6,2,10.9,4,12.1,5,13.9,2,13.9,2,14.2,2,16.6,2,11.5,1,11.0,2,11.1,2,14.0,2,14.1,2,13.7,2,11.7,2,11.9,2,10.8,2,14.4,2,13.6,4,14.9,3,9.9,5,16.7,1,12.0,2,10.5,2,13.1,1,14.0,3,14.2,4,12.4,3,14.2,4,13.1,5,15.7,4,14.0,6
2014-05-19 01:00:00,15.4,2,13.2,2,13.5,3,13.3,2,11.4,1,10.8,4,11.9,5,13.4,2,13.4,2,13.6,2,16.0,2,11.4,1,10.6,2,10.6,2,13.8,2,13.7,2,13.1,2,11.3,1,11.5,2,10.5,2,13.9,2,13.2,4,14.2,3,9.5,5,16.1,1,11.7,2,10.0,2,12.9,2,13.5,2,14.0,5,12.2,3,14.1,5,12.6,5,15.5,5,13.8,6
2014-05-19 02:00:00,15.1,2,12.9,2,13.0,2,13.0,2,11.3,1,10.8,4,11.8,5,12.9,2,13.0,2,13.2,2,15.4,2,11.1,1,10.3,2,10.4,2,13.7,2,13.4,2,12.7,2,10.9,1,10.9,2,10.2,2,13.4,1,12.9,3,13.5,3,9.1,5,15.5,1,11.6,3,9.6,3,12.6,2,13.2,2,13.9,5,12.2,5,14.2,5,12.1,4,15.3,5,13.6,6
2014-05-19 03:00:00,14.8,2,12.6,1,12.6,2,12.7,1,11.1,1,10.8,5,11.6,5,12.4,2,12.7,2,12.9,2,14.8,2,10.9,1,10.2,2,10.5,2,13.5,2,13.1,2,12.3,2,10.7,2,10.6,2,10.2,2,13.0,1,12.6,3,12.9,3,8.8,4,14.9,2,11.7,3,9.5,4,12.2,2,12.9,2,13.9,6,12.3,6,14.5,6,12.0,5,15.2,6,13.6,5
2014-05-19 04:00:00,14.5,2,12.2,1,12.4,2,12.4,2,11.1,2,10.7,5,11.4,5,12.0,2,12.6,3,12.9,2,14.3,2,10.9,2,10.5,2,10.9,2,13.2,2,13.0,1,12.1,2,10.9,2,10.7,2,10.4,3,12.6,1,12.4,3,12.6,2,8.6,4,14.3,3,11.9,4,9.7,5,11.9,2,12.8,2,14.1,6,12.7,6,14.9,6,12.4,5,15.4,6,13.8,5
2014-05-19 05:00:00,14.5,2,12.2,2,12.8,2,12.5,2,11.4,2,10.8,6,11.5,5,12.0,2,12.9,3,13.4,3,14.3,3,11.5,2,11.3,2,11.7,3,13.2,3,13.2,1,12.2,2,11.7,3,11.4,3,11.1,3,12.6,1,12.4,3,12.8,2,8.8,4,14.2,5,12.4,5,10.2,6,11.9,3,13.0,2,14.6,6,13.3,7,15.4,7,13.4,6,15.8,6,14.3,6
2014-05-19 06:00:00,15.0,2,13.1,2,13.8,3,13.3,2,12.4,2,11.3,7,12.2,5,12.8,3,13.9,3,14.4,3,15.1,3,12.8,2,12.7,2,13.0,3,13.9,3,14.0,2,13.2,2,13.1,3,12.6,3,12.4,3,13.1,1,13.1,3,13.5,2,9.8,4,14.8,6,13.3,6,11.3,7,12.7,3,13.8,2,15.3,6,14.2,7,16.3,7,14.9,7,16.5,6,15.0,6
2014-05-19 07:00:00,16.2,2,15.1,2,15.7,2,15.2,2,14.2,2,12.3,7,13.6,5,14.5,3,15.6,3,16.0,3,16.8,2,15.0,2,14.6,2,14.8,3,15.5,4,15.6,2,15.1,2,15.1,3,14.4,3,14.4,3,14.3,1,14.5,3,14.9,2,11.9,4,16.5,5,14.6,6,12.9,6,14.5,3,15.3,2,16.2,7,15.4,7,17.5,7,16.9,7,17.4,6,16.0,6
